a:536:{i:0;a:3:{i:0;s:14:"document_start";i:1;a:0:{}i:2;i:0;}i:1;a:3:{i:0;s:6:"p_open";i:1;a:0:{}i:2;i:0;}i:2;a:3:{i:0;s:5:"cdata";i:1;a:1:{i:0;s:20:"Chapter 1. Blender";}i:2;i:1;}i:3;a:3:{i:0;s:7:"p_close";i:1;a:0:{}i:2;i:21;}i:4;a:3:{i:0;s:6:"p_open";i:1;a:0:{}i:2;i:21;}i:5;a:3:{i:0;s:5:"cdata";i:1;a:1:{i:0;s:17:"Table of Contents";}i:2;i:23;}i:6;a:3:{i:0;s:7:"p_close";i:1;a:0:{}i:2;i:40;}i:7;a:3:{i:0;s:6:"p_open";i:1;a:0:{}i:2;i:40;}i:8;a:3:{i:0;s:5:"cdata";i:1;a:1:{i:0;s:93:"Binary Installation
Compiling from Source
Blender Plugins
Renderers
Blender as a Video Editor";}i:2;i:42;}i:9;a:3:{i:0;s:7:"p_close";i:1;a:0:{}i:2;i:135;}i:10;a:3:{i:0;s:6:"p_open";i:1;a:0:{}i:2;i:135;}i:11;a:3:{i:0;s:5:"cdata";i:1;a:1:{i:0;s:9:"Strengths";}i:2;i:137;}i:12;a:3:{i:0;s:7:"p_close";i:1;a:0:{}i:2;i:146;}i:13;a:3:{i:0;s:6:"p_open";i:1;a:0:{}i:2;i:146;}i:14;a:3:{i:0;s:5:"cdata";i:1;a:1:{i:0;s:8:"Powerful";}i:2;i:148;}i:15;a:3:{i:0;s:7:"p_close";i:1;a:0:{}i:2;i:156;}i:16;a:3:{i:0;s:12:"preformatted";i:1;a:1:{i:0;s:53:"Full-featured and mature, capable of nearly anything.";}i:2;i:156;}i:17;a:3:{i:0;s:6:"plugin";i:1;a:4:{i:0;s:20:"markdowku_codeblocks";i:1;b:1;i:2;i:4;i:3;s:1:"
";}i:2;i:215;}i:18;a:3:{i:0;s:6:"p_open";i:1;a:0:{}i:2;i:215;}i:19;a:3:{i:0;s:5:"cdata";i:1;a:1:{i:0;s:6:"Stable";}i:2;i:217;}i:20;a:3:{i:0;s:7:"p_close";i:1;a:0:{}i:2;i:223;}i:21;a:3:{i:0;s:12:"preformatted";i:1;a:1:{i:0;s:46:"Quality code that takes reliability seriously.";}i:2;i:223;}i:22;a:3:{i:0;s:6:"plugin";i:1;a:4:{i:0;s:20:"markdowku_codeblocks";i:1;b:1;i:2;i:4;i:3;s:1:"
";}i:2;i:275;}i:23;a:3:{i:0;s:6:"p_open";i:1;a:0:{}i:2;i:275;}i:24;a:3:{i:0;s:5:"cdata";i:1;a:1:{i:0;s:9:"Efficient";}i:2;i:277;}i:25;a:3:{i:0;s:7:"p_close";i:1;a:0:{}i:2;i:286;}i:26;a:3:{i:0;s:12:"preformatted";i:1;a:1:{i:0;s:57:"A finely-tuned user interface for fast and fluid control.";}i:2;i:286;}i:27;a:3:{i:0;s:6:"plugin";i:1;a:4:{i:0;s:20:"markdowku_codeblocks";i:1;b:1;i:2;i:4;i:3;s:1:"
";}i:2;i:349;}i:28;a:3:{i:0;s:6:"p_open";i:1;a:0:{}i:2;i:349;}i:29;a:3:{i:0;s:5:"cdata";i:1;a:1:{i:0;s:8:"Flexible";}i:2;i:351;}i:30;a:3:{i:0;s:7:"p_close";i:1;a:0:{}i:2;i:359;}i:31;a:3:{i:0;s:12:"preformatted";i:1;a:1:{i:0;s:46:"Rich Python API allows for user customisation.";}i:2;i:359;}i:32;a:3:{i:0;s:6:"plugin";i:1;a:4:{i:0;s:20:"markdowku_codeblocks";i:1;b:1;i:2;i:4;i:3;s:1:"
";}i:2;i:411;}i:33;a:3:{i:0;s:6:"p_open";i:1;a:0:{}i:2;i:411;}i:34;a:3:{i:0;s:5:"cdata";i:1;a:1:{i:0;s:10:"Weaknesses";}i:2;i:413;}i:35;a:3:{i:0;s:7:"p_close";i:1;a:0:{}i:2;i:423;}i:36;a:3:{i:0;s:6:"p_open";i:1;a:0:{}i:2;i:423;}i:37;a:3:{i:0;s:5:"cdata";i:1;a:1:{i:0;s:7:"Complex";}i:2;i:425;}i:38;a:3:{i:0;s:7:"p_close";i:1;a:0:{}i:2;i:432;}i:39;a:3:{i:0;s:12:"preformatted";i:1;a:1:{i:0;s:58:"There is a learning curve that some people consider steep.";}i:2;i:432;}i:40;a:3:{i:0;s:6:"plugin";i:1;a:4:{i:0;s:20:"markdowku_codeblocks";i:1;b:1;i:2;i:4;i:3;s:1:"
";}i:2;i:496;}i:41;a:3:{i:0;s:6:"p_open";i:1;a:0:{}i:2;i:496;}i:42;a:3:{i:0;s:5:"cdata";i:1;a:1:{i:0;s:13:"Misunderstood";}i:2;i:498;}i:43;a:3:{i:0;s:7:"p_close";i:1;a:0:{}i:2;i:511;}i:44;a:3:{i:0;s:12:"preformatted";i:1;a:1:{i:0;s:199:"Because it is powerful, people often praise it for things that it can
technically do, even though it may not be the best application for that
task. Alternately, people do not understand what it does.";}i:2;i:511;}i:45;a:3:{i:0;s:6:"plugin";i:1;a:4:{i:0;s:20:"markdowku_codeblocks";i:1;b:1;i:2;i:4;i:3;s:1:"
";}i:2;i:724;}i:46;a:3:{i:0;s:6:"p_open";i:1;a:0:{}i:2;i:724;}i:47;a:3:{i:0;s:5:"cdata";i:1;a:1:{i:0;s:8:"See Also";}i:2;i:726;}i:48;a:3:{i:0;s:7:"p_close";i:1;a:0:{}i:2;i:734;}i:49;a:3:{i:0;s:6:"p_open";i:1;a:0:{}i:2;i:734;}i:50;a:3:{i:0;s:5:"cdata";i:1;a:1:{i:0;s:76:"MakeHuman
K3d
Kdenlive
Natron
Synfig Studio
Mitsuba
Luxrender
Yafaray
povray";}i:2;i:736;}i:51;a:3:{i:0;s:7:"p_close";i:1;a:0:{}i:2;i:812;}i:52;a:3:{i:0;s:6:"p_open";i:1;a:0:{}i:2;i:812;}i:53;a:3:{i:0;s:5:"cdata";i:1;a:1:{i:0;s:568:"Blender is a powerful application that can be used for 3d modeling, graphics,
motion graphics, compositing, special effects, game design, and quite a lot
more. It is very actively developed, with new features arriving often. Blender
is not just in use by movie studios, tv stations, and independent artists
around the world, but by the Blender Foundation itself, which produces short
films on a regular basis, adding features to the application based directly
upon artist needs. Blender is by no means an academic exercise; it is a serious
tool for serious production.";}i:2;i:814;}i:54;a:3:{i:0;s:7:"p_close";i:1;a:0:{}i:2;i:1382;}i:55;a:3:{i:0;s:6:"p_open";i:1;a:0:{}i:2;i:1382;}i:56;a:3:{i:0;s:5:"cdata";i:1;a:1:{i:0;s:19:"Binary Installation";}i:2;i:1384;}i:57;a:3:{i:0;s:7:"p_close";i:1;a:0:{}i:2;i:1403;}i:58;a:3:{i:0;s:6:"p_open";i:1;a:0:{}i:2;i:1403;}i:59;a:3:{i:0;s:5:"cdata";i:1;a:1:{i:0;s:340:"There are pre-compiled binaries available on the blender.org site (with easy
installation possible from SlackBuilds.org) for 32-bit and 64-bit systems. 
Blender is rapidly developed, and yet the releases are quite stable, so there
is probably no harm in checking the site before installing to ensure that you
are getting the latest version.";}i:2;i:1405;}i:60;a:3:{i:0;s:7:"p_close";i:1;a:0:{}i:2;i:1745;}i:61;a:3:{i:0;s:6:"p_open";i:1;a:0:{}i:2;i:1745;}i:62;a:3:{i:0;s:5:"cdata";i:1;a:1:{i:0;s:406:"The precompiled binaries from blender.org force you to use the bundled version
of ffmpeg, which may or may not be the best version of ffmpeg for your needs.
For most people, the pre-compiled version of Blender is suitable, but if you
want to use your own custom compiled version of ffmpeg, you must compile 
Blender from source code. It is sensible to start with a pre-compiled version
of Blender and then ";}i:2;i:1747;}i:63;a:3:{i:0;s:18:"doublequoteopening";i:1;a:0:{}i:2;i:2153;}i:64;a:3:{i:0;s:5:"cdata";i:1;a:1:{i:0;s:7:"upgrade";}i:2;i:2154;}i:65;a:3:{i:0;s:18:"doublequoteclosing";i:1;a:0:{}i:2;i:2161;}i:66;a:3:{i:0;s:5:"cdata";i:1;a:1:{i:0;s:56:" to a custom version only if you find the need to
do so.";}i:2;i:2162;}i:67;a:3:{i:0;s:7:"p_close";i:1;a:0:{}i:2;i:2218;}i:68;a:3:{i:0;s:6:"p_open";i:1;a:0:{}i:2;i:2218;}i:69;a:3:{i:0;s:5:"cdata";i:1;a:1:{i:0;s:4:"Note";}i:2;i:2220;}i:70;a:3:{i:0;s:7:"p_close";i:1;a:0:{}i:2;i:2224;}i:71;a:3:{i:0;s:6:"p_open";i:1;a:0:{}i:2;i:2224;}i:72;a:3:{i:0;s:5:"cdata";i:1;a:1:{i:0;s:272:"When installing from slackbuilds.org, Blender is installed to /opt, a standard
non-standard location. This will not effect how Blender works or even how you
interact with it, but it could effect how you install plugins (if you are
maintaining a system for multiple users).";}i:2;i:2226;}i:73;a:3:{i:0;s:7:"p_close";i:1;a:0:{}i:2;i:2498;}i:74;a:3:{i:0;s:6:"p_open";i:1;a:0:{}i:2;i:2498;}i:75;a:3:{i:0;s:5:"cdata";i:1;a:1:{i:0;s:21:"Compiling from Source";}i:2;i:2500;}i:76;a:3:{i:0;s:7:"p_close";i:1;a:0:{}i:2;i:2521;}i:77;a:3:{i:0;s:6:"p_open";i:1;a:0:{}i:2;i:2521;}i:78;a:3:{i:0;s:5:"cdata";i:1;a:1:{i:0;s:229:"The compilation process of Blender is not as complex as it might seem at first
glance over its developer documentation. On a default Slackware system, most of
Blender's dependencies are already installed and there is no need for
";}i:2;i:2523;}i:79;a:3:{i:0;s:18:"doublequoteopening";i:1;a:0:{}i:2;i:2752;}i:80;a:3:{i:0;s:5:"cdata";i:1;a:1:{i:0;s:11:"development";}i:2;i:2753;}i:81;a:3:{i:0;s:18:"doublequoteclosing";i:1;a:0:{}i:2;i:2764;}i:82;a:3:{i:0;s:5:"cdata";i:1;a:1:{i:0;s:224:" versions of libraries as the dev docs list for distributions like
Fedora or Ubuntu. As long as you install (or already have installed, in many
cases) the dependencies, Blender will compile. The process is relatively
simple:";}i:2;i:2765;}i:83;a:3:{i:0;s:7:"p_close";i:1;a:0:{}i:2;i:2989;}i:84;a:3:{i:0;s:10:"listo_open";i:1;a:0:{}i:2;i:2989;}i:85;a:3:{i:0;s:13:"listitem_open";i:1;a:1:{i:0;i:1;}i:2;i:2989;}i:86;a:3:{i:0;s:16:"listcontent_open";i:1;a:0:{}i:2;i:2989;}i:87;a:3:{i:0;s:6:"plugin";i:1;a:4:{i:0;s:16:"markdowku_olists";i:1;b:1;i:2;i:1;i:3;s:6:"

 1. ";}i:2;i:2989;}i:88;a:3:{i:0;s:5:"cdata";i:1;a:1:{i:0;s:74:"Install Python3 from slackbuilds.org. It is safe to have both the default ";}i:2;i:2995;}i:89;a:3:{i:0;s:6:"plugin";i:1;a:4:{i:0;s:16:"markdowku_olists";i:1;b:1;i:2;i:3;i:3;s:74:"Install Python3 from slackbuilds.org. It is safe to have both the default ";}i:2;i:2995;}i:90;a:3:{i:0;s:5:"cdata";i:1;a:1:{i:0;s:62:"
    Python2.x and Python3 installed on your Slackware system.";}i:2;i:3069;}i:91;a:3:{i:0;s:6:"plugin";i:1;a:4:{i:0;s:16:"markdowku_olists";i:1;b:1;i:2;i:3;i:3;s:61:"    Python2.x and Python3 installed on your Slackware system.";}i:2;i:3070;}i:92;a:3:{i:0;s:5:"cdata";i:1;a:1:{i:0;s:1:"
";}i:2;i:3131;}i:93;a:3:{i:0;s:17:"listcontent_close";i:1;a:0:{}i:2;i:3132;}i:94;a:3:{i:0;s:14:"listitem_close";i:1;a:0:{}i:2;i:3132;}i:95;a:3:{i:0;s:13:"listitem_open";i:1;a:1:{i:0;i:0;}i:2;i:3132;}i:96;a:3:{i:0;s:16:"listcontent_open";i:1;a:0:{}i:2;i:3132;}i:97;a:3:{i:0;s:6:"plugin";i:1;a:4:{i:0;s:16:"markdowku_olists";i:1;b:1;i:2;i:2;i:3;s:5:"
 2. ";}i:2;i:3132;}i:98;a:3:{i:0;s:5:"cdata";i:1;a:1:{i:0;s:72:"Download the source code from blender.org. The development team offers a";}i:2;i:3137;}i:99;a:3:{i:0;s:6:"plugin";i:1;a:4:{i:0;s:16:"markdowku_olists";i:1;b:1;i:2;i:3;i:3;s:72:"Download the source code from blender.org. The development team offers a";}i:2;i:3137;}i:100;a:3:{i:0;s:5:"cdata";i:1;a:1:{i:0;s:76:"
    stable release tarball as well as the development code from svn; a true";}i:2;i:3209;}i:101;a:3:{i:0;s:6:"plugin";i:1;a:4:{i:0;s:16:"markdowku_olists";i:1;b:1;i:2;i:3;i:3;s:75:"    stable release tarball as well as the development code from svn; a true";}i:2;i:3210;}i:102;a:3:{i:0;s:5:"cdata";i:1;a:1:{i:0;s:60:"
    Slackware multimediatician will use the stable release.";}i:2;i:3285;}i:103;a:3:{i:0;s:6:"plugin";i:1;a:4:{i:0;s:16:"markdowku_olists";i:1;b:1;i:2;i:3;i:3;s:59:"    Slackware multimediatician will use the stable release.";}i:2;i:3286;}i:104;a:3:{i:0;s:5:"cdata";i:1;a:1:{i:0;s:1:"
";}i:2;i:3345;}i:105;a:3:{i:0;s:17:"listcontent_close";i:1;a:0:{}i:2;i:3346;}i:106;a:3:{i:0;s:14:"listitem_close";i:1;a:0:{}i:2;i:3346;}i:107;a:3:{i:0;s:13:"listitem_open";i:1;a:1:{i:0;i:0;}i:2;i:3346;}i:108;a:3:{i:0;s:16:"listcontent_open";i:1;a:0:{}i:2;i:3346;}i:109;a:3:{i:0;s:6:"plugin";i:1;a:4:{i:0;s:16:"markdowku_olists";i:1;b:1;i:2;i:2;i:3;s:5:"
 3. ";}i:2;i:3346;}i:110;a:3:{i:0;s:5:"cdata";i:1;a:1:{i:0;s:44:"Untar the downloaded archive and cd into it.";}i:2;i:3351;}i:111;a:3:{i:0;s:6:"plugin";i:1;a:4:{i:0;s:16:"markdowku_olists";i:1;b:1;i:2;i:3;i:3;s:44:"Untar the downloaded archive and cd into it.";}i:2;i:3351;}i:112;a:3:{i:0;s:6:"p_open";i:1;a:0:{}i:2;i:3395;}i:113;a:3:{i:0;s:5:"cdata";i:1;a:1:{i:0;s:27:"      $ tar -xzf blender-2.";}i:2;i:3397;}i:114;a:3:{i:0;s:6:"plugin";i:1;a:4:{i:0;s:16:"markdowku_olists";i:1;b:1;i:2;i:3;i:3;s:27:"      $ tar -xzf blender-2.";}i:2;i:3397;}i:115;a:3:{i:0;s:6:"plugin";i:1;a:4:{i:0;s:24:"markdowku_italicasterisk";i:1;a:2:{i:0;i:1;i:1;s:1:"*";}i:2;i:1;i:3;s:1:"*";}i:2;i:3424;}i:116;a:3:{i:0;s:6:"plugin";i:1;a:4:{i:0;s:24:"markdowku_italicasterisk";i:1;a:2:{i:0;i:3;i:1;s:29:".tar.gz
      $ cd blender-2.";}i:2;i:3;i:3;s:29:".tar.gz
      $ cd blender-2.";}i:2;i:3425;}i:117;a:3:{i:0;s:6:"plugin";i:1;a:4:{i:0;s:24:"markdowku_italicasterisk";i:1;a:2:{i:0;i:4;i:1;s:1:"*";}i:2;i:4;i:3;s:1:"*";}i:2;i:3454;}i:118;a:3:{i:0;s:5:"cdata";i:1;a:1:{i:0;s:0:"";}i:2;i:3455;}i:119;a:3:{i:0;s:7:"p_close";i:1;a:0:{}i:2;i:3456;}i:120;a:3:{i:0;s:17:"listcontent_close";i:1;a:0:{}i:2;i:3456;}i:121;a:3:{i:0;s:14:"listitem_close";i:1;a:0:{}i:2;i:3456;}i:122;a:3:{i:0;s:13:"listitem_open";i:1;a:1:{i:0;i:0;}i:2;i:3456;}i:123;a:3:{i:0;s:16:"listcontent_open";i:1;a:0:{}i:2;i:3456;}i:124;a:3:{i:0;s:6:"plugin";i:1;a:4:{i:0;s:16:"markdowku_olists";i:1;b:1;i:2;i:2;i:3;s:5:"
 4. ";}i:2;i:3456;}i:125;a:3:{i:0;s:5:"cdata";i:1;a:1:{i:0;s:75:"Create an isolated destination directory so that a Slackware package can be";}i:2;i:3461;}i:126;a:3:{i:0;s:6:"plugin";i:1;a:4:{i:0;s:16:"markdowku_olists";i:1;b:1;i:2;i:3;i:3;s:75:"Create an isolated destination directory so that a Slackware package can be";}i:2;i:3461;}i:127;a:3:{i:0;s:5:"cdata";i:1;a:1:{i:0;s:13:"
    created:";}i:2;i:3536;}i:128;a:3:{i:0;s:6:"plugin";i:1;a:4:{i:0;s:16:"markdowku_olists";i:1;b:1;i:2;i:3;i:3;s:12:"    created:";}i:2;i:3537;}i:129;a:3:{i:0;s:6:"p_open";i:1;a:0:{}i:2;i:3549;}i:130;a:3:{i:0;s:5:"cdata";i:1;a:1:{i:0;s:28:"        $ mkdir /tmp/blender";}i:2;i:3551;}i:131;a:3:{i:0;s:6:"plugin";i:1;a:4:{i:0;s:16:"markdowku_olists";i:1;b:1;i:2;i:3;i:3;s:28:"        $ mkdir /tmp/blender";}i:2;i:3551;}i:132;a:3:{i:0;s:7:"p_close";i:1;a:0:{}i:2;i:3579;}i:133;a:3:{i:0;s:17:"listcontent_close";i:1;a:0:{}i:2;i:3581;}i:134;a:3:{i:0;s:14:"listitem_close";i:1;a:0:{}i:2;i:3581;}i:135;a:3:{i:0;s:13:"listitem_open";i:1;a:1:{i:0;i:0;}i:2;i:3581;}i:136;a:3:{i:0;s:16:"listcontent_open";i:1;a:0:{}i:2;i:3581;}i:137;a:3:{i:0;s:6:"plugin";i:1;a:4:{i:0;s:16:"markdowku_olists";i:1;b:1;i:2;i:2;i:3;s:5:"
 5. ";}i:2;i:3581;}i:138;a:3:{i:0;s:5:"cdata";i:1;a:1:{i:0;s:70:"Invoke the build script, redirecting the output to the temporary build";}i:2;i:3586;}i:139;a:3:{i:0;s:6:"plugin";i:1;a:4:{i:0;s:16:"markdowku_olists";i:1;b:1;i:2;i:3;i:3;s:70:"Invoke the build script, redirecting the output to the temporary build";}i:2;i:3586;}i:140;a:3:{i:0;s:5:"cdata";i:1;a:1:{i:0;s:14:"
    location:";}i:2;i:3656;}i:141;a:3:{i:0;s:6:"plugin";i:1;a:4:{i:0;s:16:"markdowku_olists";i:1;b:1;i:2;i:3;i:3;s:13:"    location:";}i:2;i:3657;}i:142;a:3:{i:0;s:6:"p_open";i:1;a:0:{}i:2;i:3670;}i:143;a:3:{i:0;s:5:"cdata";i:1;a:1:{i:0;s:42:"      $ scons install destdir=/tmp/blender";}i:2;i:3672;}i:144;a:3:{i:0;s:6:"plugin";i:1;a:4:{i:0;s:16:"markdowku_olists";i:1;b:1;i:2;i:3;i:3;s:42:"      $ scons install destdir=/tmp/blender";}i:2;i:3672;}i:145;a:3:{i:0;s:5:"cdata";i:1;a:1:{i:0;s:0:"";}i:2;i:3714;}i:146;a:3:{i:0;s:7:"p_close";i:1;a:0:{}i:2;i:3715;}i:147;a:3:{i:0;s:17:"listcontent_close";i:1;a:0:{}i:2;i:3715;}i:148;a:3:{i:0;s:14:"listitem_close";i:1;a:0:{}i:2;i:3715;}i:149;a:3:{i:0;s:13:"listitem_open";i:1;a:1:{i:0;i:0;}i:2;i:3715;}i:150;a:3:{i:0;s:16:"listcontent_open";i:1;a:0:{}i:2;i:3715;}i:151;a:3:{i:0;s:6:"plugin";i:1;a:4:{i:0;s:16:"markdowku_olists";i:1;b:1;i:2;i:2;i:3;s:5:"
 6. ";}i:2;i:3715;}i:152;a:3:{i:0;s:5:"cdata";i:1;a:1:{i:0;s:39:"Create a Slackware package and install:";}i:2;i:3720;}i:153;a:3:{i:0;s:6:"plugin";i:1;a:4:{i:0;s:16:"markdowku_olists";i:1;b:1;i:2;i:3;i:3;s:39:"Create a Slackware package and install:";}i:2;i:3720;}i:154;a:3:{i:0;s:6:"p_open";i:1;a:0:{}i:2;i:3759;}i:155;a:3:{i:0;s:5:"cdata";i:1;a:1:{i:0;s:23:"      $ cd /tmp/blender";}i:2;i:3761;}i:156;a:3:{i:0;s:6:"plugin";i:1;a:4:{i:0;s:16:"markdowku_olists";i:1;b:1;i:2;i:3;i:3;s:23:"      $ cd /tmp/blender";}i:2;i:3761;}i:157;a:3:{i:0;s:5:"cdata";i:1;a:1:{i:0;s:65:"
      $ su -c 'makepkg -l y -c n /tmp/blender-2.xx-$(uname -m)-1";}i:2;i:3784;}i:158;a:3:{i:0;s:6:"plugin";i:1;a:4:{i:0;s:16:"markdowku_olists";i:1;b:1;i:2;i:3;i:3;s:64:"      $ su -c 'makepkg -l y -c n /tmp/blender-2.xx-$(uname -m)-1";}i:2;i:3785;}i:159;a:3:{i:0;s:6:"plugin";i:1;a:4:{i:0;s:25:"markdowku_italicunderline";i:1;a:2:{i:0;i:1;i:1;s:1:"_";}i:2;i:1;i:3;s:1:"_";}i:2;i:3849;}i:160;a:3:{i:0;s:6:"plugin";i:1;a:4:{i:0;s:25:"markdowku_italicunderline";i:1;a:2:{i:0;i:3;i:1;s:49:"SMi.tgz'
      $ su -c 'installpkg /tmp/blender*1";}i:2;i:3;i:3;s:49:"SMi.tgz'
      $ su -c 'installpkg /tmp/blender*1";}i:2;i:3850;}i:161;a:3:{i:0;s:6:"plugin";i:1;a:4:{i:0;s:25:"markdowku_italicunderline";i:1;a:2:{i:0;i:4;i:1;s:1:"_";}i:2;i:4;i:3;s:1:"_";}i:2;i:3899;}i:162;a:3:{i:0;s:5:"cdata";i:1;a:1:{i:0;s:8:"SMi.tgz'";}i:2;i:3900;}i:163;a:3:{i:0;s:6:"plugin";i:1;a:4:{i:0;s:16:"markdowku_olists";i:1;b:1;i:2;i:3;i:3;s:8:"SMi.tgz'";}i:2;i:3900;}i:164;a:3:{i:0;s:7:"p_close";i:1;a:0:{}i:2;i:3908;}i:165;a:3:{i:0;s:17:"listcontent_close";i:1;a:0:{}i:2;i:3908;}i:166;a:3:{i:0;s:14:"listitem_close";i:1;a:0:{}i:2;i:3908;}i:167;a:3:{i:0;s:11:"listo_close";i:1;a:0:{}i:2;i:3908;}i:168;a:3:{i:0;s:6:"plugin";i:1;a:4:{i:0;s:16:"markdowku_olists";i:1;b:1;i:2;i:4;i:3;s:1:"
";}i:2;i:3908;}i:169;a:3:{i:0;s:6:"p_open";i:1;a:0:{}i:2;i:3908;}i:170;a:3:{i:0;s:5:"cdata";i:1;a:1:{i:0;s:335:"Unexpected errors are common enough to warrant a note about them. Blender is
frequently developed, and building it from source will sometimes render a
puzzling error. Chances are, of course, that someone before you has experienced
the same error, so simply do an internet search on the error in order to find a
solution or work-around.";}i:2;i:3910;}i:171;a:3:{i:0;s:7:"p_close";i:1;a:0:{}i:2;i:4245;}i:172;a:3:{i:0;s:6:"p_open";i:1;a:0:{}i:2;i:4245;}i:173;a:3:{i:0;s:5:"cdata";i:1;a:1:{i:0;s:84:"For best results, search the internet for the exact error that you receive,
such as:";}i:2;i:4247;}i:174;a:3:{i:0;s:7:"p_close";i:1;a:0:{}i:2;i:4332;}i:175;a:3:{i:0;s:12:"preformatted";i:1;a:1:{i:0;s:51:"yasm: FATAL: unable to open include file `nasm.inc'";}i:2;i:4332;}i:176;a:3:{i:0;s:6:"p_open";i:1;a:0:{}i:2;i:4332;}i:177;a:3:{i:0;s:5:"cdata";i:1;a:1:{i:0;s:383:"Searching for very specific errors often return existing issues and their
solutions. Whether it's a bug or simply something that you overlooked when
preparing for the compile, the answers are often a simple matter of installing
another dependency or commenting out a bad line of code. Errors do happen, but
they needn't dissuade you from compiling important applications from source.";}i:2;i:4388;}i:178;a:3:{i:0;s:7:"p_close";i:1;a:0:{}i:2;i:4771;}i:179;a:3:{i:0;s:6:"p_open";i:1;a:0:{}i:2;i:4771;}i:180;a:3:{i:0;s:5:"cdata";i:1;a:1:{i:0;s:15:"Blender Plugins";}i:2;i:4773;}i:181;a:3:{i:0;s:7:"p_close";i:1;a:0:{}i:2;i:4788;}i:182;a:3:{i:0;s:6:"p_open";i:1;a:0:{}i:2;i:4788;}i:183;a:3:{i:0;s:5:"cdata";i:1;a:1:{i:0;s:321:"No small part of Blender's power comes from the wealth of plugins available for
it, both for free and for sale. Sites like cgcookiemarkets.com/blender and
blendernpr.org/store provide amazing tools at reasonable rates, and the site
blenderaddonlist.blogspot.com tracks as many independent and free addons it
possibly can.";}i:2;i:4790;}i:184;a:3:{i:0;s:7:"p_close";i:1;a:0:{}i:2;i:5111;}i:185;a:3:{i:0;s:6:"p_open";i:1;a:0:{}i:2;i:5111;}i:186;a:3:{i:0;s:5:"cdata";i:1;a:1:{i:0;s:127:"There are plugin sets that turn Blender into a nearly full-featured (and
certainly very capable) video editor, adds Maya-style ";}i:2;i:5113;}i:187;a:3:{i:0;s:18:"doublequoteopening";i:1;a:0:{}i:2;i:5240;}i:188;a:3:{i:0;s:5:"cdata";i:1;a:1:{i:0;s:9:"pie menus";}i:2;i:5241;}i:189;a:3:{i:0;s:18:"doublequoteclosing";i:1;a:0:{}i:2;i:5250;}i:190;a:3:{i:0;s:5:"cdata";i:1;a:1:{i:0;s:157:", provides
sculpting brushes, a quick-access asset library, and much more. You have only
to identify your need and then search for a plugin that resolves it.";}i:2;i:5251;}i:191;a:3:{i:0;s:7:"p_close";i:1;a:0:{}i:2;i:5408;}i:192;a:3:{i:0;s:6:"p_open";i:1;a:0:{}i:2;i:5408;}i:193;a:3:{i:0;s:5:"cdata";i:1;a:1:{i:0;s:93:"Read a plugin's documentation to find out how to install it, but usually the
steps are these:";}i:2;i:5410;}i:194;a:3:{i:0;s:7:"p_close";i:1;a:0:{}i:2;i:5503;}i:195;a:3:{i:0;s:10:"listo_open";i:1;a:0:{}i:2;i:5503;}i:196;a:3:{i:0;s:13:"listitem_open";i:1;a:1:{i:0;i:1;}i:2;i:5503;}i:197;a:3:{i:0;s:16:"listcontent_open";i:1;a:0:{}i:2;i:5503;}i:198;a:3:{i:0;s:6:"plugin";i:1;a:4:{i:0;s:16:"markdowku_olists";i:1;b:1;i:2;i:1;i:3;s:6:"

 1. ";}i:2;i:5503;}i:199;a:3:{i:0;s:5:"cdata";i:1;a:1:{i:0;s:42:"Download the plugin and unzip or untar it.";}i:2;i:5509;}i:200;a:3:{i:0;s:6:"plugin";i:1;a:4:{i:0;s:16:"markdowku_olists";i:1;b:1;i:2;i:3;i:3;s:42:"Download the plugin and unzip or untar it.";}i:2;i:5509;}i:201;a:3:{i:0;s:5:"cdata";i:1;a:1:{i:0;s:1:"
";}i:2;i:5551;}i:202;a:3:{i:0;s:17:"listcontent_close";i:1;a:0:{}i:2;i:5552;}i:203;a:3:{i:0;s:14:"listitem_close";i:1;a:0:{}i:2;i:5552;}i:204;a:3:{i:0;s:13:"listitem_open";i:1;a:1:{i:0;i:0;}i:2;i:5552;}i:205;a:3:{i:0;s:16:"listcontent_open";i:1;a:0:{}i:2;i:5552;}i:206;a:3:{i:0;s:6:"plugin";i:1;a:4:{i:0;s:16:"markdowku_olists";i:1;b:1;i:2;i:2;i:3;s:5:"
 2. ";}i:2;i:5552;}i:207;a:3:{i:0;s:5:"cdata";i:1;a:1:{i:0;s:65:"Read the plugin documentation for install and usage instructions.";}i:2;i:5557;}i:208;a:3:{i:0;s:6:"plugin";i:1;a:4:{i:0;s:16:"markdowku_olists";i:1;b:1;i:2;i:3;i:3;s:65:"Read the plugin documentation for install and usage instructions.";}i:2;i:5557;}i:209;a:3:{i:0;s:5:"cdata";i:1;a:1:{i:0;s:1:"
";}i:2;i:5622;}i:210;a:3:{i:0;s:17:"listcontent_close";i:1;a:0:{}i:2;i:5623;}i:211;a:3:{i:0;s:14:"listitem_close";i:1;a:0:{}i:2;i:5623;}i:212;a:3:{i:0;s:13:"listitem_open";i:1;a:1:{i:0;i:0;}i:2;i:5623;}i:213;a:3:{i:0;s:16:"listcontent_open";i:1;a:0:{}i:2;i:5623;}i:214;a:3:{i:0;s:6:"plugin";i:1;a:4:{i:0;s:16:"markdowku_olists";i:1;b:1;i:2;i:2;i:3;s:5:"
 3. ";}i:2;i:5623;}i:215;a:3:{i:0;s:5:"cdata";i:1;a:1:{i:0;s:69:"Unless otherwise instructed, place the plugin in /home/$USER/.config/";}i:2;i:5628;}i:216;a:3:{i:0;s:6:"plugin";i:1;a:4:{i:0;s:16:"markdowku_olists";i:1;b:1;i:2;i:3;i:3;s:69:"Unless otherwise instructed, place the plugin in /home/$USER/.config/";}i:2;i:5628;}i:217;a:3:{i:0;s:5:"cdata";i:1;a:1:{i:0;s:33:"
    blender/x.xx/scripts/addons/";}i:2;i:5697;}i:218;a:3:{i:0;s:6:"plugin";i:1;a:4:{i:0;s:16:"markdowku_olists";i:1;b:1;i:2;i:3;i:3;s:32:"    blender/x.xx/scripts/addons/";}i:2;i:5698;}i:219;a:3:{i:0;s:5:"cdata";i:1;a:1:{i:0;s:1:"
";}i:2;i:5730;}i:220;a:3:{i:0;s:17:"listcontent_close";i:1;a:0:{}i:2;i:5731;}i:221;a:3:{i:0;s:14:"listitem_close";i:1;a:0:{}i:2;i:5731;}i:222;a:3:{i:0;s:13:"listitem_open";i:1;a:1:{i:0;i:0;}i:2;i:5731;}i:223;a:3:{i:0;s:16:"listcontent_open";i:1;a:0:{}i:2;i:5731;}i:224;a:3:{i:0;s:6:"plugin";i:1;a:4:{i:0;s:16:"markdowku_olists";i:1;b:1;i:2;i:2;i:3;s:5:"
 4. ";}i:2;i:5731;}i:225;a:3:{i:0;s:5:"cdata";i:1;a:1:{i:0;s:51:"In Blender, navigate to the User Preferences panel.";}i:2;i:5736;}i:226;a:3:{i:0;s:6:"plugin";i:1;a:4:{i:0;s:16:"markdowku_olists";i:1;b:1;i:2;i:3;i:3;s:51:"In Blender, navigate to the User Preferences panel.";}i:2;i:5736;}i:227;a:3:{i:0;s:5:"cdata";i:1;a:1:{i:0;s:1:"
";}i:2;i:5787;}i:228;a:3:{i:0;s:17:"listcontent_close";i:1;a:0:{}i:2;i:5788;}i:229;a:3:{i:0;s:14:"listitem_close";i:1;a:0:{}i:2;i:5788;}i:230;a:3:{i:0;s:13:"listitem_open";i:1;a:1:{i:0;i:0;}i:2;i:5788;}i:231;a:3:{i:0;s:16:"listcontent_open";i:1;a:0:{}i:2;i:5788;}i:232;a:3:{i:0;s:6:"plugin";i:1;a:4:{i:0;s:16:"markdowku_olists";i:1;b:1;i:2;i:2;i:3;s:5:"
 5. ";}i:2;i:5788;}i:233;a:3:{i:0;s:5:"cdata";i:1;a:1:{i:0;s:74:"In the User Preferences window, click the Addons tab. Search for the addon";}i:2;i:5793;}i:234;a:3:{i:0;s:6:"plugin";i:1;a:4:{i:0;s:16:"markdowku_olists";i:1;b:1;i:2;i:3;i:3;s:74:"In the User Preferences window, click the Addons tab. Search for the addon";}i:2;i:5793;}i:235;a:3:{i:0;s:5:"cdata";i:1;a:1:{i:0;s:54:"
    you have installed either by keyword or category.";}i:2;i:5867;}i:236;a:3:{i:0;s:6:"plugin";i:1;a:4:{i:0;s:16:"markdowku_olists";i:1;b:1;i:2;i:3;i:3;s:53:"    you have installed either by keyword or category.";}i:2;i:5868;}i:237;a:3:{i:0;s:5:"cdata";i:1;a:1:{i:0;s:1:"
";}i:2;i:5921;}i:238;a:3:{i:0;s:17:"listcontent_close";i:1;a:0:{}i:2;i:5922;}i:239;a:3:{i:0;s:14:"listitem_close";i:1;a:0:{}i:2;i:5922;}i:240;a:3:{i:0;s:13:"listitem_open";i:1;a:1:{i:0;i:0;}i:2;i:5922;}i:241;a:3:{i:0;s:16:"listcontent_open";i:1;a:0:{}i:2;i:5922;}i:242;a:3:{i:0;s:6:"plugin";i:1;a:4:{i:0;s:16:"markdowku_olists";i:1;b:1;i:2;i:2;i:3;s:5:"
 6. ";}i:2;i:5922;}i:243;a:3:{i:0;s:5:"cdata";i:1;a:1:{i:0;s:71:"Click to place a tick mark in the Enable an addon box. The plugin is no";}i:2;i:5927;}i:244;a:3:{i:0;s:6:"plugin";i:1;a:4:{i:0;s:16:"markdowku_olists";i:1;b:1;i:2;i:3;i:3;s:71:"Click to place a tick mark in the Enable an addon box. The plugin is no";}i:2;i:5927;}i:245;a:3:{i:0;s:5:"cdata";i:1;a:1:{i:0;s:12:"
    active.";}i:2;i:5998;}i:246;a:3:{i:0;s:6:"plugin";i:1;a:4:{i:0;s:16:"markdowku_olists";i:1;b:1;i:2;i:3;i:3;s:11:"    active.";}i:2;i:5999;}i:247;a:3:{i:0;s:17:"listcontent_close";i:1;a:0:{}i:2;i:6010;}i:248;a:3:{i:0;s:14:"listitem_close";i:1;a:0:{}i:2;i:6010;}i:249;a:3:{i:0;s:11:"listo_close";i:1;a:0:{}i:2;i:6010;}i:250;a:3:{i:0;s:6:"plugin";i:1;a:4:{i:0;s:16:"markdowku_olists";i:1;b:1;i:2;i:4;i:3;s:1:"
";}i:2;i:6010;}i:251;a:3:{i:0;s:6:"p_open";i:1;a:0:{}i:2;i:6010;}i:252;a:3:{i:0;s:5:"cdata";i:1;a:1:{i:0;s:235:"Some plugins only appear in certain Screen layouts, and many of them are quite
complex because they add so much functionality, so you may need to research how
to use the plugin. Do some tutorials or read the docs, and then get to work.";}i:2;i:6012;}i:253;a:3:{i:0;s:7:"p_close";i:1;a:0:{}i:2;i:6247;}i:254;a:3:{i:0;s:6:"p_open";i:1;a:0:{}i:2;i:6247;}i:255;a:3:{i:0;s:5:"cdata";i:1;a:1:{i:0;s:9:"Renderers";}i:2;i:6249;}i:256;a:3:{i:0;s:7:"p_close";i:1;a:0:{}i:2;i:6258;}i:257;a:3:{i:0;s:6:"p_open";i:1;a:0:{}i:2;i:6258;}i:258;a:3:{i:0;s:5:"cdata";i:1;a:1:{i:0;s:482:"Blender ships with two renderers: the aptly named Blender Render and the newer 
Cycles. Both of these render engines are production quality, but the exciting
new features are going into Cycles. The best way to get to know a renderer,
from a user and artist perspective, is to spend time with it; render as often
as you can,experimenting with settings, lighting, and time. Find out how the
renderer works, what its strengths are, where it is slow or rough, and become
fluent with it.";}i:2;i:6260;}i:259;a:3:{i:0;s:7:"p_close";i:1;a:0:{}i:2;i:6742;}i:260;a:3:{i:0;s:6:"p_open";i:1;a:0:{}i:2;i:6742;}i:261;a:3:{i:0;s:5:"cdata";i:1;a:1:{i:0;s:223:"Blender, ever flexible, is not constrained to only its two bundled renderers.
There are many more renderers out there, and as long as they are
Linux-compatible and have a Blender plugin, they are trivial to install and
use.";}i:2;i:6744;}i:262;a:3:{i:0;s:7:"p_close";i:1;a:0:{}i:2;i:6967;}i:263;a:3:{i:0;s:6:"p_open";i:1;a:0:{}i:2;i:6967;}i:264;a:3:{i:0;s:5:"cdata";i:1;a:1:{i:0;s:104:"At least four 3drender engines are available, along with Blender plugins,
straight from slackbuilds.org:";}i:2;i:6969;}i:265;a:3:{i:0;s:7:"p_close";i:1;a:0:{}i:2;i:7073;}i:266;a:3:{i:0;s:10:"listu_open";i:1;a:0:{}i:2;i:7073;}i:267;a:3:{i:0;s:13:"listitem_open";i:1;a:1:{i:0;i:1;}i:2;i:7073;}i:268;a:3:{i:0;s:16:"listcontent_open";i:1;a:0:{}i:2;i:7073;}i:269;a:3:{i:0;s:6:"plugin";i:1;a:4:{i:0;s:16:"markdowku_ulists";i:1;b:1;i:2;i:1;i:3;s:6:"

  * ";}i:2;i:7073;}i:270;a:3:{i:0;s:5:"cdata";i:1;a:1:{i:0;s:9:"luxrender";}i:2;i:7079;}i:271;a:3:{i:0;s:6:"plugin";i:1;a:4:{i:0;s:16:"markdowku_ulists";i:1;b:1;i:2;i:3;i:3;s:9:"luxrender";}i:2;i:7079;}i:272;a:3:{i:0;s:5:"cdata";i:1;a:1:{i:0;s:1:"
";}i:2;i:7088;}i:273;a:3:{i:0;s:17:"listcontent_close";i:1;a:0:{}i:2;i:7089;}i:274;a:3:{i:0;s:14:"listitem_close";i:1;a:0:{}i:2;i:7089;}i:275;a:3:{i:0;s:13:"listitem_open";i:1;a:1:{i:0;i:1;}i:2;i:7089;}i:276;a:3:{i:0;s:16:"listcontent_open";i:1;a:0:{}i:2;i:7089;}i:277;a:3:{i:0;s:6:"plugin";i:1;a:4:{i:0;s:16:"markdowku_ulists";i:1;b:1;i:2;i:2;i:3;s:5:"
  * ";}i:2;i:7089;}i:278;a:3:{i:0;s:5:"cdata";i:1;a:1:{i:0;s:7:"yafaray";}i:2;i:7094;}i:279;a:3:{i:0;s:6:"plugin";i:1;a:4:{i:0;s:16:"markdowku_ulists";i:1;b:1;i:2;i:3;i:3;s:7:"yafaray";}i:2;i:7094;}i:280;a:3:{i:0;s:5:"cdata";i:1;a:1:{i:0;s:1:"
";}i:2;i:7101;}i:281;a:3:{i:0;s:17:"listcontent_close";i:1;a:0:{}i:2;i:7102;}i:282;a:3:{i:0;s:14:"listitem_close";i:1;a:0:{}i:2;i:7102;}i:283;a:3:{i:0;s:13:"listitem_open";i:1;a:1:{i:0;i:1;}i:2;i:7102;}i:284;a:3:{i:0;s:16:"listcontent_open";i:1;a:0:{}i:2;i:7102;}i:285;a:3:{i:0;s:6:"plugin";i:1;a:4:{i:0;s:16:"markdowku_ulists";i:1;b:1;i:2;i:2;i:3;s:5:"
  * ";}i:2;i:7102;}i:286;a:3:{i:0;s:5:"cdata";i:1;a:1:{i:0;s:6:"povray";}i:2;i:7107;}i:287;a:3:{i:0;s:6:"plugin";i:1;a:4:{i:0;s:16:"markdowku_ulists";i:1;b:1;i:2;i:3;i:3;s:6:"povray";}i:2;i:7107;}i:288;a:3:{i:0;s:6:"p_open";i:1;a:0:{}i:2;i:7113;}i:289;a:3:{i:0;s:5:"cdata";i:1;a:1:{i:0;s:78:"    Blender includes an exporter plugin for POVray, but it requires activation";}i:2;i:7115;}i:290;a:3:{i:0;s:6:"plugin";i:1;a:4:{i:0;s:16:"markdowku_ulists";i:1;b:1;i:2;i:3;i:3;s:78:"    Blender includes an exporter plugin for POVray, but it requires activation";}i:2;i:7115;}i:291;a:3:{i:0;s:5:"cdata";i:1;a:1:{i:0;s:44:"
    in the User Preferences > Addons panel.";}i:2;i:7193;}i:292;a:3:{i:0;s:6:"plugin";i:1;a:4:{i:0;s:16:"markdowku_ulists";i:1;b:1;i:2;i:3;i:3;s:43:"    in the User Preferences > Addons panel.";}i:2;i:7194;}i:293;a:3:{i:0;s:5:"cdata";i:1;a:1:{i:0;s:0:"";}i:2;i:7237;}i:294;a:3:{i:0;s:7:"p_close";i:1;a:0:{}i:2;i:7238;}i:295;a:3:{i:0;s:17:"listcontent_close";i:1;a:0:{}i:2;i:7238;}i:296;a:3:{i:0;s:14:"listitem_close";i:1;a:0:{}i:2;i:7238;}i:297;a:3:{i:0;s:13:"listitem_open";i:1;a:1:{i:0;i:1;}i:2;i:7238;}i:298;a:3:{i:0;s:16:"listcontent_open";i:1;a:0:{}i:2;i:7238;}i:299;a:3:{i:0;s:6:"plugin";i:1;a:4:{i:0;s:16:"markdowku_ulists";i:1;b:1;i:2;i:2;i:3;s:5:"
  * ";}i:2;i:7238;}i:300;a:3:{i:0;s:5:"cdata";i:1;a:1:{i:0;s:7:"mitsuba";}i:2;i:7243;}i:301;a:3:{i:0;s:6:"plugin";i:1;a:4:{i:0;s:16:"markdowku_ulists";i:1;b:1;i:2;i:3;i:3;s:7:"mitsuba";}i:2;i:7243;}i:302;a:3:{i:0;s:17:"listcontent_close";i:1;a:0:{}i:2;i:7250;}i:303;a:3:{i:0;s:14:"listitem_close";i:1;a:0:{}i:2;i:7250;}i:304;a:3:{i:0;s:11:"listu_close";i:1;a:0:{}i:2;i:7250;}i:305;a:3:{i:0;s:6:"plugin";i:1;a:4:{i:0;s:16:"markdowku_ulists";i:1;b:1;i:2;i:4;i:3;s:1:"
";}i:2;i:7250;}i:306;a:3:{i:0;s:6:"p_open";i:1;a:0:{}i:2;i:7250;}i:307;a:3:{i:0;s:5:"cdata";i:1;a:1:{i:0;s:212:"In each case, whether you had to install the Blender plugin separately or
whether it was bundled with Blender, you must go to User Preferences > Addons
and activate the rederer just as you would any other plugin.";}i:2;i:7252;}i:308;a:3:{i:0;s:7:"p_close";i:1;a:0:{}i:2;i:7464;}i:309;a:3:{i:0;s:6:"p_open";i:1;a:0:{}i:2;i:7464;}i:310;a:3:{i:0;s:5:"cdata";i:1;a:1:{i:0;s:125:"Once intalled and activated, chonge which render engine you are using from the 
Render Engine menu located in the Info panel.";}i:2;i:7466;}i:311;a:3:{i:0;s:7:"p_close";i:1;a:0:{}i:2;i:7591;}i:312;a:3:{i:0;s:6:"p_open";i:1;a:0:{}i:2;i:7591;}i:313;a:3:{i:0;s:5:"cdata";i:1;a:1:{i:0;s:25:"Blender as a Video Editor";}i:2;i:7593;}i:314;a:3:{i:0;s:7:"p_close";i:1;a:0:{}i:2;i:7618;}i:315;a:3:{i:0;s:6:"p_open";i:1;a:0:{}i:2;i:7618;}i:316;a:3:{i:0;s:5:"cdata";i:1;a:1:{i:0;s:369:"Blender as a 3d modeling application and as an animation tool is,
unsurprisingly, commonplace, but there are those who use Blender primarily as a
video editing tool. This use case appears to be more popular among Linux users,
and so it does not get the same amount of attention in either the user manual
or online in general, so it warrants some special attention here.";}i:2;i:7620;}i:317;a:3:{i:0;s:7:"p_close";i:1;a:0:{}i:2;i:7989;}i:318;a:3:{i:0;s:6:"p_open";i:1;a:0:{}i:2;i:7989;}i:319;a:3:{i:0;s:5:"cdata";i:1;a:1:{i:0;s:74:"There are several reasons to turn to Blender for non-linear video editing:";}i:2;i:7991;}i:320;a:3:{i:0;s:7:"p_close";i:1;a:0:{}i:2;i:8065;}i:321;a:3:{i:0;s:10:"listu_open";i:1;a:0:{}i:2;i:8065;}i:322;a:3:{i:0;s:13:"listitem_open";i:1;a:1:{i:0;i:1;}i:2;i:8065;}i:323;a:3:{i:0;s:16:"listcontent_open";i:1;a:0:{}i:2;i:8065;}i:324;a:3:{i:0;s:6:"plugin";i:1;a:4:{i:0;s:16:"markdowku_ulists";i:1;b:1;i:2;i:1;i:3;s:6:"

  * ";}i:2;i:8065;}i:325;a:3:{i:0;s:5:"cdata";i:1;a:1:{i:0;s:68:"Blender is a carefully-written stable application designed to handle";}i:2;i:8071;}i:326;a:3:{i:0;s:6:"plugin";i:1;a:4:{i:0;s:16:"markdowku_ulists";i:1;b:1;i:2;i:3;i:3;s:68:"Blender is a carefully-written stable application designed to handle";}i:2;i:8071;}i:327;a:3:{i:0;s:5:"cdata";i:1;a:1:{i:0;s:78:"
    complex matrices and simulated physics. It makes sense that it can handle";}i:2;i:8139;}i:328;a:3:{i:0;s:6:"plugin";i:1;a:4:{i:0;s:16:"markdowku_ulists";i:1;b:1;i:2;i:3;i:3;s:77:"    complex matrices and simulated physics. It makes sense that it can handle";}i:2;i:8140;}i:329;a:3:{i:0;s:5:"cdata";i:1;a:1:{i:0;s:22:"
    video gracefully.";}i:2;i:8217;}i:330;a:3:{i:0;s:6:"plugin";i:1;a:4:{i:0;s:16:"markdowku_ulists";i:1;b:1;i:2;i:3;i:3;s:21:"    video gracefully.";}i:2;i:8218;}i:331;a:3:{i:0;s:5:"cdata";i:1;a:1:{i:0;s:1:"
";}i:2;i:8239;}i:332;a:3:{i:0;s:17:"listcontent_close";i:1;a:0:{}i:2;i:8240;}i:333;a:3:{i:0;s:14:"listitem_close";i:1;a:0:{}i:2;i:8240;}i:334;a:3:{i:0;s:13:"listitem_open";i:1;a:1:{i:0;i:1;}i:2;i:8240;}i:335;a:3:{i:0;s:16:"listcontent_open";i:1;a:0:{}i:2;i:8240;}i:336;a:3:{i:0;s:6:"plugin";i:1;a:4:{i:0;s:16:"markdowku_ulists";i:1;b:1;i:2;i:2;i:3;s:5:"
  * ";}i:2;i:8240;}i:337;a:3:{i:0;s:5:"cdata";i:1;a:1:{i:0;s:73:"The Blender user interface is ultra-efficient, and if you know how to use";}i:2;i:8245;}i:338;a:3:{i:0;s:6:"plugin";i:1;a:4:{i:0;s:16:"markdowku_ulists";i:1;b:1;i:2;i:3;i:3;s:73:"The Blender user interface is ultra-efficient, and if you know how to use";}i:2;i:8245;}i:339;a:3:{i:0;s:5:"cdata";i:1;a:1:{i:0;s:69:"
    it then you will find its trademark hybrid of keyboard and mouse";}i:2;i:8318;}i:340;a:3:{i:0;s:6:"plugin";i:1;a:4:{i:0;s:16:"markdowku_ulists";i:1;b:1;i:2;i:3;i:3;s:68:"    it then you will find its trademark hybrid of keyboard and mouse";}i:2;i:8319;}i:341;a:3:{i:0;s:5:"cdata";i:1;a:1:{i:0;s:78:"
    interaction just as efficient for moving video around a timeline as it is";}i:2;i:8387;}i:342;a:3:{i:0;s:6:"plugin";i:1;a:4:{i:0;s:16:"markdowku_ulists";i:1;b:1;i:2;i:3;i:3;s:77:"    interaction just as efficient for moving video around a timeline as it is";}i:2;i:8388;}i:343;a:3:{i:0;s:5:"cdata";i:1;a:1:{i:0;s:23:"
    with 3d sculpting.";}i:2;i:8465;}i:344;a:3:{i:0;s:6:"plugin";i:1;a:4:{i:0;s:16:"markdowku_ulists";i:1;b:1;i:2;i:3;i:3;s:22:"    with 3d sculpting.";}i:2;i:8466;}i:345;a:3:{i:0;s:5:"cdata";i:1;a:1:{i:0;s:1:"
";}i:2;i:8488;}i:346;a:3:{i:0;s:17:"listcontent_close";i:1;a:0:{}i:2;i:8489;}i:347;a:3:{i:0;s:14:"listitem_close";i:1;a:0:{}i:2;i:8489;}i:348;a:3:{i:0;s:13:"listitem_open";i:1;a:1:{i:0;i:1;}i:2;i:8489;}i:349;a:3:{i:0;s:16:"listcontent_open";i:1;a:0:{}i:2;i:8489;}i:350;a:3:{i:0;s:6:"plugin";i:1;a:4:{i:0;s:16:"markdowku_ulists";i:1;b:1;i:2;i:2;i:3;s:5:"
  * ";}i:2;i:8489;}i:351;a:3:{i:0;s:5:"cdata";i:1;a:1:{i:0;s:72:"If you are working in a mixed-platform environment, Blender's ability to";}i:2;i:8494;}i:352;a:3:{i:0;s:6:"plugin";i:1;a:4:{i:0;s:16:"markdowku_ulists";i:1;b:1;i:2;i:3;i:3;s:72:"If you are working in a mixed-platform environment, Blender's ability to";}i:2;i:8494;}i:353;a:3:{i:0;s:5:"cdata";i:1;a:1:{i:0;s:78:"
    run on all of them could prove to be a major advantage. In terms of video";}i:2;i:8566;}i:354;a:3:{i:0;s:6:"plugin";i:1;a:4:{i:0;s:16:"markdowku_ulists";i:1;b:1;i:2;i:3;i:3;s:77:"    run on all of them could prove to be a major advantage. In terms of video";}i:2;i:8567;}i:355;a:3:{i:0;s:5:"cdata";i:1;a:1:{i:0;s:70:"
    editing, it is one of the few cross-platform solutions available.";}i:2;i:8644;}i:356;a:3:{i:0;s:6:"plugin";i:1;a:4:{i:0;s:16:"markdowku_ulists";i:1;b:1;i:2;i:3;i:3;s:69:"    editing, it is one of the few cross-platform solutions available.";}i:2;i:8645;}i:357;a:3:{i:0;s:17:"listcontent_close";i:1;a:0:{}i:2;i:8714;}i:358;a:3:{i:0;s:14:"listitem_close";i:1;a:0:{}i:2;i:8714;}i:359;a:3:{i:0;s:11:"listu_close";i:1;a:0:{}i:2;i:8714;}i:360;a:3:{i:0;s:6:"plugin";i:1;a:4:{i:0;s:16:"markdowku_ulists";i:1;b:1;i:2;i:4;i:3;s:1:"
";}i:2;i:8714;}i:361;a:3:{i:0;s:6:"p_open";i:1;a:0:{}i:2;i:8714;}i:362;a:3:{i:0;s:5:"cdata";i:1;a:1:{i:0;s:136:"Allowing for the fact that one editor's advantage is another editor's
disadvantage, Blender does have some drawbacks as an NLE, as well:";}i:2;i:8716;}i:363;a:3:{i:0;s:7:"p_close";i:1;a:0:{}i:2;i:8852;}i:364;a:3:{i:0;s:10:"listu_open";i:1;a:0:{}i:2;i:8852;}i:365;a:3:{i:0;s:13:"listitem_open";i:1;a:1:{i:0;i:1;}i:2;i:8852;}i:366;a:3:{i:0;s:16:"listcontent_open";i:1;a:0:{}i:2;i:8852;}i:367;a:3:{i:0;s:6:"plugin";i:1;a:4:{i:0;s:16:"markdowku_ulists";i:1;b:1;i:2;i:1;i:3;s:6:"

  * ";}i:2;i:8852;}i:368;a:3:{i:0;s:5:"cdata";i:1;a:1:{i:0;s:75:"Since Blender started life as a 3d modeling application, it is not quite as";}i:2;i:8858;}i:369;a:3:{i:0;s:6:"plugin";i:1;a:4:{i:0;s:16:"markdowku_ulists";i:1;b:1;i:2;i:3;i:3;s:75:"Since Blender started life as a 3d modeling application, it is not quite as";}i:2;i:8858;}i:370;a:3:{i:0;s:5:"cdata";i:1;a:1:{i:0;s:80:"
    finely tuned toward video editing as a longtime video editor might desire. ";}i:2;i:8933;}i:371;a:3:{i:0;s:6:"plugin";i:1;a:4:{i:0;s:16:"markdowku_ulists";i:1;b:1;i:2;i:3;i:3;s:79:"    finely tuned toward video editing as a longtime video editor might desire. ";}i:2;i:8934;}i:372;a:3:{i:0;s:5:"cdata";i:1;a:1:{i:0;s:78:"
    Blender devs are adding native features and users are creating plugins to";}i:2;i:9013;}i:373;a:3:{i:0;s:6:"plugin";i:1;a:4:{i:0;s:16:"markdowku_ulists";i:1;b:1;i:2;i:3;i:3;s:77:"    Blender devs are adding native features and users are creating plugins to";}i:2;i:9014;}i:374;a:3:{i:0;s:5:"cdata";i:1;a:1:{i:0;s:80:"
    help create a more NLE-centric environment within Blender, so the situation";}i:2;i:9091;}i:375;a:3:{i:0;s:6:"plugin";i:1;a:4:{i:0;s:16:"markdowku_ulists";i:1;b:1;i:2;i:3;i:3;s:79:"    help create a more NLE-centric environment within Blender, so the situation";}i:2;i:9092;}i:376;a:3:{i:0;s:5:"cdata";i:1;a:1:{i:0;s:23:"
    is only improving.";}i:2;i:9171;}i:377;a:3:{i:0;s:6:"plugin";i:1;a:4:{i:0;s:16:"markdowku_ulists";i:1;b:1;i:2;i:3;i:3;s:22:"    is only improving.";}i:2;i:9172;}i:378;a:3:{i:0;s:5:"cdata";i:1;a:1:{i:0;s:1:"
";}i:2;i:9194;}i:379;a:3:{i:0;s:17:"listcontent_close";i:1;a:0:{}i:2;i:9195;}i:380;a:3:{i:0;s:14:"listitem_close";i:1;a:0:{}i:2;i:9195;}i:381;a:3:{i:0;s:13:"listitem_open";i:1;a:1:{i:0;i:1;}i:2;i:9195;}i:382;a:3:{i:0;s:16:"listcontent_open";i:1;a:0:{}i:2;i:9195;}i:383;a:3:{i:0;s:6:"plugin";i:1;a:4:{i:0;s:16:"markdowku_ulists";i:1;b:1;i:2;i:2;i:3;s:5:"
  * ";}i:2;i:9195;}i:384;a:3:{i:0;s:5:"cdata";i:1;a:1:{i:0;s:73:"It's not a carbon copy of any editing environment and probably never will";}i:2;i:9200;}i:385;a:3:{i:0;s:6:"plugin";i:1;a:4:{i:0;s:16:"markdowku_ulists";i:1;b:1;i:2;i:3;i:3;s:73:"It's not a carbon copy of any editing environment and probably never will";}i:2;i:9200;}i:386;a:3:{i:0;s:5:"cdata";i:1;a:1:{i:0;s:80:"
    be. It's never a good idea to expect or even, arguably, request for an open";}i:2;i:9273;}i:387;a:3:{i:0;s:6:"plugin";i:1;a:4:{i:0;s:16:"markdowku_ulists";i:1;b:1;i:2;i:3;i:3;s:79:"    be. It's never a good idea to expect or even, arguably, request for an open";}i:2;i:9274;}i:388;a:3:{i:0;s:5:"cdata";i:1;a:1:{i:0;s:78:"
    source clone of a closed source application that you just so happen to be";}i:2;i:9353;}i:389;a:3:{i:0;s:6:"plugin";i:1;a:4:{i:0;s:16:"markdowku_ulists";i:1;b:1;i:2;i:3;i:3;s:77:"    source clone of a closed source application that you just so happen to be";}i:2;i:9354;}i:390;a:3:{i:0;s:5:"cdata";i:1;a:1:{i:0;s:77:"
    very good at, but it's common for people moving to open source to desire";}i:2;i:9431;}i:391;a:3:{i:0;s:6:"plugin";i:1;a:4:{i:0;s:16:"markdowku_ulists";i:1;b:1;i:2;i:3;i:3;s:76:"    very good at, but it's common for people moving to open source to desire";}i:2;i:9432;}i:392;a:3:{i:0;s:5:"cdata";i:1;a:1:{i:0;s:80:"
    just that: familiarity. Blender is probably never going to be a traditional";}i:2;i:9508;}i:393;a:3:{i:0;s:6:"plugin";i:1;a:4:{i:0;s:16:"markdowku_ulists";i:1;b:1;i:2;i:3;i:3;s:79:"    just that: familiarity. Blender is probably never going to be a traditional";}i:2;i:9509;}i:394;a:3:{i:0;s:5:"cdata";i:1;a:1:{i:0;s:78:"
    video editor, so adapting to it and the way it does edit video is a must,";}i:2;i:9588;}i:395;a:3:{i:0;s:6:"plugin";i:1;a:4:{i:0;s:16:"markdowku_ulists";i:1;b:1;i:2;i:3;i:3;s:77:"    video editor, so adapting to it and the way it does edit video is a must,";}i:2;i:9589;}i:396;a:3:{i:0;s:5:"cdata";i:1;a:1:{i:0;s:80:"
    if you intend to edit video on it. For those editors who started editing on";}i:2;i:9666;}i:397;a:3:{i:0;s:6:"plugin";i:1;a:4:{i:0;s:16:"markdowku_ulists";i:1;b:1;i:2;i:3;i:3;s:79:"    if you intend to edit video on it. For those editors who started editing on";}i:2;i:9667;}i:398;a:3:{i:0;s:5:"cdata";i:1;a:1:{i:0;s:44:"
    Blender before even understanding what ";}i:2;i:9746;}i:399;a:3:{i:0;s:6:"plugin";i:1;a:4:{i:0;s:16:"markdowku_ulists";i:1;b:1;i:2;i:3;i:3;s:43:"    Blender before even understanding what ";}i:2;i:9747;}i:400;a:3:{i:0;s:18:"doublequoteopening";i:1;a:0:{}i:2;i:9790;}i:401;a:3:{i:0;s:5:"cdata";i:1;a:1:{i:0;s:11:"open source";}i:2;i:9791;}i:402;a:3:{i:0;s:6:"plugin";i:1;a:4:{i:0;s:16:"markdowku_ulists";i:1;b:1;i:2;i:3;i:3;s:11:"open source";}i:2;i:9791;}i:403;a:3:{i:0;s:18:"doublequoteclosing";i:1;a:0:{}i:2;i:9802;}i:404;a:3:{i:0;s:5:"cdata";i:1;a:1:{i:0;s:23:" was, and chose to edit";}i:2;i:9803;}i:405;a:3:{i:0;s:6:"plugin";i:1;a:4:{i:0;s:16:"markdowku_ulists";i:1;b:1;i:2;i:3;i:3;s:23:" was, and chose to edit";}i:2;i:9803;}i:406;a:3:{i:0;s:5:"cdata";i:1;a:1:{i:0;s:78:"
    in Blender because it was different, this point is not a disadvantage but";}i:2;i:9826;}i:407;a:3:{i:0;s:6:"plugin";i:1;a:4:{i:0;s:16:"markdowku_ulists";i:1;b:1;i:2;i:3;i:3;s:77:"    in Blender because it was different, this point is not a disadvantage but";}i:2;i:9827;}i:408;a:3:{i:0;s:5:"cdata";i:1;a:1:{i:0;s:23:"
    the raison d'etre.";}i:2;i:9904;}i:409;a:3:{i:0;s:6:"plugin";i:1;a:4:{i:0;s:16:"markdowku_ulists";i:1;b:1;i:2;i:3;i:3;s:22:"    the raison d'etre.";}i:2;i:9905;}i:410;a:3:{i:0;s:5:"cdata";i:1;a:1:{i:0;s:1:"
";}i:2;i:9927;}i:411;a:3:{i:0;s:17:"listcontent_close";i:1;a:0:{}i:2;i:9928;}i:412;a:3:{i:0;s:14:"listitem_close";i:1;a:0:{}i:2;i:9928;}i:413;a:3:{i:0;s:13:"listitem_open";i:1;a:1:{i:0;i:1;}i:2;i:9928;}i:414;a:3:{i:0;s:16:"listcontent_open";i:1;a:0:{}i:2;i:9928;}i:415;a:3:{i:0;s:6:"plugin";i:1;a:4:{i:0;s:16:"markdowku_ulists";i:1;b:1;i:2;i:2;i:3;s:5:"
  * ";}i:2;i:9928;}i:416;a:3:{i:0;s:5:"cdata";i:1;a:1:{i:0;s:74:"The workflow tends to be marvelously efficient when an action has a direct";}i:2;i:9933;}i:417;a:3:{i:0;s:6:"plugin";i:1;a:4:{i:0;s:16:"markdowku_ulists";i:1;b:1;i:2;i:3;i:3;s:74:"The workflow tends to be marvelously efficient when an action has a direct";}i:2;i:9933;}i:418;a:3:{i:0;s:5:"cdata";i:1;a:1:{i:0;s:79:"
    analogy to a 3d process (moving clips, deleting clips), but when there are";}i:2;i:10007;}i:419;a:3:{i:0;s:6:"plugin";i:1;a:4:{i:0;s:16:"markdowku_ulists";i:1;b:1;i:2;i:3;i:3;s:78:"    analogy to a 3d process (moving clips, deleting clips), but when there are";}i:2;i:10008;}i:420;a:3:{i:0;s:5:"cdata";i:1;a:1:{i:0;s:79:"
    totally unique functions introduced by a plugin, they are frequently menu-";}i:2;i:10086;}i:421;a:3:{i:0;s:6:"plugin";i:1;a:4:{i:0;s:16:"markdowku_ulists";i:1;b:1;i:2;i:3;i:3;s:78:"    totally unique functions introduced by a plugin, they are frequently menu-";}i:2;i:10087;}i:422;a:3:{i:0;s:5:"cdata";i:1;a:1:{i:0;s:77:"
    or button-oriented, with no keyboard shortcuts. Compared to the rest of ";}i:2;i:10165;}i:423;a:3:{i:0;s:6:"plugin";i:1;a:4:{i:0;s:16:"markdowku_ulists";i:1;b:1;i:2;i:3;i:3;s:76:"    or button-oriented, with no keyboard shortcuts. Compared to the rest of ";}i:2;i:10166;}i:424;a:3:{i:0;s:5:"cdata";i:1;a:1:{i:0;s:75:"
    Blender, this feels out of place and can bring your editing pace to an";}i:2;i:10242;}i:425;a:3:{i:0;s:6:"plugin";i:1;a:4:{i:0;s:16:"markdowku_ulists";i:1;b:1;i:2;i:3;i:3;s:74:"    Blender, this feels out of place and can bring your editing pace to an";}i:2;i:10243;}i:426;a:3:{i:0;s:5:"cdata";i:1;a:1:{i:0;s:26:"
    almost grinding halt.";}i:2;i:10317;}i:427;a:3:{i:0;s:6:"plugin";i:1;a:4:{i:0;s:16:"markdowku_ulists";i:1;b:1;i:2;i:3;i:3;s:25:"    almost grinding halt.";}i:2;i:10318;}i:428;a:3:{i:0;s:6:"p_open";i:1;a:0:{}i:2;i:10343;}i:429;a:3:{i:0;s:5:"cdata";i:1;a:1:{i:0;s:77:"    The features and plugins are all open source, however, so you can add the";}i:2;i:10345;}i:430;a:3:{i:0;s:6:"plugin";i:1;a:4:{i:0;s:16:"markdowku_ulists";i:1;b:1;i:2;i:3;i:3;s:77:"    The features and plugins are all open source, however, so you can add the";}i:2;i:10345;}i:431;a:3:{i:0;s:5:"cdata";i:1;a:1:{i:0;s:79:"
    functionality yourself, or wait for someone else to add it; as more people";}i:2;i:10422;}i:432;a:3:{i:0;s:6:"plugin";i:1;a:4:{i:0;s:16:"markdowku_ulists";i:1;b:1;i:2;i:3;i:3;s:78:"    functionality yourself, or wait for someone else to add it; as more people";}i:2;i:10423;}i:433;a:3:{i:0;s:5:"cdata";i:1;a:1:{i:0;s:76:"
    start to use Blender for everyday video editing, the more fluid it will";}i:2;i:10501;}i:434;a:3:{i:0;s:6:"plugin";i:1;a:4:{i:0;s:16:"markdowku_ulists";i:1;b:1;i:2;i:3;i:3;s:75:"    start to use Blender for everyday video editing, the more fluid it will";}i:2;i:10502;}i:435;a:3:{i:0;s:5:"cdata";i:1;a:1:{i:0;s:12:"
    become.";}i:2;i:10577;}i:436;a:3:{i:0;s:6:"plugin";i:1;a:4:{i:0;s:16:"markdowku_ulists";i:1;b:1;i:2;i:3;i:3;s:11:"    become.";}i:2;i:10578;}i:437;a:3:{i:0;s:7:"p_close";i:1;a:0:{}i:2;i:10589;}i:438;a:3:{i:0;s:17:"listcontent_close";i:1;a:0:{}i:2;i:10589;}i:439;a:3:{i:0;s:14:"listitem_close";i:1;a:0:{}i:2;i:10589;}i:440;a:3:{i:0;s:11:"listu_close";i:1;a:0:{}i:2;i:10589;}i:441;a:3:{i:0;s:6:"plugin";i:1;a:4:{i:0;s:16:"markdowku_ulists";i:1;b:1;i:2;i:4;i:3;s:1:"
";}i:2;i:10589;}i:442;a:3:{i:0;s:6:"p_open";i:1;a:0:{}i:2;i:10589;}i:443;a:3:{i:0;s:5:"cdata";i:1;a:1:{i:0;s:46:"Some pertinent video editing addons are these:";}i:2;i:10591;}i:444;a:3:{i:0;s:7:"p_close";i:1;a:0:{}i:2;i:10637;}i:445;a:3:{i:0;s:10:"listu_open";i:1;a:0:{}i:2;i:10637;}i:446;a:3:{i:0;s:13:"listitem_open";i:1;a:1:{i:0;i:1;}i:2;i:10637;}i:447;a:3:{i:0;s:16:"listcontent_open";i:1;a:0:{}i:2;i:10637;}i:448;a:3:{i:0;s:6:"plugin";i:1;a:4:{i:0;s:16:"markdowku_ulists";i:1;b:1;i:2;i:1;i:3;s:6:"

  * ";}i:2;i:10637;}i:449;a:3:{i:0;s:5:"cdata";i:1;a:1:{i:0;s:71:"Easy Logging creates a workspace that uses the File Browser window as a";}i:2;i:10643;}i:450;a:3:{i:0;s:6:"plugin";i:1;a:4:{i:0;s:16:"markdowku_ulists";i:1;b:1;i:2;i:3;i:3;s:71:"Easy Logging creates a workspace that uses the File Browser window as a";}i:2;i:10643;}i:451;a:3:{i:0;s:5:"cdata";i:1;a:1:{i:0;s:77:"
    video bin, and adds buttons to allow editing of clips prior to importing";}i:2;i:10714;}i:452;a:3:{i:0;s:6:"plugin";i:1;a:4:{i:0;s:16:"markdowku_ulists";i:1;b:1;i:2;i:3;i:3;s:76:"    video bin, and adds buttons to allow editing of clips prior to importing";}i:2;i:10715;}i:453;a:3:{i:0;s:5:"cdata";i:1;a:1:{i:0;s:77:"
    them into the video sequence editor. This plugin, more or less, provides";}i:2;i:10791;}i:454;a:3:{i:0;s:6:"plugin";i:1;a:4:{i:0;s:16:"markdowku_ulists";i:1;b:1;i:2;i:3;i:3;s:76:"    them into the video sequence editor. This plugin, more or less, provides";}i:2;i:10792;}i:455;a:3:{i:0;s:5:"cdata";i:1;a:1:{i:0;s:25:"
    three-point editing.";}i:2;i:10868;}i:456;a:3:{i:0;s:6:"plugin";i:1;a:4:{i:0;s:16:"markdowku_ulists";i:1;b:1;i:2;i:3;i:3;s:24:"    three-point editing.";}i:2;i:10869;}i:457;a:3:{i:0;s:5:"cdata";i:1;a:1:{i:0;s:1:"
";}i:2;i:10893;}i:458;a:3:{i:0;s:17:"listcontent_close";i:1;a:0:{}i:2;i:10894;}i:459;a:3:{i:0;s:14:"listitem_close";i:1;a:0:{}i:2;i:10894;}i:460;a:3:{i:0;s:13:"listitem_open";i:1;a:1:{i:0;i:1;}i:2;i:10894;}i:461;a:3:{i:0;s:16:"listcontent_open";i:1;a:0:{}i:2;i:10894;}i:462;a:3:{i:0;s:6:"plugin";i:1;a:4:{i:0;s:16:"markdowku_ulists";i:1;b:1;i:2;i:2;i:3;s:5:"
  * ";}i:2;i:10894;}i:463;a:3:{i:0;s:5:"cdata";i:1;a:1:{i:0;s:72:"Audition adds the ability to preview a clip from the File Browser before";}i:2;i:10899;}i:464;a:3:{i:0;s:6:"plugin";i:1;a:4:{i:0;s:16:"markdowku_ulists";i:1;b:1;i:2;i:3;i:3;s:72:"Audition adds the ability to preview a clip from the File Browser before";}i:2;i:10899;}i:465;a:3:{i:0;s:5:"cdata";i:1;a:1:{i:0;s:75:"
    importing it into your project. It is intended as an extension of Easy";}i:2;i:10971;}i:466;a:3:{i:0;s:6:"plugin";i:1;a:4:{i:0;s:16:"markdowku_ulists";i:1;b:1;i:2;i:3;i:3;s:74:"    importing it into your project. It is intended as an extension of Easy";}i:2;i:10972;}i:467;a:3:{i:0;s:5:"cdata";i:1;a:1:{i:0;s:13:"
    Logging.";}i:2;i:11046;}i:468;a:3:{i:0;s:6:"plugin";i:1;a:4:{i:0;s:16:"markdowku_ulists";i:1;b:1;i:2;i:3;i:3;s:12:"    Logging.";}i:2;i:11047;}i:469;a:3:{i:0;s:5:"cdata";i:1;a:1:{i:0;s:1:"
";}i:2;i:11059;}i:470;a:3:{i:0;s:17:"listcontent_close";i:1;a:0:{}i:2;i:11060;}i:471;a:3:{i:0;s:14:"listitem_close";i:1;a:0:{}i:2;i:11060;}i:472;a:3:{i:0;s:13:"listitem_open";i:1;a:1:{i:0;i:1;}i:2;i:11060;}i:473;a:3:{i:0;s:16:"listcontent_open";i:1;a:0:{}i:2;i:11060;}i:474;a:3:{i:0;s:6:"plugin";i:1;a:4:{i:0;s:16:"markdowku_ulists";i:1;b:1;i:2;i:2;i:3;s:5:"
  * ";}i:2;i:11060;}i:475;a:3:{i:0;s:5:"cdata";i:1;a:1:{i:0;s:75:"Jump to Cut enables the playhead to jump from a strip's in- or out- points,";}i:2;i:11065;}i:476;a:3:{i:0;s:6:"plugin";i:1;a:4:{i:0;s:16:"markdowku_ulists";i:1;b:1;i:2;i:3;i:3;s:75:"Jump to Cut enables the playhead to jump from a strip's in- or out- points,";}i:2;i:11065;}i:477;a:3:{i:0;s:5:"cdata";i:1;a:1:{i:0;s:80:"
    and also adds in some convenience trimming functions. This plugin provides,";}i:2;i:11140;}i:478;a:3:{i:0;s:6:"plugin";i:1;a:4:{i:0;s:16:"markdowku_ulists";i:1;b:1;i:2;i:3;i:3;s:79:"    and also adds in some convenience trimming functions. This plugin provides,";}i:2;i:11141;}i:479;a:3:{i:0;s:5:"cdata";i:1;a:1:{i:0;s:73:"
    more or less, the most common and basic timeline features of an NLE.";}i:2;i:11220;}i:480;a:3:{i:0;s:6:"plugin";i:1;a:4:{i:0;s:16:"markdowku_ulists";i:1;b:1;i:2;i:3;i:3;s:72:"    more or less, the most common and basic timeline features of an NLE.";}i:2;i:11221;}i:481;a:3:{i:0;s:5:"cdata";i:1;a:1:{i:0;s:1:"
";}i:2;i:11293;}i:482;a:3:{i:0;s:17:"listcontent_close";i:1;a:0:{}i:2;i:11294;}i:483;a:3:{i:0;s:14:"listitem_close";i:1;a:0:{}i:2;i:11294;}i:484;a:3:{i:0;s:13:"listitem_open";i:1;a:1:{i:0;i:1;}i:2;i:11294;}i:485;a:3:{i:0;s:16:"listcontent_open";i:1;a:0:{}i:2;i:11294;}i:486;a:3:{i:0;s:6:"plugin";i:1;a:4:{i:0;s:16:"markdowku_ulists";i:1;b:1;i:2;i:2;i:3;s:5:"
  * ";}i:2;i:11294;}i:487;a:3:{i:0;s:5:"cdata";i:1;a:1:{i:0;s:69:"VSE Quick Functions provides all the little convenience functions for";}i:2;i:11299;}i:488;a:3:{i:0;s:6:"plugin";i:1;a:4:{i:0;s:16:"markdowku_ulists";i:1;b:1;i:2;i:3;i:3;s:69:"VSE Quick Functions provides all the little convenience functions for";}i:2;i:11299;}i:489;a:3:{i:0;s:5:"cdata";i:1;a:1:{i:0;s:73:"
    timeline editing that any NLE would normally have (snapping, muting,";}i:2;i:11368;}i:490;a:3:{i:0;s:6:"plugin";i:1;a:4:{i:0;s:16:"markdowku_ulists";i:1;b:1;i:2;i:3;i:3;s:72:"    timeline editing that any NLE would normally have (snapping, muting,";}i:2;i:11369;}i:491;a:3:{i:0;s:5:"cdata";i:1;a:1:{i:0;s:79:"
    locking, parenting or grouping, quick fades, quick titles) plus a few that";}i:2;i:11441;}i:492;a:3:{i:0;s:6:"plugin";i:1;a:4:{i:0;s:16:"markdowku_ulists";i:1;b:1;i:2;i:3;i:3;s:78:"    locking, parenting or grouping, quick fades, quick titles) plus a few that";}i:2;i:11442;}i:493;a:3:{i:0;s:5:"cdata";i:1;a:1:{i:0;s:78:"
    others do not have (sorting by position in timeline or clip title or clip";}i:2;i:11520;}i:494;a:3:{i:0;s:6:"plugin";i:1;a:4:{i:0;s:16:"markdowku_ulists";i:1;b:1;i:2;i:3;i:3;s:77:"    others do not have (sorting by position in timeline or clip title or clip";}i:2;i:11521;}i:495;a:3:{i:0;s:5:"cdata";i:1;a:1:{i:0;s:13:"
    length).";}i:2;i:11598;}i:496;a:3:{i:0;s:6:"plugin";i:1;a:4:{i:0;s:16:"markdowku_ulists";i:1;b:1;i:2;i:3;i:3;s:12:"    length).";}i:2;i:11599;}i:497;a:3:{i:0;s:5:"cdata";i:1;a:1:{i:0;s:1:"
";}i:2;i:11611;}i:498;a:3:{i:0;s:17:"listcontent_close";i:1;a:0:{}i:2;i:11612;}i:499;a:3:{i:0;s:14:"listitem_close";i:1;a:0:{}i:2;i:11612;}i:500;a:3:{i:0;s:13:"listitem_open";i:1;a:1:{i:0;i:1;}i:2;i:11612;}i:501;a:3:{i:0;s:16:"listcontent_open";i:1;a:0:{}i:2;i:11612;}i:502;a:3:{i:0;s:6:"plugin";i:1;a:4:{i:0;s:16:"markdowku_ulists";i:1;b:1;i:2;i:2;i:3;s:5:"
  * ";}i:2;i:11612;}i:503;a:3:{i:0;s:5:"cdata";i:1;a:1:{i:0;s:5:"Extra";}i:2;i:11617;}i:504;a:3:{i:0;s:6:"plugin";i:1;a:4:{i:0;s:16:"markdowku_ulists";i:1;b:1;i:2;i:3;i:3;s:5:"Extra";}i:2;i:11617;}i:505;a:3:{i:0;s:6:"plugin";i:1;a:4:{i:0;s:25:"markdowku_italicunderline";i:1;a:2:{i:0;i:1;i:1;s:1:"_";}i:2;i:1;i:3;s:1:"_";}i:2;i:11622;}i:506;a:3:{i:0;s:6:"plugin";i:1;a:4:{i:0;s:25:"markdowku_italicunderline";i:1;a:2:{i:0;i:3;i:1;s:9:"Sequencer";}i:2;i:3;i:3;s:9:"Sequencer";}i:2;i:11623;}i:507;a:3:{i:0;s:6:"plugin";i:1;a:4:{i:0;s:25:"markdowku_italicunderline";i:1;a:2:{i:0;i:4;i:1;s:1:"_";}i:2;i:4;i:3;s:1:"_";}i:2;i:11632;}i:508;a:3:{i:0;s:5:"cdata";i:1;a:1:{i:0;s:52:"Actions adds advanced trimming functions to the VSE,";}i:2;i:11633;}i:509;a:3:{i:0;s:6:"plugin";i:1;a:4:{i:0;s:16:"markdowku_ulists";i:1;b:1;i:2;i:3;i:3;s:52:"Actions adds advanced trimming functions to the VSE,";}i:2;i:11633;}i:510;a:3:{i:0;s:5:"cdata";i:1;a:1:{i:0;s:75:"
    including ripple deletes, ripple cuts, insert edits, slides, and more.";}i:2;i:11685;}i:511;a:3:{i:0;s:6:"plugin";i:1;a:4:{i:0;s:16:"markdowku_ulists";i:1;b:1;i:2;i:3;i:3;s:74:"    including ripple deletes, ripple cuts, insert edits, slides, and more.";}i:2;i:11686;}i:512;a:3:{i:0;s:5:"cdata";i:1;a:1:{i:0;s:1:"
";}i:2;i:11760;}i:513;a:3:{i:0;s:17:"listcontent_close";i:1;a:0:{}i:2;i:11761;}i:514;a:3:{i:0;s:14:"listitem_close";i:1;a:0:{}i:2;i:11761;}i:515;a:3:{i:0;s:13:"listitem_open";i:1;a:1:{i:0;i:1;}i:2;i:11761;}i:516;a:3:{i:0;s:16:"listcontent_open";i:1;a:0:{}i:2;i:11761;}i:517;a:3:{i:0;s:6:"plugin";i:1;a:4:{i:0;s:16:"markdowku_ulists";i:1;b:1;i:2;i:2;i:3;s:5:"
  * ";}i:2;i:11761;}i:518;a:3:{i:0;s:5:"cdata";i:1;a:1:{i:0;s:70:"VSE Transform Tools adds basic motion graphic capabilities to the VSE.";}i:2;i:11766;}i:519;a:3:{i:0;s:6:"plugin";i:1;a:4:{i:0;s:16:"markdowku_ulists";i:1;b:1;i:2;i:3;i:3;s:70:"VSE Transform Tools adds basic motion graphic capabilities to the VSE.";}i:2;i:11766;}i:520;a:3:{i:0;s:5:"cdata";i:1;a:1:{i:0;s:80:"
    Using this tool set, you are able to grab onto the video display itself and";}i:2;i:11836;}i:521;a:3:{i:0;s:6:"plugin";i:1;a:4:{i:0;s:16:"markdowku_ulists";i:1;b:1;i:2;i:3;i:3;s:79:"    Using this tool set, you are able to grab onto the video display itself and";}i:2;i:11837;}i:522;a:3:{i:0;s:5:"cdata";i:1;a:1:{i:0;s:80:"
    resize and re-position it within the frame. With it, you can achieve common";}i:2;i:11916;}i:523;a:3:{i:0;s:6:"plugin";i:1;a:4:{i:0;s:16:"markdowku_ulists";i:1;b:1;i:2;i:3;i:3;s:79:"    resize and re-position it within the frame. With it, you can achieve common";}i:2;i:11917;}i:524;a:3:{i:0;s:5:"cdata";i:1;a:1:{i:0;s:76:"
    effects such as picture-in-picture, split screen, and basic tween-based";}i:2;i:11996;}i:525;a:3:{i:0;s:6:"plugin";i:1;a:4:{i:0;s:16:"markdowku_ulists";i:1;b:1;i:2;i:3;i:3;s:75:"    effects such as picture-in-picture, split screen, and basic tween-based";}i:2;i:11997;}i:526;a:3:{i:0;s:5:"cdata";i:1;a:1:{i:0;s:15:"
    animation.";}i:2;i:12072;}i:527;a:3:{i:0;s:6:"plugin";i:1;a:4:{i:0;s:16:"markdowku_ulists";i:1;b:1;i:2;i:3;i:3;s:14:"    animation.";}i:2;i:12073;}i:528;a:3:{i:0;s:17:"listcontent_close";i:1;a:0:{}i:2;i:12087;}i:529;a:3:{i:0;s:14:"listitem_close";i:1;a:0:{}i:2;i:12087;}i:530;a:3:{i:0;s:11:"listu_close";i:1;a:0:{}i:2;i:12087;}i:531;a:3:{i:0;s:6:"plugin";i:1;a:4:{i:0;s:16:"markdowku_ulists";i:1;b:1;i:2;i:4;i:3;s:1:"
";}i:2;i:12087;}i:532;a:3:{i:0;s:6:"p_open";i:1;a:0:{}i:2;i:12087;}i:533;a:3:{i:0;s:5:"cdata";i:1;a:1:{i:0;s:144:"Install these plugins, and any other that appeals to your needs, and you will
have a surprisingly robust and flexible video editing environment.";}i:2;i:12089;}i:534;a:3:{i:0;s:7:"p_close";i:1;a:0:{}i:2;i:12233;}i:535;a:3:{i:0;s:12:"document_end";i:1;a:0:{}i:2;i:12233;}}