a:345:{i:0;a:3:{i:0;s:14:"document_start";i:1;a:0:{}i:2;i:0;}i:1;a:3:{i:0;s:6:"p_open";i:1;a:0:{}i:2;i:0;}i:2;a:3:{i:0;s:6:"plugin";i:1;a:4:{i:0;s:6:"button";i:1;a:2:{i:0;i:1;i:1;a:10:{i:0;s:106:"[[{arrowp.png|border:0;background:none;width:0;display:inline-block;position:absolute;top:0;left:0;}start|";s:5:"image";s:10:"arrowp.png";i:1;s:10:"arrowp.png";s:3:"css";s:85:"border:0;background:none;width:0;display:inline-block;position:absolute;top:0;left:0;";i:2;s:85:"border:0;background:none;width:0;display:inline-block;position:absolute;top:0;left:0;";s:4:"link";s:5:"start";i:3;s:5:"start";s:5:"title";s:0:"";i:4;s:0:"";s:6:"target";s:0:"";}}i:2;i:1;i:3;s:106:"[[{arrowp.png|border:0;background:none;width:0;display:inline-block;position:absolute;top:0;left:0;}start|";}i:2;i:1;}i:3;a:3:{i:0;s:6:"plugin";i:1;a:4:{i:0;s:6:"button";i:1;a:2:{i:0;i:4;i:1;s:0:"";}i:2;i:4;i:3;s:2:"]]";}i:2;i:107;}i:4;a:3:{i:0;s:7:"p_close";i:1;a:0:{}i:2;i:109;}i:5;a:3:{i:0;s:6:"p_open";i:1;a:0:{}i:2;i:109;}i:6;a:3:{i:0;s:6:"plugin";i:1;a:4:{i:0;s:6:"button";i:1;a:2:{i:0;i:1;i:1;a:10:{i:0;s:115:"[[{arrown.png|border:0;background:none;width:0;display:inline-block;position:absolute;top:0;margin-left:2.5em;}pre|";s:5:"image";s:10:"arrown.png";i:1;s:10:"arrown.png";s:3:"css";s:96:"border:0;background:none;width:0;display:inline-block;position:absolute;top:0;margin-left:2.5em;";i:2;s:96:"border:0;background:none;width:0;display:inline-block;position:absolute;top:0;margin-left:2.5em;";s:4:"link";s:3:"pre";i:3;s:3:"pre";s:5:"title";s:0:"";i:4;s:0:"";s:6:"target";s:0:"";}}i:2;i:1;i:3;s:115:"[[{arrown.png|border:0;background:none;width:0;display:inline-block;position:absolute;top:0;margin-left:2.5em;}pre|";}i:2;i:111;}i:7;a:3:{i:0;s:6:"plugin";i:1;a:4:{i:0;s:6:"button";i:1;a:2:{i:0;i:4;i:1;s:0:"";}i:2;i:4;i:3;s:2:"]]";}i:2;i:226;}i:8;a:3:{i:0;s:7:"p_close";i:1;a:0:{}i:2;i:228;}i:9;a:3:{i:0;s:6:"header";i:1;a:3:{i:0;s:12:"Introduction";i:1;i:1;i:2;i:230;}i:2;i:230;}i:10;a:3:{i:0;s:12:"section_open";i:1;a:1:{i:0;i:1;}i:2;i:230;}i:11;a:3:{i:0;s:6:"plugin";i:1;a:4:{i:0;s:22:"markdowku_headersetext";i:1;b:1;i:2;i:5;i:3;s:27:"
Introduction
=============";}i:2;i:230;}i:12;a:3:{i:0;s:6:"p_open";i:1;a:0:{}i:2;i:230;}i:13;a:3:{i:0;s:5:"cdata";i:1;a:1:{i:0;s:224:"Slackermedia is a book and Linux configuration guide. After reading, comprehending, and implementing the lessons in Slackermedia the book, a user will have a customized Slackware Linux distribution for multimedia production.";}i:2;i:259;}i:14;a:3:{i:0;s:7:"p_close";i:1;a:0:{}i:2;i:483;}i:15;a:3:{i:0;s:6:"p_open";i:1;a:0:{}i:2;i:483;}i:16;a:3:{i:0;s:5:"cdata";i:1;a:1:{i:0;s:35:"The idea is based in part upon the ";}i:2;i:485;}i:17;a:3:{i:0;s:12:"externallink";i:1;a:2:{i:0;s:31:"http://www.linuxfromscratch.org";i:1;s:18:"Linux-From-Scratch";}i:2;i:520;}i:18;a:3:{i:0;s:5:"cdata";i:1;a:1:{i:0;s:61:" project and is, with the utmost 
respect, the antithesis to ";}i:2;i:574;}i:19;a:3:{i:0;s:12:"externallink";i:1;a:2:{i:0;s:23:"http://ubuntustudio.org";i:1;s:13:"Ubuntu Studio";}i:2;i:635;}i:20;a:3:{i:0;s:5:"cdata";i:1;a:1:{i:0;s:24:" and other
(quite good) ";}i:2;i:676;}i:21;a:3:{i:0;s:18:"doublequoteopening";i:1;a:0:{}i:2;i:700;}i:22;a:3:{i:0;s:5:"cdata";i:1;a:1:{i:0;s:18:"multimedia distros";}i:2;i:701;}i:23;a:3:{i:0;s:18:"doublequoteclosing";i:1;a:0:{}i:2;i:719;}i:24;a:3:{i:0;s:5:"cdata";i:1;a:1:{i:0;s:1:".";}i:2;i:720;}i:25;a:3:{i:0;s:7:"p_close";i:1;a:0:{}i:2;i:721;}i:26;a:3:{i:0;s:6:"plugin";i:1;a:4:{i:0;s:12:"wrap_divwrap";i:1;a:2:{i:0;i:1;i:1;s:3:"tip";}i:2;i:1;i:3;s:10:"<WRAP tip>";}i:2;i:723;}i:27;a:3:{i:0;s:6:"p_open";i:1;a:0:{}i:2;i:723;}i:28;a:3:{i:0;s:5:"cdata";i:1;a:1:{i:0;s:57:"To be clear: there is no truth to the idea that there is ";}i:2;i:734;}i:29;a:3:{i:0;s:18:"doublequoteopening";i:1;a:0:{}i:2;i:791;}i:30;a:3:{i:0;s:5:"cdata";i:1;a:1:{i:0;s:8:"a better";}i:2;i:792;}i:31;a:3:{i:0;s:18:"doublequoteclosing";i:1;a:0:{}i:2;i:800;}i:32;a:3:{i:0;s:5:"cdata";i:1;a:1:{i:0;s:466:" distribution for specific tasks (with the exception of minimal installs versus full installs). You do not need a certain distribution of Linux to do multimedia and another to do office work and another to play games - not even to use Slackermedia. While it's best to use Slackware for Slackermedia (because it is written for Slackware), there is plenty of generic and conceptual information in this handbook that it is applicable to all Linux and BSD distributions.";}i:2;i:801;}i:33;a:3:{i:0;s:7:"p_close";i:1;a:0:{}i:2;i:1268;}i:34;a:3:{i:0;s:6:"plugin";i:1;a:4:{i:0;s:12:"wrap_divwrap";i:1;a:2:{i:0;i:4;i:1;s:0:"";}i:2;i:4;i:3;s:7:"</WRAP>";}i:2;i:1268;}i:35;a:3:{i:0;s:13:"section_close";i:1;a:0:{}i:2;i:1277;}i:36;a:3:{i:0;s:6:"header";i:1;a:3:{i:0;s:27:"Where's The Installer Disc?";i:1;i:2;i:2;i:1277;}i:2;i:1277;}i:37;a:3:{i:0;s:12:"section_open";i:1;a:1:{i:0;i:2;}i:2;i:1277;}i:38;a:3:{i:0;s:6:"plugin";i:1;a:4:{i:0;s:22:"markdowku_headersetext";i:1;b:1;i:2;i:5;i:3;s:59:"
Where's The Installer Disc?
------------------------------";}i:2;i:1277;}i:39;a:3:{i:0;s:6:"p_open";i:1;a:0:{}i:2;i:1277;}i:40;a:3:{i:0;s:5:"cdata";i:1;a:1:{i:0;s:394:"Anyone who has looked into Linux will know that there are a lot of Linux
distributions available. Many of them are very good, with a lot of effort going
into their production and maintenance. It's because GNU Linux distributes its code freely that such a rich variety of operating environments are able to peacefully co-exist in a way that just never
happens in commercial proprietary software.";}i:2;i:1338;}i:41;a:3:{i:0;s:7:"p_close";i:1;a:0:{}i:2;i:1732;}i:42;a:3:{i:0;s:6:"p_open";i:1;a:0:{}i:2;i:1732;}i:43;a:3:{i:0;s:5:"cdata";i:1;a:1:{i:0;s:44:"It can also be very confusing to a new user.";}i:2;i:1734;}i:44;a:3:{i:0;s:7:"p_close";i:1;a:0:{}i:2;i:1778;}i:45;a:3:{i:0;s:6:"p_open";i:1;a:0:{}i:2;i:1778;}i:46;a:3:{i:0;s:5:"cdata";i:1;a:1:{i:0;s:308:"If you are a new user, all you need to know about Linux distributions is that there are basically two types: those that assume the user is a software developer and therefore requires constant updates to every library and header file, whilst others assume the user is a computer user in the traditional sense.";}i:2;i:1780;}i:47;a:3:{i:0;s:7:"p_close";i:1;a:0:{}i:2;i:2088;}i:48;a:3:{i:0;s:6:"p_open";i:1;a:0:{}i:2;i:2088;}i:49;a:3:{i:0;s:5:"cdata";i:1;a:1:{i:0;s:197:"On the other hand, Slackware assumes nothing. It provides a solid base of proven software and lets the user manage updates, upgrades, and customisation. That is exactly what Slackermedia leverages.";}i:2;i:2090;}i:50;a:3:{i:0;s:7:"p_close";i:1;a:0:{}i:2;i:2287;}i:51;a:3:{i:0;s:6:"p_open";i:1;a:0:{}i:2;i:2287;}i:52;a:3:{i:0;s:5:"cdata";i:1;a:1:{i:0;s:181:"But Slackermedia is not one of the discs you can download and install, reboot, and magically find that the multimedia environment of your dreams has been installed on your computer.";}i:2;i:2289;}i:53;a:3:{i:0;s:7:"p_close";i:1;a:0:{}i:2;i:2470;}i:54;a:3:{i:0;s:6:"p_open";i:1;a:0:{}i:2;i:2470;}i:55;a:3:{i:0;s:5:"cdata";i:1;a:1:{i:0;s:207:"Slackermedia is not a CD or DVD or pre-fabricated distribution. In fact, part
of the idea behind Slackermedia is that a pre-fabricated environment will be
less efficient and less effective for you, the user.";}i:2;i:2472;}i:56;a:3:{i:0;s:7:"p_close";i:1;a:0:{}i:2;i:2679;}i:57;a:3:{i:0;s:13:"section_close";i:1;a:0:{}i:2;i:2681;}i:58;a:3:{i:0;s:6:"header";i:1;a:3:{i:0;s:24:"So what is Slackermedia?";i:1;i:2;i:2;i:2681;}i:2;i:2681;}i:59;a:3:{i:0;s:12:"section_open";i:1;a:1:{i:0;i:2;}i:2;i:2681;}i:60;a:3:{i:0;s:6:"plugin";i:1;a:4:{i:0;s:22:"markdowku_headersetext";i:1;b:1;i:2;i:5;i:3;s:53:"
So what is Slackermedia?
---------------------------";}i:2;i:2681;}i:61;a:3:{i:0;s:6:"p_open";i:1;a:0:{}i:2;i:2681;}i:62;a:3:{i:0;s:5:"cdata";i:1;a:1:{i:0;s:153:"Slackermedia is a set of tutorials on how to build your own Slackware multimedia environment that will be tailored specifically for you and how you work.";}i:2;i:2736;}i:63;a:3:{i:0;s:7:"p_close";i:1;a:0:{}i:2;i:2889;}i:64;a:3:{i:0;s:6:"p_open";i:1;a:0:{}i:2;i:2889;}i:65;a:3:{i:0;s:5:"cdata";i:1;a:1:{i:0;s:36:"Slackermedia exists for two reasons:";}i:2;i:2891;}i:66;a:3:{i:0;s:7:"p_close";i:1;a:0:{}i:2;i:2928;}i:67;a:3:{i:0;s:10:"listo_open";i:1;a:0:{}i:2;i:2928;}i:68;a:3:{i:0;s:13:"listitem_open";i:1;a:1:{i:0;i:1;}i:2;i:2928;}i:69;a:3:{i:0;s:16:"listcontent_open";i:1;a:0:{}i:2;i:2928;}i:70;a:3:{i:0;s:5:"cdata";i:1;a:1:{i:0;s:56:"To build one's environment is to know one's environment.";}i:2;i:2932;}i:71;a:3:{i:0;s:17:"listcontent_close";i:1;a:0:{}i:2;i:2988;}i:72;a:3:{i:0;s:14:"listitem_close";i:1;a:0:{}i:2;i:2988;}i:73;a:3:{i:0;s:13:"listitem_open";i:1;a:1:{i:0;i:1;}i:2;i:2988;}i:74;a:3:{i:0;s:16:"listcontent_open";i:1;a:0:{}i:2;i:2988;}i:75;a:3:{i:0;s:5:"cdata";i:1;a:1:{i:0;s:145:"Slackware is a stable, powerful, unix-like, well-supported, sensible, free and open operating system, ideal for the needs of a multimedia artist.";}i:2;i:2992;}i:76;a:3:{i:0;s:17:"listcontent_close";i:1;a:0:{}i:2;i:3137;}i:77;a:3:{i:0;s:14:"listitem_close";i:1;a:0:{}i:2;i:3137;}i:78;a:3:{i:0;s:11:"listo_close";i:1;a:0:{}i:2;i:3137;}i:79;a:3:{i:0;s:13:"section_close";i:1;a:0:{}i:2;i:3139;}i:80;a:3:{i:0;s:6:"header";i:1;a:3:{i:0;s:37:"What's Wrong With Multimedia Distros?";i:1;i:2;i:2;i:3139;}i:2;i:3139;}i:81;a:3:{i:0;s:12:"section_open";i:1;a:1:{i:0;i:2;}i:2;i:3139;}i:82;a:3:{i:0;s:6:"plugin";i:1;a:4:{i:0;s:22:"markdowku_headersetext";i:1;b:1;i:2;i:5;i:3;s:79:"
What's Wrong With Multimedia Distros?
----------------------------------------";}i:2;i:3139;}i:83;a:3:{i:0;s:6:"p_open";i:1;a:0:{}i:2;i:3139;}i:84;a:3:{i:0;s:5:"cdata";i:1;a:1:{i:0;s:66:"An important thing to realise is that there is no such thing as a ";}i:2;i:3220;}i:85;a:3:{i:0;s:18:"doublequoteopening";i:1;a:0:{}i:2;i:3286;}i:86;a:3:{i:0;s:5:"cdata";i:1;a:1:{i:0;s:17:"multimedia distro";}i:2;i:3287;}i:87;a:3:{i:0;s:18:"doublequoteclosing";i:1;a:0:{}i:2;i:3304;}i:88;a:3:{i:0;s:5:"cdata";i:1;a:1:{i:0;s:477:" any more than there is a distro for gaming, or office work, or software development. Regardless of how they brand themselves, Linux distributions can be reduced down to basically the same set of ingredients: a Linux kernel for hardware management, a mix of GNU and BSD system utilities, and any number of
independently developed software applications. Any further description of a Linux distribution is purely based on the intent of the people offering the thing for download.";}i:2;i:3305;}i:89;a:3:{i:0;s:7:"p_close";i:1;a:0:{}i:2;i:3782;}i:90;a:3:{i:0;s:6:"p_open";i:1;a:0:{}i:2;i:3782;}i:91;a:3:{i:0;s:5:"cdata";i:1;a:1:{i:0;s:10:"So-called ";}i:2;i:3784;}i:92;a:3:{i:0;s:18:"doublequoteopening";i:1;a:0:{}i:2;i:3794;}i:93;a:3:{i:0;s:5:"cdata";i:1;a:1:{i:0;s:18:"Multimedia distros";}i:2;i:3795;}i:94;a:3:{i:0;s:18:"doublequoteclosing";i:1;a:0:{}i:2;i:3813;}i:95;a:3:{i:0;s:5:"cdata";i:1;a:1:{i:0;s:369:" like Ubuntu Studio, DyneBolic, Startcom, Musix,
and others serve as a good starting point if an artist is unfamiliar with the
artistic tools available for Linux. A good multimedia distribution ideally
comes pre-configured with all the usual media creation apps, so you can try
them out and determine which application best fits your style of work and
creative process.";}i:2;i:3814;}i:96;a:3:{i:0;s:7:"p_close";i:1;a:0:{}i:2;i:4183;}i:97;a:3:{i:0;s:6:"p_open";i:1;a:0:{}i:2;i:4183;}i:98;a:3:{i:0;s:5:"cdata";i:1;a:1:{i:0;s:481:"For some artists, however, a pre-built distribution can actually get in the
way. Since these ready-made distributions often throw in every
multimedia-related application they can possibly find on their sponsor's
server, they often end up having 8 different video editors, 4 audio editors, 6
DAWs, an odds-and-ends collection of small utilities, no paint applications, an
out-of-date animation package, and no sense of how any of these disparate parts
are supposed to work together.";}i:2;i:4185;}i:99;a:3:{i:0;s:7:"p_close";i:1;a:0:{}i:2;i:4666;}i:100;a:3:{i:0;s:6:"p_open";i:1;a:0:{}i:2;i:4666;}i:101;a:3:{i:0;s:5:"cdata";i:1;a:1:{i:0;s:27:"Slackermedia tries to be a ";}i:2;i:4668;}i:102;a:3:{i:0;s:18:"doublequoteopening";i:1;a:0:{}i:2;i:4695;}i:103;a:3:{i:0;s:5:"cdata";i:1;a:1:{i:0;s:8:"workflow";}i:2;i:4696;}i:104;a:3:{i:0;s:18:"doublequoteclosing";i:1;a:0:{}i:2;i:4704;}i:105;a:3:{i:0;s:5:"cdata";i:1;a:1:{i:0;s:164:" distro. It teaches the user how to build
their own environment, how to leverage the inherently modular Linux system, and
how all the different parts work together.";}i:2;i:4705;}i:106;a:3:{i:0;s:7:"p_close";i:1;a:0:{}i:2;i:4869;}i:107;a:3:{i:0;s:6:"p_open";i:1;a:0:{}i:2;i:4869;}i:108;a:3:{i:0;s:5:"cdata";i:1;a:1:{i:0;s:62:"And most importantly, it lets the user get their artwork done.";}i:2;i:4871;}i:109;a:3:{i:0;s:7:"p_close";i:1;a:0:{}i:2;i:4933;}i:110;a:3:{i:0;s:6:"p_open";i:1;a:0:{}i:2;i:4933;}i:111;a:3:{i:0;s:5:"cdata";i:1;a:1:{i:0;s:243:"After building and using Slackermedia, you will better understand the unix
philosophy. You will understand how it applies not to just computing, but to
large multimedia projects, and you might even come to a better understanding of
your craft.";}i:2;i:4935;}i:112;a:3:{i:0;s:7:"p_close";i:1;a:0:{}i:2;i:5178;}i:113;a:3:{i:0;s:6:"p_open";i:1;a:0:{}i:2;i:5178;}i:114;a:3:{i:0;s:5:"cdata";i:1;a:1:{i:0;s:109:"In short, for some people, no distribution will ever be a perfect fit unless
the user has custom-designed it.";}i:2;i:5180;}i:115;a:3:{i:0;s:7:"p_close";i:1;a:0:{}i:2;i:5290;}i:116;a:3:{i:0;s:13:"section_close";i:1;a:0:{}i:2;i:5290;}i:117;a:3:{i:0;s:6:"header";i:1;a:3:{i:0;s:14:"Why Slackware?";i:1;i:2;i:2;i:5290;}i:2;i:5290;}i:118;a:3:{i:0;s:12:"section_open";i:1;a:1:{i:0;i:2;}i:2;i:5290;}i:119;a:3:{i:0;s:6:"plugin";i:1;a:4:{i:0;s:22:"markdowku_headersetext";i:1;b:1;i:2;i:5;i:3;s:33:"
Why Slackware?
-----------------";}i:2;i:5290;}i:120;a:3:{i:0;s:6:"p_open";i:1;a:0:{}i:2;i:5290;}i:121;a:3:{i:0;s:5:"cdata";i:1;a:1:{i:0;s:36:"Building a multimedia system on any ";}i:2;i:5325;}i:122;a:3:{i:0;s:7:"acronym";i:1;a:1:{i:0;s:2:"OS";}i:2;i:5361;}i:123;a:3:{i:0;s:5:"cdata";i:1;a:1:{i:0;s:261:" is a precarious task; the goal is always to maximize flexibility, have every tool available to the user with as much integration as possible, have the latest features, a good understanding the
tools of the trade, and a solid system that is stable and powerful.";}i:2;i:5363;}i:124;a:3:{i:0;s:7:"p_close";i:1;a:0:{}i:2;i:5624;}i:125;a:3:{i:0;s:6:"p_open";i:1;a:0:{}i:2;i:5624;}i:126;a:3:{i:0;s:5:"cdata";i:1;a:1:{i:0;s:283:"Linux makes an ideal platform for multimedia based on many of those requirements. It is inherently flexible, and if configured correctly it can be
everything the user needs in the exact way that the user prefers. The base system is the famously flexible, and yet stable and powerful.";}i:2;i:5626;}i:127;a:3:{i:0;s:7:"p_close";i:1;a:0:{}i:2;i:5909;}i:128;a:3:{i:0;s:6:"p_open";i:1;a:0:{}i:2;i:5909;}i:129;a:3:{i:0;s:5:"cdata";i:1;a:1:{i:0;s:267:"It is for this very reason that Linux is the preferred operating environment for visual effects companies. The movie industry is not generally verbose about what goes on behind-the-scenes, especially when it's highly technical, but it
doesn't take much investigation ";}i:2;i:5911;}i:130;a:3:{i:0;s:4:"nest";i:1;a:1:{i:0;a:3:{i:0;a:3:{i:0;s:13:"footnote_open";i:1;a:0:{}i:2;i:6178;}i:1;a:3:{i:0;s:12:"internallink";i:1;a:2:{i:0;s:14:"ref:references";i:1;s:8:"Examples";}i:2;i:6180;}i:2;a:3:{i:0;s:14:"footnote_close";i:1;a:0:{}i:2;i:6207;}}}i:2;i:6178;}i:131;a:3:{i:0;s:5:"cdata";i:1;a:1:{i:0;s:178:" to learn that Linux is the primary platform for companies that are inventing their own custom solutions in a marketplace otherwise threatened by lookalike off-the-shelf plugins.";}i:2;i:6209;}i:132;a:3:{i:0;s:7:"p_close";i:1;a:0:{}i:2;i:6387;}i:133;a:3:{i:0;s:6:"p_open";i:1;a:0:{}i:2;i:6387;}i:134;a:3:{i:0;s:5:"cdata";i:1;a:1:{i:0;s:361:"Any Linux distribution will do for multimedia, but this book is tailored for Slackware specifically, so it uses Slackware's custom system management tools. In theory, advanced users could adapt all of the tips in this book to fit any other distribution, but this handbook prefers Slackware. There are a few advantages to Slackware over other varieties of Linux:";}i:2;i:6389;}i:135;a:3:{i:0;s:7:"p_close";i:1;a:0:{}i:2;i:6750;}i:136;a:3:{i:0;s:10:"listu_open";i:1;a:0:{}i:2;i:6750;}i:137;a:3:{i:0;s:13:"listitem_open";i:1;a:1:{i:0;i:1;}i:2;i:6750;}i:138;a:3:{i:0;s:16:"listcontent_open";i:1;a:0:{}i:2;i:6750;}i:139;a:3:{i:0;s:6:"plugin";i:1;a:4:{i:0;s:16:"markdowku_ulists";i:1;b:1;i:2;i:1;i:3;s:6:"

  * ";}i:2;i:6750;}i:140;a:3:{i:0;s:5:"cdata";i:1;a:1:{i:0;s:500:"Stability. Slackware prizes stability over jumping to the latest-and-greatest features. Historically, for instance, Slackware has not included new technologies like HAL, Pulse Audio, udev, or systemd, until they have proven to be reliable, finished products. To users itching for the neatest, latest features, this may appear an inconvenience, but for mission-critical machines it is far better to wait on flashy new features than have beta-quality technology cause unforeseen delays in the workflow.";}i:2;i:6756;}i:141;a:3:{i:0;s:6:"plugin";i:1;a:4:{i:0;s:16:"markdowku_ulists";i:1;b:1;i:2;i:3;i:3;s:500:"Stability. Slackware prizes stability over jumping to the latest-and-greatest features. Historically, for instance, Slackware has not included new technologies like HAL, Pulse Audio, udev, or systemd, until they have proven to be reliable, finished products. To users itching for the neatest, latest features, this may appear an inconvenience, but for mission-critical machines it is far better to wait on flashy new features than have beta-quality technology cause unforeseen delays in the workflow.";}i:2;i:6756;}i:142;a:3:{i:0;s:5:"cdata";i:1;a:1:{i:0;s:1:"
";}i:2;i:7256;}i:143;a:3:{i:0;s:17:"listcontent_close";i:1;a:0:{}i:2;i:7257;}i:144;a:3:{i:0;s:14:"listitem_close";i:1;a:0:{}i:2;i:7257;}i:145;a:3:{i:0;s:13:"listitem_open";i:1;a:1:{i:0;i:1;}i:2;i:7257;}i:146;a:3:{i:0;s:16:"listcontent_open";i:1;a:0:{}i:2;i:7257;}i:147;a:3:{i:0;s:6:"plugin";i:1;a:4:{i:0;s:16:"markdowku_ulists";i:1;b:1;i:2;i:2;i:3;s:5:"
  * ";}i:2;i:7257;}i:148;a:3:{i:0;s:5:"cdata";i:1;a:1:{i:0;s:410:"Longterm Support. Upgrading an operating system is a disruptive process. Mission-critical environments tend to speak of upgrades in, at the very least, five year blocks. While commercial operating systems and the more competitively-minded Linux distributions encourage annual upgrades, Slackware releases only once every three or four years, with security patches being offered for at least 5 years thereafter.";}i:2;i:7262;}i:149;a:3:{i:0;s:6:"plugin";i:1;a:4:{i:0;s:16:"markdowku_ulists";i:1;b:1;i:2;i:3;i:3;s:410:"Longterm Support. Upgrading an operating system is a disruptive process. Mission-critical environments tend to speak of upgrades in, at the very least, five year blocks. While commercial operating systems and the more competitively-minded Linux distributions encourage annual upgrades, Slackware releases only once every three or four years, with security patches being offered for at least 5 years thereafter.";}i:2;i:7262;}i:150;a:3:{i:0;s:5:"cdata";i:1;a:1:{i:0;s:1:"
";}i:2;i:7672;}i:151;a:3:{i:0;s:17:"listcontent_close";i:1;a:0:{}i:2;i:7673;}i:152;a:3:{i:0;s:14:"listitem_close";i:1;a:0:{}i:2;i:7673;}i:153;a:3:{i:0;s:13:"listitem_open";i:1;a:1:{i:0;i:1;}i:2;i:7673;}i:154;a:3:{i:0;s:16:"listcontent_open";i:1;a:0:{}i:2;i:7673;}i:155;a:3:{i:0;s:6:"plugin";i:1;a:4:{i:0;s:16:"markdowku_ulists";i:1;b:1;i:2;i:2;i:3;s:5:"
  * ";}i:2;i:7673;}i:156;a:3:{i:0;s:5:"cdata";i:1;a:1:{i:0;s:242:"Manual Updates. Many computer users are very accustomed to their computer blinking an icon at them every week or month, urging them to accept a series of updates to their operating system. Most users accept these alerts blindly and let their ";}i:2;i:7678;}i:157;a:3:{i:0;s:6:"plugin";i:1;a:4:{i:0;s:16:"markdowku_ulists";i:1;b:1;i:2;i:3;i:3;s:242:"Manual Updates. Many computer users are very accustomed to their computer blinking an icon at them every week or month, urging them to accept a series of updates to their operating system. Most users accept these alerts blindly and let their ";}i:2;i:7678;}i:158;a:3:{i:0;s:7:"acronym";i:1;a:1:{i:0;s:2:"OS";}i:2;i:7920;}i:159;a:3:{i:0;s:5:"cdata";i:1;a:1:{i:0;s:167:" be updated right out from under them. Sometimes this adds new features and new security patches; other times, it breaks a critical component of an intricate workflow.";}i:2;i:7922;}i:160;a:3:{i:0;s:6:"plugin";i:1;a:4:{i:0;s:16:"markdowku_ulists";i:1;b:1;i:2;i:3;i:3;s:167:" be updated right out from under them. Sometimes this adds new features and new security patches; other times, it breaks a critical component of an intricate workflow.";}i:2;i:7922;}i:161;a:3:{i:0;s:9:"linebreak";i:1;a:0:{}i:2;i:8089;}i:162;a:3:{i:0;s:5:"cdata";i:1;a:1:{i:0;s:1:"
";}i:2;i:8091;}i:163;a:3:{i:0;s:9:"linebreak";i:1;a:0:{}i:2;i:8092;}i:164;a:3:{i:0;s:5:"cdata";i:1;a:1:{i:0;s:194:"
For mission-critical systems, auto-updating is not a user-friendly feature, it is bothersome at best, and at worst it's an unknown variable that could all-too easily bring production to a halt.";}i:2;i:8094;}i:165;a:3:{i:0;s:6:"plugin";i:1;a:4:{i:0;s:16:"markdowku_ulists";i:1;b:1;i:2;i:3;i:3;s:193:"For mission-critical systems, auto-updating is not a user-friendly feature, it is bothersome at best, and at worst it's an unknown variable that could all-too easily bring production to a halt.";}i:2;i:8095;}i:166;a:3:{i:0;s:5:"cdata";i:1;a:1:{i:0;s:1:"
";}i:2;i:8288;}i:167;a:3:{i:0;s:17:"listcontent_close";i:1;a:0:{}i:2;i:8289;}i:168;a:3:{i:0;s:14:"listitem_close";i:1;a:0:{}i:2;i:8289;}i:169;a:3:{i:0;s:13:"listitem_open";i:1;a:1:{i:0;i:1;}i:2;i:8289;}i:170;a:3:{i:0;s:16:"listcontent_open";i:1;a:0:{}i:2;i:8289;}i:171;a:3:{i:0;s:6:"plugin";i:1;a:4:{i:0;s:16:"markdowku_ulists";i:1;b:1;i:2;i:2;i:3;s:5:"
  * ";}i:2;i:8289;}i:172;a:3:{i:0;s:5:"cdata";i:1;a:1:{i:0;s:96:"Unix-like functionality. GNU and Linux, the two basic components of what is colloquially called ";}i:2;i:8294;}i:173;a:3:{i:0;s:6:"plugin";i:1;a:4:{i:0;s:16:"markdowku_ulists";i:1;b:1;i:2;i:3;i:3;s:96:"Unix-like functionality. GNU and Linux, the two basic components of what is colloquially called ";}i:2;i:8294;}i:174;a:3:{i:0;s:18:"doublequoteopening";i:1;a:0:{}i:2;i:8390;}i:175;a:3:{i:0;s:5:"cdata";i:1;a:1:{i:0;s:5:"Linux";}i:2;i:8391;}i:176;a:3:{i:0;s:6:"plugin";i:1;a:4:{i:0;s:16:"markdowku_ulists";i:1;b:1;i:2;i:3;i:3;s:5:"Linux";}i:2;i:8391;}i:177;a:3:{i:0;s:18:"doublequoteclosing";i:1;a:0:{}i:2;i:8396;}i:178;a:3:{i:0;s:5:"cdata";i:1;a:1:{i:0;s:72:", were modeled on AT&T's UNIX operating system, and more broadly on the ";}i:2;i:8397;}i:179;a:3:{i:0;s:6:"plugin";i:1;a:4:{i:0;s:16:"markdowku_ulists";i:1;b:1;i:2;i:3;i:3;s:72:", were modeled on AT&T's UNIX operating system, and more broadly on the ";}i:2;i:8397;}i:180;a:3:{i:0;s:18:"doublequoteopening";i:1;a:0:{}i:2;i:8469;}i:181;a:3:{i:0;s:5:"cdata";i:1;a:1:{i:0;s:15:"unix philosophy";}i:2;i:8470;}i:182;a:3:{i:0;s:6:"plugin";i:1;a:4:{i:0;s:16:"markdowku_ulists";i:1;b:1;i:2;i:3;i:3;s:15:"unix philosophy";}i:2;i:8470;}i:183;a:3:{i:0;s:18:"doublequoteclosing";i:1;a:0:{}i:2;i:8485;}i:184;a:3:{i:0;s:5:"cdata";i:1;a:1:{i:0;s:29:" as demonstrated in the book ";}i:2;i:8486;}i:185;a:3:{i:0;s:6:"plugin";i:1;a:4:{i:0;s:16:"markdowku_ulists";i:1;b:1;i:2;i:3;i:3;s:29:" as demonstrated in the book ";}i:2;i:8486;}i:186;a:3:{i:0;s:12:"externallink";i:1;a:2:{i:0;s:70:"http://www.amazon.com/Linux-Unix-Philosophy-Mike-Gancarz/dp/1555582737";i:1;s:29:"Linux and the Unix Philosophy";}i:2;i:8515;}i:187;a:3:{i:0;s:5:"cdata";i:1;a:1:{i:0;s:189:" by Mike Gancarz. Ideas such as re-using other people's work, keeping things modular, stringing together existing small applications to functionally achieve larger ones are all part of the ";}i:2;i:8619;}i:188;a:3:{i:0;s:6:"plugin";i:1;a:4:{i:0;s:16:"markdowku_ulists";i:1;b:1;i:2;i:3;i:3;s:189:" by Mike Gancarz. Ideas such as re-using other people's work, keeping things modular, stringing together existing small applications to functionally achieve larger ones are all part of the ";}i:2;i:8619;}i:189;a:3:{i:0;s:18:"doublequoteopening";i:1;a:0:{}i:2;i:8808;}i:190;a:3:{i:0;s:5:"cdata";i:1;a:1:{i:0;s:5:"unixy";}i:2;i:8809;}i:191;a:3:{i:0;s:6:"plugin";i:1;a:4:{i:0;s:16:"markdowku_ulists";i:1;b:1;i:2;i:3;i:3;s:5:"unixy";}i:2;i:8809;}i:192;a:3:{i:0;s:18:"doublequoteclosing";i:1;a:0:{}i:2;i:8814;}i:193;a:3:{i:0;s:5:"cdata";i:1;a:1:{i:0;s:115:" way of doing things. Slackware strives to be as true to UNIX as possible. In fact, its mission statement from the ";}i:2;i:8815;}i:194;a:3:{i:0;s:6:"plugin";i:1;a:4:{i:0;s:16:"markdowku_ulists";i:1;b:1;i:2;i:3;i:3;s:115:" way of doing things. Slackware strives to be as true to UNIX as possible. In fact, its mission statement from the ";}i:2;i:8815;}i:195;a:3:{i:0;s:12:"externallink";i:1;a:2:{i:0;s:29:"http://www.slackware.com/info";i:1;N;}i:2;i:8930;}i:196;a:3:{i:0;s:5:"cdata";i:1;a:1:{i:0;s:12:" website is:";}i:2;i:8963;}i:197;a:3:{i:0;s:6:"plugin";i:1;a:4:{i:0;s:16:"markdowku_ulists";i:1;b:1;i:2;i:3;i:3;s:12:" website is:";}i:2;i:8963;}i:198;a:3:{i:0;s:9:"linebreak";i:1;a:0:{}i:2;i:8975;}i:199;a:3:{i:0;s:5:"cdata";i:1;a:1:{i:0;s:1:"
";}i:2;i:8977;}i:200;a:3:{i:0;s:9:"linebreak";i:1;a:0:{}i:2;i:8978;}i:201;a:3:{i:0;s:5:"cdata";i:1;a:1:{i:0;s:134:"
The Slackware Philosophy: since its first beta release in April of 1993, the Slackware Linux Project has aimed at producing the most ";}i:2;i:8980;}i:202;a:3:{i:0;s:6:"plugin";i:1;a:4:{i:0;s:16:"markdowku_ulists";i:1;b:1;i:2;i:3;i:3;s:133:"The Slackware Philosophy: since its first beta release in April of 1993, the Slackware Linux Project has aimed at producing the most ";}i:2;i:8981;}i:203;a:3:{i:0;s:18:"doublequoteopening";i:1;a:0:{}i:2;i:9114;}i:204;a:3:{i:0;s:5:"cdata";i:1;a:1:{i:0;s:9:"UNIX-like";}i:2;i:9115;}i:205;a:3:{i:0;s:6:"plugin";i:1;a:4:{i:0;s:16:"markdowku_ulists";i:1;b:1;i:2;i:3;i:3;s:9:"UNIX-like";}i:2;i:9115;}i:206;a:3:{i:0;s:18:"doublequoteclosing";i:1;a:0:{}i:2;i:9124;}i:207;a:3:{i:0;s:5:"cdata";i:1;a:1:{i:0;s:296:"
 Linux distribution out there. Slackware complies with the published Linux standards, such as the Linux File System Standard. We have always considered simplicity and stability paramount, and as a result Slackware has become one of the most popular, stable, and friendly distributions available.";}i:2;i:9125;}i:208;a:3:{i:0;s:6:"plugin";i:1;a:4:{i:0;s:16:"markdowku_ulists";i:1;b:1;i:2;i:3;i:3;s:295:" Linux distribution out there. Slackware complies with the published Linux standards, such as the Linux File System Standard. We have always considered simplicity and stability paramount, and as a result Slackware has become one of the most popular, stable, and friendly distributions available.";}i:2;i:9126;}i:209;a:3:{i:0;s:5:"cdata";i:1;a:1:{i:0;s:1:"
";}i:2;i:9421;}i:210;a:3:{i:0;s:17:"listcontent_close";i:1;a:0:{}i:2;i:9422;}i:211;a:3:{i:0;s:14:"listitem_close";i:1;a:0:{}i:2;i:9422;}i:212;a:3:{i:0;s:13:"listitem_open";i:1;a:1:{i:0;i:1;}i:2;i:9422;}i:213;a:3:{i:0;s:16:"listcontent_open";i:1;a:0:{}i:2;i:9422;}i:214;a:3:{i:0;s:6:"plugin";i:1;a:4:{i:0;s:16:"markdowku_ulists";i:1;b:1;i:2;i:2;i:3;s:5:"
  * ";}i:2;i:9422;}i:215;a:3:{i:0;s:5:"cdata";i:1;a:1:{i:0;s:248:"Control. In Slackware, the user has control over almost every aspect of the system. While other distributions have successfully made some things very easy and almost invisible to the user, such as adding packages via friendly package managers like ";}i:2;i:9427;}i:216;a:3:{i:0;s:6:"plugin";i:1;a:4:{i:0;s:16:"markdowku_ulists";i:1;b:1;i:2;i:3;i:3;s:248:"Control. In Slackware, the user has control over almost every aspect of the system. While other distributions have successfully made some things very easy and almost invisible to the user, such as adding packages via friendly package managers like ";}i:2;i:9427;}i:217;a:3:{i:0;s:14:"monospace_open";i:1;a:0:{}i:2;i:9675;}i:218;a:3:{i:0;s:5:"cdata";i:1;a:1:{i:0;s:3:"RPM";}i:2;i:9677;}i:219;a:3:{i:0;s:15:"monospace_close";i:1;a:0:{}i:2;i:9680;}i:220;a:3:{i:0;s:5:"cdata";i:1;a:1:{i:0;s:5:" and ";}i:2;i:9682;}i:221;a:3:{i:0;s:6:"plugin";i:1;a:4:{i:0;s:16:"markdowku_ulists";i:1;b:1;i:2;i:3;i:3;s:5:" and ";}i:2;i:9682;}i:222;a:3:{i:0;s:14:"monospace_open";i:1;a:0:{}i:2;i:9687;}i:223;a:3:{i:0;s:5:"cdata";i:1;a:1:{i:0;s:3:"yum";}i:2;i:9689;}i:224;a:3:{i:0;s:15:"monospace_close";i:1;a:0:{}i:2;i:9692;}i:225;a:3:{i:0;s:5:"cdata";i:1;a:1:{i:0;s:4:" or ";}i:2;i:9694;}i:226;a:3:{i:0;s:6:"plugin";i:1;a:4:{i:0;s:16:"markdowku_ulists";i:1;b:1;i:2;i:3;i:3;s:4:" or ";}i:2;i:9694;}i:227;a:3:{i:0;s:14:"monospace_open";i:1;a:0:{}i:2;i:9698;}i:228;a:3:{i:0;s:5:"cdata";i:1;a:1:{i:0;s:4:"apt-";}i:2;i:9700;}i:229;a:3:{i:0;s:6:"plugin";i:1;a:4:{i:0;s:28:"markdowku_escapespecialchars";i:1;a:2:{i:0;i:5;i:1;s:2:"\*";}i:2;i:5;i:3;s:2:"\*";}i:2;i:9704;}i:230;a:3:{i:0;s:15:"monospace_close";i:1;a:0:{}i:2;i:9706;}i:231;a:3:{i:0;s:5:"cdata";i:1;a:1:{i:0;s:5:" and ";}i:2;i:9708;}i:232;a:3:{i:0;s:6:"plugin";i:1;a:4:{i:0;s:16:"markdowku_ulists";i:1;b:1;i:2;i:3;i:3;s:5:" and ";}i:2;i:9708;}i:233;a:3:{i:0;s:14:"monospace_open";i:1;a:0:{}i:2;i:9713;}i:234;a:3:{i:0;s:5:"cdata";i:1;a:1:{i:0;s:8:"aptitude";}i:2;i:9715;}i:235;a:3:{i:0;s:15:"monospace_close";i:1;a:0:{}i:2;i:9723;}i:236;a:3:{i:0;s:5:"cdata";i:1;a:1:{i:0;s:268:", the user also loses a degree of control over the way applications are compiled, what options applications have enabled, where applications and libraries get installed in the system, what gets added and removed upon the installation and removal of packages, and so on";}i:2;i:9725;}i:237;a:3:{i:0;s:6:"plugin";i:1;a:4:{i:0;s:16:"markdowku_ulists";i:1;b:1;i:2;i:3;i:3;s:268:", the user also loses a degree of control over the way applications are compiled, what options applications have enabled, where applications and libraries get installed in the system, what gets added and removed upon the installation and removal of packages, and so on";}i:2;i:9725;}i:238;a:3:{i:0;s:4:"nest";i:1;a:1:{i:0;a:3:{i:0;a:3:{i:0;s:13:"footnote_open";i:1;a:0:{}i:2;i:9993;}i:1;a:3:{i:0;s:5:"cdata";i:1;a:1:{i:0;s:75:"The user never really loses control in open source, since the code is free.";}i:2;i:9995;}i:2;a:3:{i:0;s:14:"footnote_close";i:1;a:0:{}i:2;i:10070;}}}i:2;i:9993;}i:239;a:3:{i:0;s:5:"cdata";i:1;a:1:{i:0;s:1:".";}i:2;i:10072;}i:240;a:3:{i:0;s:6:"plugin";i:1;a:4:{i:0;s:16:"markdowku_ulists";i:1;b:1;i:2;i:3;i:3;s:1:".";}i:2;i:10072;}i:241;a:3:{i:0;s:9:"linebreak";i:1;a:0:{}i:2;i:10073;}i:242;a:3:{i:0;s:5:"cdata";i:1;a:1:{i:0;s:1:"
";}i:2;i:10075;}i:243;a:3:{i:0;s:9:"linebreak";i:1;a:0:{}i:2;i:10076;}i:244;a:3:{i:0;s:5:"cdata";i:1;a:1:{i:0;s:145:"
Slackware leaves all such control firmly with the user, and for this reason the resulting system is precisely the sort of system the user needs.";}i:2;i:10078;}i:245;a:3:{i:0;s:6:"plugin";i:1;a:4:{i:0;s:16:"markdowku_ulists";i:1;b:1;i:2;i:3;i:3;s:144:"Slackware leaves all such control firmly with the user, and for this reason the resulting system is precisely the sort of system the user needs.";}i:2;i:10079;}i:246;a:3:{i:0;s:17:"listcontent_close";i:1;a:0:{}i:2;i:10223;}i:247;a:3:{i:0;s:14:"listitem_close";i:1;a:0:{}i:2;i:10223;}i:248;a:3:{i:0;s:11:"listu_close";i:1;a:0:{}i:2;i:10223;}i:249;a:3:{i:0;s:6:"plugin";i:1;a:4:{i:0;s:16:"markdowku_ulists";i:1;b:1;i:2;i:4;i:3;s:2:"

";}i:2;i:10223;}i:250;a:3:{i:0;s:13:"section_close";i:1;a:0:{}i:2;i:10225;}i:251;a:3:{i:0;s:6:"header";i:1;a:3:{i:0;s:13:"Prerequisites";i:1;i:2;i:2;i:10225;}i:2;i:10225;}i:252;a:3:{i:0;s:12:"section_open";i:1;a:1:{i:0;i:2;}i:2;i:10225;}i:253;a:3:{i:0;s:6:"plugin";i:1;a:4:{i:0;s:22:"markdowku_headersetext";i:1;b:1;i:2;i:5;i:3;s:31:"
Prerequisites
----------------";}i:2;i:10225;}i:254;a:3:{i:0;s:6:"p_open";i:1;a:0:{}i:2;i:10225;}i:255;a:3:{i:0;s:5:"cdata";i:1;a:1:{i:0;s:230:"This book attempts to make no assumption about the reader's experience level, and ideally the Slackermedia tutorials will be able to be used by everyone. Realistically, however, in order to use this book a user will probably need:";}i:2;i:10258;}i:256;a:3:{i:0;s:7:"p_close";i:1;a:0:{}i:2;i:10488;}i:257;a:3:{i:0;s:10:"listu_open";i:1;a:0:{}i:2;i:10488;}i:258;a:3:{i:0;s:13:"listitem_open";i:1;a:1:{i:0;i:1;}i:2;i:10488;}i:259;a:3:{i:0;s:16:"listcontent_open";i:1;a:0:{}i:2;i:10488;}i:260;a:3:{i:0;s:6:"plugin";i:1;a:4:{i:0;s:16:"markdowku_ulists";i:1;b:1;i:2;i:1;i:3;s:6:"

  * ";}i:2;i:10488;}i:261;a:3:{i:0;s:5:"cdata";i:1;a:1:{i:0;s:236:"Familiarity with Linux and unix. The more familiar you are, the easier the process will be. In other words, this book isn't an introduction to Linux, but an introduction and explanation of multimedia content creation on Linux. If you do";}i:2;i:10494;}i:262;a:3:{i:0;s:6:"plugin";i:1;a:4:{i:0;s:16:"markdowku_ulists";i:1;b:1;i:2;i:3;i:3;s:236:"Familiarity with Linux and unix. The more familiar you are, the easier the process will be. In other words, this book isn't an introduction to Linux, but an introduction and explanation of multimedia content creation on Linux. If you do";}i:2;i:10494;}i:263;a:3:{i:0;s:5:"cdata";i:1;a:1:{i:0;s:54:"
not already know Slackware Linux, then start with an ";}i:2;i:10730;}i:264;a:3:{i:0;s:6:"plugin";i:1;a:4:{i:0;s:16:"markdowku_ulists";i:1;b:1;i:2;i:3;i:3;s:53:"not already know Slackware Linux, then start with an ";}i:2;i:10731;}i:265;a:3:{i:0;s:12:"externallink";i:1;a:2:{i:0;s:25:"http://docs.slackware.com";i:1;s:18:"introductory guide";}i:2;i:10784;}i:266;a:3:{i:0;s:5:"cdata";i:1;a:1:{i:0;s:34:" first, then graduate to this one.";}i:2;i:10832;}i:267;a:3:{i:0;s:6:"plugin";i:1;a:4:{i:0;s:16:"markdowku_ulists";i:1;b:1;i:2;i:3;i:3;s:34:" first, then graduate to this one.";}i:2;i:10832;}i:268;a:3:{i:0;s:5:"cdata";i:1;a:1:{i:0;s:1:"
";}i:2;i:10866;}i:269;a:3:{i:0;s:17:"listcontent_close";i:1;a:0:{}i:2;i:10867;}i:270;a:3:{i:0;s:14:"listitem_close";i:1;a:0:{}i:2;i:10867;}i:271;a:3:{i:0;s:13:"listitem_open";i:1;a:1:{i:0;i:1;}i:2;i:10867;}i:272;a:3:{i:0;s:16:"listcontent_open";i:1;a:0:{}i:2;i:10867;}i:273;a:3:{i:0;s:6:"plugin";i:1;a:4:{i:0;s:16:"markdowku_ulists";i:1;b:1;i:2;i:2;i:3;s:5:"
  * ";}i:2;i:10867;}i:274;a:3:{i:0;s:5:"cdata";i:1;a:1:{i:0;s:381:"Some familiarity with compiling source code is helpful but not strictly necessary. Slackermedia advises the user to compile from source on a number of important programs, but if the user's needs are simple - or the user wishes to start out simple - then manually compiling from source may never be necessary. Additionally, the use of SlackBuilds makes the process easier than ever.";}i:2;i:10872;}i:275;a:3:{i:0;s:6:"plugin";i:1;a:4:{i:0;s:16:"markdowku_ulists";i:1;b:1;i:2;i:3;i:3;s:381:"Some familiarity with compiling source code is helpful but not strictly necessary. Slackermedia advises the user to compile from source on a number of important programs, but if the user's needs are simple - or the user wishes to start out simple - then manually compiling from source may never be necessary. Additionally, the use of SlackBuilds makes the process easier than ever.";}i:2;i:10872;}i:276;a:3:{i:0;s:5:"cdata";i:1;a:1:{i:0;s:1:"
";}i:2;i:11253;}i:277;a:3:{i:0;s:17:"listcontent_close";i:1;a:0:{}i:2;i:11254;}i:278;a:3:{i:0;s:14:"listitem_close";i:1;a:0:{}i:2;i:11254;}i:279;a:3:{i:0;s:13:"listitem_open";i:1;a:1:{i:0;i:1;}i:2;i:11254;}i:280;a:3:{i:0;s:16:"listcontent_open";i:1;a:0:{}i:2;i:11254;}i:281;a:3:{i:0;s:6:"plugin";i:1;a:4:{i:0;s:16:"markdowku_ulists";i:1;b:1;i:2;i:2;i:3;s:5:"
  * ";}i:2;i:11254;}i:282;a:3:{i:0;s:5:"cdata";i:1;a:1:{i:0;s:530:"It is recommended that the user be comfortable with installing and configuring Slackware. While Slackware is not difficult, it does allow for quite a bit of customization and configuration. If the user does not feel comfortable doing this (ie, if the user has only ever run a distribution that largely installs and configures itself, like Debian, Mageia, Suse, and so on), then before Slackermedia is attempted, some degree of comfort with Slackware should be attained. A good way to do this is by reading Slackware Documentation.";}i:2;i:11259;}i:283;a:3:{i:0;s:6:"plugin";i:1;a:4:{i:0;s:16:"markdowku_ulists";i:1;b:1;i:2;i:3;i:3;s:530:"It is recommended that the user be comfortable with installing and configuring Slackware. While Slackware is not difficult, it does allow for quite a bit of customization and configuration. If the user does not feel comfortable doing this (ie, if the user has only ever run a distribution that largely installs and configures itself, like Debian, Mageia, Suse, and so on), then before Slackermedia is attempted, some degree of comfort with Slackware should be attained. A good way to do this is by reading Slackware Documentation.";}i:2;i:11259;}i:284;a:3:{i:0;s:9:"linebreak";i:1;a:0:{}i:2;i:11789;}i:285;a:3:{i:0;s:5:"cdata";i:1;a:1:{i:0;s:1:"
";}i:2;i:11791;}i:286;a:3:{i:0;s:9:"linebreak";i:1;a:0:{}i:2;i:11792;}i:287;a:3:{i:0;s:5:"cdata";i:1;a:1:{i:0;s:52:"
The latest official documentation for Slackware is ";}i:2;i:11794;}i:288;a:3:{i:0;s:6:"plugin";i:1;a:4:{i:0;s:16:"markdowku_ulists";i:1;b:1;i:2;i:3;i:3;s:51:"The latest official documentation for Slackware is ";}i:2;i:11795;}i:289;a:3:{i:0;s:12:"externallink";i:1;a:2:{i:0;s:25:"http://docs.slackware.com";i:1;N;}i:2;i:11846;}i:290;a:3:{i:0;s:5:"cdata";i:1;a:1:{i:0;s:1:".";}i:2;i:11875;}i:291;a:3:{i:0;s:6:"plugin";i:1;a:4:{i:0;s:16:"markdowku_ulists";i:1;b:1;i:2;i:3;i:3;s:1:".";}i:2;i:11875;}i:292;a:3:{i:0;s:9:"linebreak";i:1;a:0:{}i:2;i:11876;}i:293;a:3:{i:0;s:5:"cdata";i:1;a:1:{i:0;s:1:"
";}i:2;i:11878;}i:294;a:3:{i:0;s:9:"linebreak";i:1;a:0:{}i:2;i:11879;}i:295;a:3:{i:0;s:5:"cdata";i:1;a:1:{i:0;s:56:"
If you have not already, then you should also read the ";}i:2;i:11881;}i:296;a:3:{i:0;s:6:"plugin";i:1;a:4:{i:0;s:16:"markdowku_ulists";i:1;b:1;i:2;i:3;i:3;s:55:"If you have not already, then you should also read the ";}i:2;i:11882;}i:297;a:3:{i:0;s:12:"externallink";i:1;a:2:{i:0;s:26:"http://store.slackware.com";i:1;s:20:"Slackware Essentials";}i:2;i:11937;}i:298;a:3:{i:0;s:5:"cdata";i:1;a:1:{i:0;s:25:" (generally known as the ";}i:2;i:11988;}i:299;a:3:{i:0;s:6:"plugin";i:1;a:4:{i:0;s:16:"markdowku_ulists";i:1;b:1;i:2;i:3;i:3;s:25:" (generally known as the ";}i:2;i:11988;}i:300;a:3:{i:0;s:18:"doublequoteopening";i:1;a:0:{}i:2;i:12013;}i:301;a:3:{i:0;s:5:"cdata";i:1;a:1:{i:0;s:9:"Slackbook";}i:2;i:12014;}i:302;a:3:{i:0;s:6:"plugin";i:1;a:4:{i:0;s:16:"markdowku_ulists";i:1;b:1;i:2;i:3;i:3;s:9:"Slackbook";}i:2;i:12014;}i:303;a:3:{i:0;s:18:"doublequoteclosing";i:1;a:0:{}i:2;i:12023;}i:304;a:3:{i:0;s:5:"cdata";i:1;a:1:{i:0;s:141:"). It's admittedly a little out of date, but because Slackware has changed so very little at the system-level, it holds up surprisingly well.";}i:2;i:12024;}i:305;a:3:{i:0;s:6:"plugin";i:1;a:4:{i:0;s:16:"markdowku_ulists";i:1;b:1;i:2;i:3;i:3;s:141:"). It's admittedly a little out of date, but because Slackware has changed so very little at the system-level, it holds up surprisingly well.";}i:2;i:12024;}i:306;a:3:{i:0;s:5:"cdata";i:1;a:1:{i:0;s:1:"
";}i:2;i:12165;}i:307;a:3:{i:0;s:17:"listcontent_close";i:1;a:0:{}i:2;i:12166;}i:308;a:3:{i:0;s:14:"listitem_close";i:1;a:0:{}i:2;i:12166;}i:309;a:3:{i:0;s:13:"listitem_open";i:1;a:1:{i:0;i:1;}i:2;i:12166;}i:310;a:3:{i:0;s:16:"listcontent_open";i:1;a:0:{}i:2;i:12166;}i:311;a:3:{i:0;s:6:"plugin";i:1;a:4:{i:0;s:16:"markdowku_ulists";i:1;b:1;i:2;i:2;i:3;s:5:"
  * ";}i:2;i:12166;}i:312;a:3:{i:0;s:5:"cdata";i:1;a:1:{i:0;s:594:"Familiarity with Linux multimedia applications. It will be difficult to custom design a multimedia distribution if the user does not know what applications they want to install. While Slackermedia gives plenty of good examples and suggestions, it is heavily biased toward what the author knows best and the applications that the author uses most. If a user knows that they prefer Ardour to Qtractor, for instance, then the user should implement an Ardour-based Slackermedia design; if the user doesn't know one from the other, then the user may not be getting the best solution for their needs.";}i:2;i:12171;}i:313;a:3:{i:0;s:6:"plugin";i:1;a:4:{i:0;s:16:"markdowku_ulists";i:1;b:1;i:2;i:3;i:3;s:594:"Familiarity with Linux multimedia applications. It will be difficult to custom design a multimedia distribution if the user does not know what applications they want to install. While Slackermedia gives plenty of good examples and suggestions, it is heavily biased toward what the author knows best and the applications that the author uses most. If a user knows that they prefer Ardour to Qtractor, for instance, then the user should implement an Ardour-based Slackermedia design; if the user doesn't know one from the other, then the user may not be getting the best solution for their needs.";}i:2;i:12171;}i:314;a:3:{i:0;s:9:"linebreak";i:1;a:0:{}i:2;i:12765;}i:315;a:3:{i:0;s:5:"cdata";i:1;a:1:{i:0;s:1:"
";}i:2;i:12767;}i:316;a:3:{i:0;s:9:"linebreak";i:1;a:0:{}i:2;i:12768;}i:317;a:3:{i:0;s:5:"cdata";i:1;a:1:{i:0;s:267:"
Remember that Slackermedia is not a recipe or a prescription; don't get distracted by the specific set of tools if you know of something better. Learn how to set these tools up, how to get them to work with one another, and then build your own solution. That is the ";}i:2;i:12770;}i:318;a:3:{i:0;s:6:"plugin";i:1;a:4:{i:0;s:16:"markdowku_ulists";i:1;b:1;i:2;i:3;i:3;s:266:"Remember that Slackermedia is not a recipe or a prescription; don't get distracted by the specific set of tools if you know of something better. Learn how to set these tools up, how to get them to work with one another, and then build your own solution. That is the ";}i:2;i:12771;}i:319;a:3:{i:0;s:12:"internallink";i:1;a:2:{i:0;s:10:"ref:mantra";i:1;s:16:"Slackermedia way";}i:2;i:13037;}i:320;a:3:{i:0;s:5:"cdata";i:1;a:1:{i:0;s:1:".";}i:2;i:13068;}i:321;a:3:{i:0;s:6:"plugin";i:1;a:4:{i:0;s:16:"markdowku_ulists";i:1;b:1;i:2;i:3;i:3;s:1:".";}i:2;i:13068;}i:322;a:3:{i:0;s:9:"linebreak";i:1;a:0:{}i:2;i:13069;}i:323;a:3:{i:0;s:5:"cdata";i:1;a:1:{i:0;s:1:"
";}i:2;i:13071;}i:324;a:3:{i:0;s:9:"linebreak";i:1;a:0:{}i:2;i:13072;}i:325;a:3:{i:0;s:5:"cdata";i:1;a:1:{i:0;s:295:"
If you do not know the multimedia applications available, install more than you think you need, and then spend time getting familiar with all of your options. Take them for a test drive, try them each out in production, and over time you will be able to trim down and simplify your Slackermedia";}i:2;i:13074;}i:326;a:3:{i:0;s:6:"plugin";i:1;a:4:{i:0;s:16:"markdowku_ulists";i:1;b:1;i:2;i:3;i:3;s:294:"If you do not know the multimedia applications available, install more than you think you need, and then spend time getting familiar with all of your options. Take them for a test drive, try them each out in production, and over time you will be able to trim down and simplify your Slackermedia";}i:2;i:13075;}i:327;a:3:{i:0;s:5:"cdata";i:1;a:1:{i:0;s:23:"
 installation process.";}i:2;i:13369;}i:328;a:3:{i:0;s:6:"plugin";i:1;a:4:{i:0;s:16:"markdowku_ulists";i:1;b:1;i:2;i:3;i:3;s:22:" installation process.";}i:2;i:13370;}i:329;a:3:{i:0;s:9:"linebreak";i:1;a:0:{}i:2;i:13392;}i:330;a:3:{i:0;s:17:"listcontent_close";i:1;a:0:{}i:2;i:13394;}i:331;a:3:{i:0;s:14:"listitem_close";i:1;a:0:{}i:2;i:13394;}i:332;a:3:{i:0;s:11:"listu_close";i:1;a:0:{}i:2;i:13394;}i:333;a:3:{i:0;s:6:"plugin";i:1;a:4:{i:0;s:16:"markdowku_ulists";i:1;b:1;i:2;i:4;i:3;s:2:"

";}i:2;i:13394;}i:334;a:3:{i:0;s:6:"p_open";i:1;a:0:{}i:2;i:13394;}i:335;a:3:{i:0;s:5:"cdata";i:1;a:1:{i:0;s:390:"All in all, the experienced user will find Slackermedia pretty simple to set up
and start using. A new user will need to take it slower and allow for a learning curve, but don't let that discourage you. Every new tool has a
learning curve, and the lessons you learn while setting up a Slackware media machine will help you understand Linux of every flavour, as well as computers in general.";}i:2;i:13397;}i:336;a:3:{i:0;s:7:"p_close";i:1;a:0:{}i:2;i:13787;}i:337;a:3:{i:0;s:6:"p_open";i:1;a:0:{}i:2;i:13787;}i:338;a:3:{i:0;s:6:"plugin";i:1;a:4:{i:0;s:6:"button";i:1;a:2:{i:0;i:1;i:1;a:10:{i:0;s:85:"[[{arrown.png|border:0;background:none;width:0;display:inline-block;float:right;}pre|";s:5:"image";s:10:"arrown.png";i:1;s:10:"arrown.png";s:3:"css";s:66:"border:0;background:none;width:0;display:inline-block;float:right;";i:2;s:66:"border:0;background:none;width:0;display:inline-block;float:right;";s:4:"link";s:3:"pre";i:3;s:3:"pre";s:5:"title";s:0:"";i:4;s:0:"";s:6:"target";s:0:"";}}i:2;i:1;i:3;s:85:"[[{arrown.png|border:0;background:none;width:0;display:inline-block;float:right;}pre|";}i:2;i:13790;}i:339;a:3:{i:0;s:6:"plugin";i:1;a:4:{i:0;s:6:"button";i:1;a:2:{i:0;i:4;i:1;s:0:"";}i:2;i:4;i:3;s:2:"]]";}i:2;i:13875;}i:340;a:3:{i:0;s:6:"plugin";i:1;a:4:{i:0;s:6:"button";i:1;a:2:{i:0;i:1;i:1;a:10:{i:0;s:66:"[[{arrowp.png|border:0;background:none;width:0;float:right;}start|";s:5:"image";s:10:"arrowp.png";i:1;s:10:"arrowp.png";s:3:"css";s:45:"border:0;background:none;width:0;float:right;";i:2;s:45:"border:0;background:none;width:0;float:right;";s:4:"link";s:5:"start";i:3;s:5:"start";s:5:"title";s:0:"";i:4;s:0:"";s:6:"target";s:0:"";}}i:2;i:1;i:3;s:66:"[[{arrowp.png|border:0;background:none;width:0;float:right;}start|";}i:2;i:13877;}i:341;a:3:{i:0;s:6:"plugin";i:1;a:4:{i:0;s:6:"button";i:1;a:2:{i:0;i:4;i:1;s:0:"";}i:2;i:4;i:3;s:2:"]]";}i:2;i:13943;}i:342;a:3:{i:0;s:7:"p_close";i:1;a:0:{}i:2;i:13945;}i:343;a:3:{i:0;s:13:"section_close";i:1;a:0:{}i:2;i:13946;}i:344;a:3:{i:0;s:12:"document_end";i:1;a:0:{}i:2;i:13946;}}