<?xml version="1.0" encoding="UTF-8" standalone="no"?>
<!-- Created with Inkscape (http://www.inkscape.org/) -->

<svg
   xmlns:dc="http://purl.org/dc/elements/1.1/"
   xmlns:cc="http://creativecommons.org/ns#"
   xmlns:rdf="http://www.w3.org/1999/02/22-rdf-syntax-ns#"
   xmlns:svg="http://www.w3.org/2000/svg"
   xmlns="http://www.w3.org/2000/svg"
   xmlns:xlink="http://www.w3.org/1999/xlink"
   xmlns:sodipodi="http://sodipodi.sourceforge.net/DTD/sodipodi-0.dtd"
   xmlns:inkscape="http://www.inkscape.org/namespaces/inkscape"
   width="331.5629"
   height="199.95044"
   id="svg2"
   version="1.1"
   inkscape:version="0.48.1 r9760"
   sodipodi:docname="kdenlive_4_graph_luma.svg"
   inkscape:export-filename="/media/UNTITLED/newkdenlive/kdenlive_4_graph_luma.png"
   inkscape:export-xdpi="95.769997"
   inkscape:export-ydpi="95.769997">
  <defs
     id="defs4">
    <linearGradient
       id="linearGradient782">
      <stop
         style="stop-color:#ffffff;stop-opacity:1;"
         offset="0"
         id="stop784" />
      <stop
         id="stop790"
         offset="0.39873418"
         style="stop-color:#7f7f7f;stop-opacity:1;" />
      <stop
         style="stop-color:#000000;stop-opacity:1;"
         offset="1"
         id="stop786" />
    </linearGradient>
    <linearGradient
       inkscape:collect="always"
       xlink:href="#linearGradient782"
       id="linearGradient788"
       x1="375.77673"
       y1="425.05746"
       x2="124.24876"
       y2="425.05746"
       gradientUnits="userSpaceOnUse"
       gradientTransform="matrix(0.98160995,0,0,0.99180126,4.5890684,2.9906074)" />
  </defs>
  <sodipodi:namedview
     id="base"
     pagecolor="#ffffff"
     bordercolor="#666666"
     borderopacity="1.0"
     inkscape:pageopacity="0.0"
     inkscape:pageshadow="2"
     inkscape:zoom="1.979899"
     inkscape:cx="141.3298"
     inkscape:cy="85.722946"
     inkscape:document-units="px"
     inkscape:current-layer="layer1"
     showgrid="false"
     inkscape:window-width="1680"
     inkscape:window-height="1003"
     inkscape:window-x="-4"
     inkscape:window-y="24"
     inkscape:window-maximized="1"
     fit-margin-top="0"
     fit-margin-left="0"
     fit-margin-right="0"
     fit-margin-bottom="0" />
  <metadata
     id="metadata7">
    <rdf:RDF>
      <cc:Work
         rdf:about="">
        <dc:format>image/svg+xml</dc:format>
        <dc:type
           rdf:resource="http://purl.org/dc/dcmitype/StillImage" />
        <dc:title></dc:title>
      </cc:Work>
    </rdf:RDF>
  </metadata>
  <g
     inkscape:label="Layer 1"
     inkscape:groupmode="layer"
     id="layer1"
     transform="translate(-72.962913,-320.55)">
    <rect
       style="fill:url(#linearGradient788);fill-opacity:1;stroke:#000000;stroke-width:1.97338486;stroke-linecap:round;stroke-linejoin:round;stroke-miterlimit:4;stroke-opacity:1;stroke-dasharray:none;stroke-dashoffset:0"
       id="rect12"
       width="308.38007"
       height="130.24318"
       x="76.994034"
       y="362.427" />
    <path
       style="fill:none;stroke:#000000;stroke-width:2;stroke-linecap:butt;stroke-linejoin:miter;stroke-miterlimit:4;stroke-opacity:1;stroke-dasharray:none"
       d="M 76.783011,492.73413 C 167.45819,500.31027 304.12425,359.40441 385.87928,362.43486"
       id="path10"
       inkscape:connector-curvature="0"
       sodipodi:nodetypes="cc" />
    <path
       sodipodi:nodetypes="cc"
       inkscape:connector-curvature="0"
       id="path811"
       d="M 129.81602,492.73413 C 274.02928,487.17829 212.20037,362.43486 362.64577,362.43486"
       style="fill:none;stroke:#ff0006;stroke-width:2;stroke-linecap:butt;stroke-linejoin:miter;stroke-miterlimit:4;stroke-opacity:1;stroke-dasharray:none" />
    <rect
       style="fill:none;stroke:#ff0006;stroke-width:2;stroke-linecap:round;stroke-linejoin:round;stroke-miterlimit:4;stroke-opacity:1;stroke-dasharray:none;stroke-dashoffset:0"
       id="rect813"
       width="237.89093"
       height="130.30966"
       x="125.76398"
       y="362.42798" />
    <text
       xml:space="preserve"
       style="font-size:10.72348976px;font-style:normal;font-weight:normal;line-height:125%;letter-spacing:0px;word-spacing:0px;fill:#ffffff;fill-opacity:1;stroke:none;font-family:Sans"
       x="77.910461"
       y="374.69745"
       id="text815"
       sodipodi:linespacing="125%"><tspan
         sodipodi:role="line"
         id="tspan817"
         x="77.910461"
         y="374.69745">Celluloid</tspan></text>
    <text
       sodipodi:linespacing="125%"
       id="text819"
       y="374.69745"
       x="129.91046"
       style="font-size:10.72348976px;font-style:normal;font-weight:normal;line-height:125%;letter-spacing:0px;word-spacing:0px;fill:#ff0000;fill-opacity:1;stroke:none;font-family:Sans"
       xml:space="preserve"><tspan
         y="374.69745"
         x="129.91046"
         id="tspan821"
         sodipodi:role="line">Video</tspan></text>
    <text
       sodipodi:linespacing="89.999998%"
       id="text827"
       y="510.69745"
       x="71.910461"
       style="font-size:10.72348976px;font-style:normal;font-weight:normal;line-height:89.99999762%;letter-spacing:0px;word-spacing:0px;fill:#000000;fill-opacity:1;stroke:none;font-family:Sans"
       xml:space="preserve"><tspan
         y="510.69745"
         x="71.910461"
         id="tspan829"
         sodipodi:role="line"
         style="font-size:10.72348976px;font-style:normal;font-variant:normal;font-weight:normal;font-stretch:normal;text-align:start;line-height:89.99999762%;writing-mode:lr-tb;text-anchor:start;font-family:Sans;-inkscape-font-specification:Sans">100%</tspan><tspan
         y="520.34857"
         x="71.910461"
         sodipodi:role="line"
         id="tspan839"
         style="font-size:10.72348976px;font-style:normal;font-variant:normal;font-weight:normal;font-stretch:normal;text-align:start;line-height:89.99999762%;writing-mode:lr-tb;text-anchor:start;font-family:Sans;-inkscape-font-specification:Sans">Black</tspan></text>
    <path
       style="fill:none;stroke:#000000;stroke-width:1px;stroke-linecap:butt;stroke-linejoin:miter;stroke-opacity:1"
       d="m 79.296975,489.70721 0,10.10153"
       id="path831"
       inkscape:connector-curvature="0" />
    <text
       xml:space="preserve"
       style="font-size:10.72348976px;font-style:normal;font-weight:normal;line-height:89.99999762%;letter-spacing:0px;word-spacing:0px;fill:#ff0000;fill-opacity:1;stroke:none;font-family:Sans"
       x="129.91046"
       y="504.69745"
       id="text833"
       sodipodi:linespacing="89.999998%"><tspan
         sodipodi:role="line"
         id="tspan835"
         x="129.91046"
         y="504.69745"
         style="font-size:10.72348976px;font-style:normal;font-variant:normal;font-weight:normal;font-stretch:normal;text-align:start;line-height:89.99999762%;writing-mode:lr-tb;text-anchor:start;font-family:Sans;-inkscape-font-specification:Sans">&quot;100%&quot;</tspan><tspan
         sodipodi:role="line"
         x="129.91046"
         y="514.34857"
         id="tspan841"
         style="font-size:10.72348976px;font-style:normal;font-variant:normal;font-weight:normal;font-stretch:normal;text-align:start;line-height:89.99999762%;writing-mode:lr-tb;text-anchor:start;font-family:Sans;-inkscape-font-specification:Sans">Black</tspan></text>
    <path
       inkscape:connector-curvature="0"
       id="path837"
       d="m 127.29698,489.70721 0,10.10153"
       style="fill:none;stroke:#000000;stroke-width:1px;stroke-linecap:butt;stroke-linejoin:miter;stroke-opacity:1" />
    <text
       xml:space="preserve"
       style="font-size:10.72348976px;font-style:normal;font-weight:normal;line-height:89.99999762%;letter-spacing:0px;word-spacing:0px;fill:#000000;fill-opacity:1;stroke:none;font-family:Sans"
       x="373.91046"
       y="510.69745"
       id="text843"
       sodipodi:linespacing="89.999998%"><tspan
         style="font-size:10.72348976px;font-style:normal;font-variant:normal;font-weight:normal;font-stretch:normal;text-align:start;line-height:89.99999762%;writing-mode:lr-tb;text-anchor:start;font-family:Sans;-inkscape-font-specification:Sans"
         sodipodi:role="line"
         id="tspan845"
         x="373.91046"
         y="510.69745">100%</tspan><tspan
         style="font-size:10.72348976px;font-style:normal;font-variant:normal;font-weight:normal;font-stretch:normal;text-align:start;line-height:89.99999762%;writing-mode:lr-tb;text-anchor:start;font-family:Sans;-inkscape-font-specification:Sans"
         id="tspan847"
         sodipodi:role="line"
         x="373.91046"
         y="520.34857">White</tspan></text>
    <path
       inkscape:connector-curvature="0"
       id="path849"
       d="m 363.29698,489.70721 0,10.10153"
       style="fill:none;stroke:#000000;stroke-width:1px;stroke-linecap:butt;stroke-linejoin:miter;stroke-opacity:1" />
    <text
       sodipodi:linespacing="89.999998%"
       id="text851"
       y="504.69745"
       x="321.91046"
       style="font-size:10.72348976px;font-style:normal;font-weight:normal;line-height:89.99999762%;letter-spacing:0px;word-spacing:0px;fill:#ff0000;fill-opacity:1;stroke:none;font-family:Sans"
       xml:space="preserve"><tspan
         style="font-size:10.72348976px;font-style:normal;font-variant:normal;font-weight:normal;font-stretch:normal;text-align:start;line-height:89.99999762%;writing-mode:lr-tb;text-anchor:start;font-family:Sans;-inkscape-font-specification:Sans"
         y="504.69745"
         x="321.91046"
         id="tspan853"
         sodipodi:role="line">&quot;100%&quot;</tspan><tspan
         style="font-size:10.72348976px;font-style:normal;font-variant:normal;font-weight:normal;font-stretch:normal;text-align:start;line-height:89.99999762%;writing-mode:lr-tb;text-anchor:start;font-family:Sans;-inkscape-font-specification:Sans"
         id="tspan855"
         y="514.34857"
         x="321.91046"
         sodipodi:role="line">White</tspan></text>
    <path
       style="fill:none;stroke:#000000;stroke-width:1px;stroke-linecap:butt;stroke-linejoin:miter;stroke-opacity:1"
       d="m 385.29698,489.70721 0,10.10153"
       id="path857"
       inkscape:connector-curvature="0" />
    <text
       sodipodi:linespacing="125%"
       id="text863"
       y="335.5864"
       x="78.670525"
       style="font-size:17.15844345px;font-style:normal;font-weight:normal;line-height:125%;letter-spacing:0px;word-spacing:0px;fill:#000000;fill-opacity:1;stroke:none;font-family:Sans"
       xml:space="preserve"><tspan
         style="font-style:normal;font-variant:normal;font-weight:normal;font-stretch:normal;font-family:Serif;-inkscape-font-specification:Serif"
         y="335.5864"
         x="78.670525"
         sodipodi:role="line"
         id="tspan3015">Film Response Sensitivity</tspan><tspan
         style="font-style:normal;font-variant:normal;font-weight:normal;font-stretch:normal;font-family:Serif;-inkscape-font-specification:Serif"
         y="357.03445"
         x="78.670525"
         sodipodi:role="line"
         id="tspan3019">Video Luma Potential</tspan></text>
  </g>
</svg>
