a:114:{i:0;a:3:{i:0;s:14:"document_start";i:1;a:0:{}i:2;i:0;}i:1;a:3:{i:0;s:6:"p_open";i:1;a:0:{}i:2;i:0;}i:2;a:3:{i:0;s:5:"cdata";i:1;a:1:{i:0;s:21:"Chapter 1. Kdenlive";}i:2;i:1;}i:3;a:3:{i:0;s:7:"p_close";i:1;a:0:{}i:2;i:22;}i:4;a:3:{i:0;s:6:"p_open";i:1;a:0:{}i:2;i:22;}i:5;a:3:{i:0;s:5:"cdata";i:1;a:1:{i:0;s:9:"Strengths";}i:2;i:24;}i:6;a:3:{i:0;s:7:"p_close";i:1;a:0:{}i:2;i:33;}i:7;a:3:{i:0;s:6:"p_open";i:1;a:0:{}i:2;i:33;}i:8;a:3:{i:0;s:5:"cdata";i:1;a:1:{i:0;s:8:"Powerful";}i:2;i:35;}i:9;a:3:{i:0;s:7:"p_close";i:1;a:0:{}i:2;i:43;}i:10;a:3:{i:0;s:12:"preformatted";i:1;a:1:{i:0;s:249:"All the essential video editing funtions are present, in a professional
environment; in and out points, a clip monitor and separate timeline
monitor, copious effects, clip bin, blade/razor tool, proxy system, plain
text project files, and much more.";}i:2;i:43;}i:11;a:3:{i:0;s:6:"plugin";i:1;a:4:{i:0;s:20:"markdowku_codeblocks";i:1;b:1;i:2;i:4;i:3;s:1:"
";}i:2;i:310;}i:12;a:3:{i:0;s:6:"p_open";i:1;a:0:{}i:2;i:310;}i:13;a:3:{i:0;s:5:"cdata";i:1;a:1:{i:0;s:17:"Timeline-Oriented";}i:2;i:312;}i:14;a:3:{i:0;s:7:"p_close";i:1;a:0:{}i:2;i:329;}i:15;a:3:{i:0;s:12:"preformatted";i:1;a:1:{i:0;s:77:"Allows you to work mostly in the timeline, if that is how you prefer to
work.";}i:2;i:329;}i:16;a:3:{i:0;s:6:"plugin";i:1;a:4:{i:0;s:20:"markdowku_codeblocks";i:1;b:1;i:2;i:4;i:3;s:1:"
";}i:2;i:416;}i:17;a:3:{i:0;s:6:"p_open";i:1;a:0:{}i:2;i:416;}i:18;a:3:{i:0;s:5:"cdata";i:1;a:1:{i:0;s:8:"Flexible";}i:2;i:418;}i:19;a:3:{i:0;s:7:"p_close";i:1;a:0:{}i:2;i:426;}i:20;a:3:{i:0;s:12:"preformatted";i:1;a:1:{i:0;s:288:"It is flexible in many senses of the term; it allows you to work in a
variety of work styles, and also can import and export a variety of
formats, load image sequences as clips, manage basic titling, perform basic
compositing, has stackable effects, and a non-linear composite structure..";}i:2;i:426;}i:21;a:3:{i:0;s:6:"plugin";i:1;a:4:{i:0;s:20:"markdowku_codeblocks";i:1;b:1;i:2;i:4;i:3;s:1:"
";}i:2;i:732;}i:22;a:3:{i:0;s:6:"p_open";i:1;a:0:{}i:2;i:732;}i:23;a:3:{i:0;s:5:"cdata";i:1;a:1:{i:0;s:9:"Intuitive";}i:2;i:734;}i:24;a:3:{i:0;s:7:"p_close";i:1;a:0:{}i:2;i:743;}i:25;a:3:{i:0;s:12:"preformatted";i:1;a:1:{i:0;s:266:"On the surface, at least, the basic workflow is familiar to anyone having
used popular commercial "prosumer" video editing systems. Lots of
drag-and-drop, click, and drag funtionality that will render a cleanly
edited sequence quickly and without too many surprises.";}i:2;i:743;}i:26;a:3:{i:0;s:6:"plugin";i:1;a:4:{i:0;s:20:"markdowku_codeblocks";i:1;b:1;i:2;i:4;i:3;s:1:"
";}i:2;i:1027;}i:27;a:3:{i:0;s:6:"p_open";i:1;a:0:{}i:2;i:1027;}i:28;a:3:{i:0;s:5:"cdata";i:1;a:1:{i:0;s:10:"Weaknesses";}i:2;i:1029;}i:29;a:3:{i:0;s:7:"p_close";i:1;a:0:{}i:2;i:1039;}i:30;a:3:{i:0;s:6:"p_open";i:1;a:0:{}i:2;i:1039;}i:31;a:3:{i:0;s:5:"cdata";i:1;a:1:{i:0;s:17:"Skips in Playback";}i:2;i:1041;}i:32;a:3:{i:0;s:7:"p_close";i:1;a:0:{}i:2;i:1058;}i:33;a:3:{i:0;s:12:"preformatted";i:1;a:1:{i:0;s:380:"With no GPU acceleration, playback of certain codecs or of any clip with an
effect on it can stutter and skip so severely that it becomes funtionally
useless unless the effects are removed or the clip is transcoded. A
work-around is to render the effected clips to a temporary directory and
drop them in on a "rendered" video track, switching the rendered track off
before export.";}i:2;i:1058;}i:34;a:3:{i:0;s:6:"plugin";i:1;a:4:{i:0;s:20:"markdowku_codeblocks";i:1;b:1;i:2;i:4;i:3;s:1:"
";}i:2;i:1464;}i:35;a:3:{i:0;s:6:"p_open";i:1;a:0:{}i:2;i:1464;}i:36;a:3:{i:0;s:5:"cdata";i:1;a:1:{i:0;s:16:"Missing Features";}i:2;i:1466;}i:37;a:3:{i:0;s:7:"p_close";i:1;a:0:{}i:2;i:1482;}i:38;a:3:{i:0;s:12:"preformatted";i:1;a:1:{i:0;s:391:"Partly because it otherwise resembles closed source editors, there are
particularly glaring gaps in the timeline-oriented toolset (no region
select, no roll-edits, no slips or slides, inability to group-delete
clips), and oversights in general functionality (no way to duplicate and
edit a title or lower-third, inability to have more than one timeline per
project, no insert edit function).";}i:2;i:1482;}i:39;a:3:{i:0;s:6:"plugin";i:1;a:4:{i:0;s:20:"markdowku_codeblocks";i:1;b:1;i:2;i:4;i:3;s:1:"
";}i:2;i:1899;}i:40;a:3:{i:0;s:6:"p_open";i:1;a:0:{}i:2;i:1899;}i:41;a:3:{i:0;s:5:"cdata";i:1;a:1:{i:0;s:14:"No Guard Rails";}i:2;i:1901;}i:42;a:3:{i:0;s:7:"p_close";i:1;a:0:{}i:2;i:1915;}i:43;a:3:{i:0;s:12:"preformatted";i:1;a:1:{i:0;s:584:"Kdenlive uses a set of very powerful libraries to accomplish the amazing
things that it does, but sometimes it over-estimates its own power. It will
permit you to import any variety of codec, and it will allow you to attempt
to edit the footage. However, there is no guarantee that it will not then
crash, corrupt your project file, or just skip and stutter its way through
your work, and it will never warn you or give you any sign that you are
using a non-optimal format (because it has not been programmed to check for
errors in playback or to recommend optimised format settings).";}i:2;i:1915;}i:44;a:3:{i:0;s:6:"plugin";i:1;a:4:{i:0;s:20:"markdowku_codeblocks";i:1;b:1;i:2;i:4;i:3;s:1:"
";}i:2;i:2533;}i:45;a:3:{i:0;s:6:"p_open";i:1;a:0:{}i:2;i:2533;}i:46;a:3:{i:0;s:5:"cdata";i:1;a:1:{i:0;s:8:"See Also";}i:2;i:2535;}i:47;a:3:{i:0;s:7:"p_close";i:1;a:0:{}i:2;i:2543;}i:48;a:3:{i:0;s:6:"p_open";i:1;a:0:{}i:2;i:2543;}i:49;a:3:{i:0;s:5:"cdata";i:1;a:1:{i:0;s:18:"Lightworks
Blender";}i:2;i:2545;}i:50;a:3:{i:0;s:7:"p_close";i:1;a:0:{}i:2;i:2563;}i:51;a:3:{i:0;s:6:"p_open";i:1;a:0:{}i:2;i:2563;}i:52;a:3:{i:0;s:5:"cdata";i:1;a:1:{i:0;s:145:"Kdenlive is a video editing application aimed at the professional video editor.
It can ingest, edit, affect, correct, and render motion pictures.";}i:2;i:2565;}i:53;a:3:{i:0;s:7:"p_close";i:1;a:0:{}i:2;i:2710;}i:54;a:3:{i:0;s:6:"p_open";i:1;a:0:{}i:2;i:2710;}i:55;a:3:{i:0;s:5:"cdata";i:1;a:1:{i:0;s:468:"Kdenlive has many dependencies, some of which are not strictly necessary for it
to work but the absence of which may restrict certain features from working.
Depending on whether you care about the features depends on how you intend to
use Kdenlive; if you do not intend to ever import DV footage from tape, or use 
Kdenlive as a frontend for screencasting, then installing dependencies for
those features are not important. If you aren't sure, then install everything.";}i:2;i:2712;}i:56;a:3:{i:0;s:7:"p_close";i:1;a:0:{}i:2;i:3180;}i:57;a:3:{i:0;s:6:"p_open";i:1;a:0:{}i:2;i:3180;}i:58;a:3:{i:0;s:5:"cdata";i:1;a:1:{i:0;s:79:"Once all the dependencies are installed, the Slackbuild for Kdenlive is simple.";}i:2;i:3182;}i:59;a:3:{i:0;s:7:"p_close";i:1;a:0:{}i:2;i:3261;}i:60;a:3:{i:0;s:6:"p_open";i:1;a:0:{}i:2;i:3261;}i:61;a:3:{i:0;s:5:"cdata";i:1;a:1:{i:0;s:9:"Important";}i:2;i:3263;}i:62;a:3:{i:0;s:7:"p_close";i:1;a:0:{}i:2;i:3272;}i:63;a:3:{i:0;s:6:"p_open";i:1;a:0:{}i:2;i:3272;}i:64;a:3:{i:0;s:5:"cdata";i:1;a:1:{i:0;s:218:"Kdenlive builds directly upon the mlt framework. If you are attempting to
compile Kdenlive shortly after a new release of mlt, then you might find a
sudden incompatibility. If this happens, then you have three options;";}i:2;i:3274;}i:65;a:3:{i:0;s:7:"p_close";i:1;a:0:{}i:2;i:3492;}i:66;a:3:{i:0;s:10:"listo_open";i:1;a:0:{}i:2;i:3492;}i:67;a:3:{i:0;s:13:"listitem_open";i:1;a:1:{i:0;i:1;}i:2;i:3492;}i:68;a:3:{i:0;s:16:"listcontent_open";i:1;a:0:{}i:2;i:3492;}i:69;a:3:{i:0;s:6:"plugin";i:1;a:4:{i:0;s:16:"markdowku_olists";i:1;b:1;i:2;i:1;i:3;s:6:"

 1. ";}i:2;i:3492;}i:70;a:3:{i:0;s:5:"cdata";i:1;a:1:{i:0;s:73:"Regress one version for both Kdenlive and mlt, bringing the two codebases";}i:2;i:3498;}i:71;a:3:{i:0;s:6:"plugin";i:1;a:4:{i:0;s:16:"markdowku_olists";i:1;b:1;i:2;i:3;i:3;s:73:"Regress one version for both Kdenlive and mlt, bringing the two codebases";}i:2;i:3498;}i:72;a:3:{i:0;s:5:"cdata";i:1;a:1:{i:0;s:20:"
    back into sync.";}i:2;i:3571;}i:73;a:3:{i:0;s:6:"plugin";i:1;a:4:{i:0;s:16:"markdowku_olists";i:1;b:1;i:2;i:3;i:3;s:19:"    back into sync.";}i:2;i:3572;}i:74;a:3:{i:0;s:5:"cdata";i:1;a:1:{i:0;s:1:"
";}i:2;i:3591;}i:75;a:3:{i:0;s:17:"listcontent_close";i:1;a:0:{}i:2;i:3592;}i:76;a:3:{i:0;s:14:"listitem_close";i:1;a:0:{}i:2;i:3592;}i:77;a:3:{i:0;s:13:"listitem_open";i:1;a:1:{i:0;i:0;}i:2;i:3592;}i:78;a:3:{i:0;s:16:"listcontent_open";i:1;a:0:{}i:2;i:3592;}i:79;a:3:{i:0;s:6:"plugin";i:1;a:4:{i:0;s:16:"markdowku_olists";i:1;b:1;i:2;i:2;i:3;s:5:"
 2. ";}i:2;i:3592;}i:80;a:3:{i:0;s:5:"cdata";i:1;a:1:{i:0;s:74:"Investigate to find out what the developers have used to compile their own";}i:2;i:3597;}i:81;a:3:{i:0;s:6:"plugin";i:1;a:4:{i:0;s:16:"markdowku_olists";i:1;b:1;i:2;i:3;i:3;s:74:"Investigate to find out what the developers have used to compile their own";}i:2;i:3597;}i:82;a:3:{i:0;s:5:"cdata";i:1;a:1:{i:0;s:80:"
    versions, and follow their example by compiling either mlt or Kdenlive from";}i:2;i:3671;}i:83;a:3:{i:0;s:6:"plugin";i:1;a:4:{i:0;s:16:"markdowku_olists";i:1;b:1;i:2;i:3;i:3;s:79:"    versions, and follow their example by compiling either mlt or Kdenlive from";}i:2;i:3672;}i:84;a:3:{i:0;s:5:"cdata";i:1;a:1:{i:0;s:75:"
    svn to bring in any fixes or modifications that have been developed to";}i:2;i:3751;}i:85;a:3:{i:0;s:6:"plugin";i:1;a:4:{i:0;s:16:"markdowku_olists";i:1;b:1;i:2;i:3;i:3;s:74:"    svn to bring in any fixes or modifications that have been developed to";}i:2;i:3752;}i:86;a:3:{i:0;s:5:"cdata";i:1;a:1:{i:0;s:30:"
    account for the breakage.";}i:2;i:3826;}i:87;a:3:{i:0;s:6:"plugin";i:1;a:4:{i:0;s:16:"markdowku_olists";i:1;b:1;i:2;i:3;i:3;s:29:"    account for the breakage.";}i:2;i:3827;}i:88;a:3:{i:0;s:5:"cdata";i:1;a:1:{i:0;s:1:"
";}i:2;i:3856;}i:89;a:3:{i:0;s:17:"listcontent_close";i:1;a:0:{}i:2;i:3857;}i:90;a:3:{i:0;s:14:"listitem_close";i:1;a:0:{}i:2;i:3857;}i:91;a:3:{i:0;s:13:"listitem_open";i:1;a:1:{i:0;i:0;}i:2;i:3857;}i:92;a:3:{i:0;s:16:"listcontent_open";i:1;a:0:{}i:2;i:3857;}i:93;a:3:{i:0;s:6:"plugin";i:1;a:4:{i:0;s:16:"markdowku_olists";i:1;b:1;i:2;i:2;i:3;s:5:"
 3. ";}i:2;i:3857;}i:94;a:3:{i:0;s:5:"cdata";i:1;a:1:{i:0;s:75:"Wait for a new release which fixes the breakage from either mlt or kdenlive";}i:2;i:3862;}i:95;a:3:{i:0;s:6:"plugin";i:1;a:4:{i:0;s:16:"markdowku_olists";i:1;b:1;i:2;i:3;i:3;s:75:"Wait for a new release which fixes the breakage from either mlt or kdenlive";}i:2;i:3862;}i:96;a:3:{i:0;s:5:"cdata";i:1;a:1:{i:0;s:77:"
    . Chances are the breakage is a known issue and a release that fixes the";}i:2;i:3937;}i:97;a:3:{i:0;s:6:"plugin";i:1;a:4:{i:0;s:16:"markdowku_olists";i:1;b:1;i:2;i:3;i:3;s:76:"    . Chances are the breakage is a known issue and a release that fixes the";}i:2;i:3938;}i:98;a:3:{i:0;s:5:"cdata";i:1;a:1:{i:0;s:38:"
    error is only a week or two away.";}i:2;i:4014;}i:99;a:3:{i:0;s:6:"plugin";i:1;a:4:{i:0;s:16:"markdowku_olists";i:1;b:1;i:2;i:3;i:3;s:37:"    error is only a week or two away.";}i:2;i:4015;}i:100;a:3:{i:0;s:5:"cdata";i:1;a:1:{i:0;s:1:"
";}i:2;i:4052;}i:101;a:3:{i:0;s:17:"listcontent_close";i:1;a:0:{}i:2;i:4053;}i:102;a:3:{i:0;s:14:"listitem_close";i:1;a:0:{}i:2;i:4053;}i:103;a:3:{i:0;s:13:"listitem_open";i:1;a:1:{i:0;i:0;}i:2;i:4053;}i:104;a:3:{i:0;s:16:"listcontent_open";i:1;a:0:{}i:2;i:4053;}i:105;a:3:{i:0;s:6:"plugin";i:1;a:4:{i:0;s:16:"markdowku_olists";i:1;b:1;i:2;i:2;i:3;s:5:"
 4. ";}i:2;i:4053;}i:106;a:3:{i:0;s:5:"cdata";i:1;a:1:{i:0;s:65:"Check with Slackermedia to see what is currently being run on our";}i:2;i:4058;}i:107;a:3:{i:0;s:6:"plugin";i:1;a:4:{i:0;s:16:"markdowku_olists";i:1;b:1;i:2;i:3;i:3;s:65:"Check with Slackermedia to see what is currently being run on our";}i:2;i:4058;}i:108;a:3:{i:0;s:5:"cdata";i:1;a:1:{i:0;s:25:"
    production machines.";}i:2;i:4123;}i:109;a:3:{i:0;s:6:"plugin";i:1;a:4:{i:0;s:16:"markdowku_olists";i:1;b:1;i:2;i:3;i:3;s:24:"    production machines.";}i:2;i:4124;}i:110;a:3:{i:0;s:17:"listcontent_close";i:1;a:0:{}i:2;i:4149;}i:111;a:3:{i:0;s:14:"listitem_close";i:1;a:0:{}i:2;i:4149;}i:112;a:3:{i:0;s:11:"listo_close";i:1;a:0:{}i:2;i:4149;}i:113;a:3:{i:0;s:12:"document_end";i:1;a:0:{}i:2;i:4149;}}