a:305:{i:0;a:3:{i:0;s:14:"document_start";i:1;a:0:{}i:2;i:0;}i:1;a:3:{i:0;s:6:"p_open";i:1;a:0:{}i:2;i:0;}i:2;a:3:{i:0;s:5:"cdata";i:1;a:1:{i:0;s:18:"Chapter 1. Fonts";}i:2;i:1;}i:3;a:3:{i:0;s:7:"p_close";i:1;a:0:{}i:2;i:19;}i:4;a:3:{i:0;s:6:"p_open";i:1;a:0:{}i:2;i:19;}i:5;a:3:{i:0;s:5:"cdata";i:1;a:1:{i:0;s:17:"Table of Contents";}i:2;i:21;}i:6;a:3:{i:0;s:7:"p_close";i:1;a:0:{}i:2;i:38;}i:7;a:3:{i:0;s:6:"p_open";i:1;a:0:{}i:2;i:38;}i:8;a:3:{i:0;s:5:"cdata";i:1;a:1:{i:0;s:16:"Installing Fonts";}i:2;i:40;}i:9;a:3:{i:0;s:7:"p_close";i:1;a:0:{}i:2;i:56;}i:10;a:3:{i:0;s:12:"preformatted";i:1;a:1:{i:0;s:98:"Manually Installing Fonts as User
Manually Installing Fonts for All Users
Installing Fonts via KDE";}i:2;i:56;}i:11;a:3:{i:0;s:6:"plugin";i:1;a:4:{i:0;s:20:"markdowku_codeblocks";i:1;b:1;i:2;i:4;i:3;s:1:"
";}i:2;i:168;}i:12;a:3:{i:0;s:6:"p_open";i:1;a:0:{}i:2;i:168;}i:13;a:3:{i:0;s:5:"cdata";i:1;a:1:{i:0;s:29:"Font Previews
Font Management";}i:2;i:170;}i:14;a:3:{i:0;s:7:"p_close";i:1;a:0:{}i:2;i:199;}i:15;a:3:{i:0;s:12:"preformatted";i:1;a:1:{i:0;s:88:"Tagging Fonts with Font Matrix
Activating and Deactivating Fonts
Integrating Font Matrix";}i:2;i:199;}i:16;a:3:{i:0;s:6:"plugin";i:1;a:4:{i:0;s:20:"markdowku_codeblocks";i:1;b:1;i:2;i:4;i:3;s:1:"
";}i:2;i:301;}i:17;a:3:{i:0;s:6:"p_open";i:1;a:0:{}i:2;i:301;}i:18;a:3:{i:0;s:5:"cdata";i:1;a:1:{i:0;s:345:"Fonts are vital to creativity and good design, plus they look pretty. Slackware
comes packaged with the Red Hat set of Liberation Fonts, which are drop-in
replacements for fonts like Helvetica and Times, which is useful but a little
bland. There are a number of sources for more fanciful free fonts available;
all you have to do is install them.";}i:2;i:303;}i:19;a:3:{i:0;s:7:"p_close";i:1;a:0:{}i:2;i:648;}i:20;a:3:{i:0;s:6:"p_open";i:1;a:0:{}i:2;i:648;}i:21;a:3:{i:0;s:5:"cdata";i:1;a:1:{i:0;s:48:"First, look on Slackbuilds.org. Do a search for ";}i:2;i:650;}i:22;a:3:{i:0;s:18:"doublequoteopening";i:1;a:0:{}i:2;i:698;}i:23;a:3:{i:0;s:5:"cdata";i:1;a:1:{i:0;s:4:"font";}i:2;i:699;}i:24;a:3:{i:0;s:18:"doublequoteclosing";i:1;a:0:{}i:2;i:703;}i:25;a:3:{i:0;s:5:"cdata";i:1;a:1:{i:0;s:289:" and you will find a
number of installable packages of free fonts, including the Ubuntu set, Droid
sans, Courier Prime, and some others. These are nice and complete fonts, not
the most exciting, but they do at least deviate a little from the 5 or 6 core
font faces that we are all used to.";}i:2;i:704;}i:26;a:3:{i:0;s:7:"p_close";i:1;a:0:{}i:2;i:993;}i:27;a:3:{i:0;s:6:"p_open";i:1;a:0:{}i:2;i:993;}i:28;a:3:{i:0;s:5:"cdata";i:1;a:1:{i:0;s:225:"Next, the League of Moveable Type features open source, glyph complete, free
fonts. Most of the fonts here are quite pleasant to look at, and sleek enough
to be identified as artistic but still maintain a professional veneer.";}i:2;i:995;}i:29;a:3:{i:0;s:7:"p_close";i:1;a:0:{}i:2;i:1220;}i:30;a:3:{i:0;s:6:"p_open";i:1;a:0:{}i:2;i:1220;}i:31;a:3:{i:0;s:5:"cdata";i:1;a:1:{i:0;s:453:"You will also find quite a few font packages available from the Fedora Linux
repositories. Fedora has long been considered to have on of the finest graphic
design teams of all Linux distributions, and also dedicated to freely licensed
content, so pillaging their repositories for .rpm files is useful. With rpm2tgz
it's easy to do; take any .rpm from an official Fedora repository and turn it
into a Slackware package and then use installpkg to install.";}i:2;i:1222;}i:32;a:3:{i:0;s:7:"p_close";i:1;a:0:{}i:2;i:1676;}i:33;a:3:{i:0;s:12:"preformatted";i:1;a:1:{i:0;s:66:"# rpm2tgz ttf-foo-font-1.0.rpm
  # installpkg ttf-foo-font-1.0.t?z";}i:2;i:1676;}i:34;a:3:{i:0;s:6:"p_open";i:1;a:0:{}i:2;i:1676;}i:35;a:3:{i:0;s:5:"cdata";i:1;a:1:{i:0;s:506:"If it's quantity and variety that you seek, the Great Linux Multimedia Sprints
feature over 2455 free fonts to use and re-distribute. Some of these fonts are
not entirely glyph-complete, so you may not want to use them as your system
font, but for artistic use this is a must-have collection. The sprint
collections contain all the kinds of fonts you would expect from a major
purchase, including gothic, script, calligraphy, distorted, graffiti, and so
on. All are royalty-free and most are very creative.";}i:2;i:1749;}i:36;a:3:{i:0;s:7:"p_close";i:1;a:0:{}i:2;i:2255;}i:37;a:3:{i:0;s:6:"p_open";i:1;a:0:{}i:2;i:2255;}i:38;a:3:{i:0;s:5:"cdata";i:1;a:1:{i:0;s:188:"Last but not least, you can use any font you already own. There is nothing
prohibitng you from installing your existing collection (or fonts you find on
the internet) of ttf and otf fonts.";}i:2;i:2257;}i:39;a:3:{i:0;s:7:"p_close";i:1;a:0:{}i:2;i:2445;}i:40;a:3:{i:0;s:6:"p_open";i:1;a:0:{}i:2;i:2445;}i:41;a:3:{i:0;s:5:"cdata";i:1;a:1:{i:0;s:16:"Installing Fonts";}i:2;i:2447;}i:42;a:3:{i:0;s:7:"p_close";i:1;a:0:{}i:2;i:2463;}i:43;a:3:{i:0;s:6:"p_open";i:1;a:0:{}i:2;i:2463;}i:44;a:3:{i:0;s:5:"cdata";i:1;a:1:{i:0;s:77:"Generally speaking, there are two different philosophies on installing fonts:";}i:2;i:2465;}i:45;a:3:{i:0;s:7:"p_close";i:1;a:0:{}i:2;i:2542;}i:46;a:3:{i:0;s:10:"listo_open";i:1;a:0:{}i:2;i:2542;}i:47;a:3:{i:0;s:13:"listitem_open";i:1;a:1:{i:0;i:1;}i:2;i:2542;}i:48;a:3:{i:0;s:16:"listcontent_open";i:1;a:0:{}i:2;i:2542;}i:49;a:3:{i:0;s:6:"plugin";i:1;a:4:{i:0;s:16:"markdowku_olists";i:1;b:1;i:2;i:1;i:3;s:6:"

 1. ";}i:2;i:2542;}i:50;a:3:{i:0;s:5:"cdata";i:1;a:1:{i:0;s:71:"Install fonts on a systemwide basis so that all users of a computer has";}i:2;i:2548;}i:51;a:3:{i:0;s:6:"plugin";i:1;a:4:{i:0;s:16:"markdowku_olists";i:1;b:1;i:2;i:3;i:3;s:71:"Install fonts on a systemwide basis so that all users of a computer has";}i:2;i:2548;}i:52;a:3:{i:0;s:5:"cdata";i:1;a:1:{i:0;s:19:"
    access to them";}i:2;i:2619;}i:53;a:3:{i:0;s:6:"plugin";i:1;a:4:{i:0;s:16:"markdowku_olists";i:1;b:1;i:2;i:3;i:3;s:18:"    access to them";}i:2;i:2620;}i:54;a:3:{i:0;s:5:"cdata";i:1;a:1:{i:0;s:1:"
";}i:2;i:2638;}i:55;a:3:{i:0;s:17:"listcontent_close";i:1;a:0:{}i:2;i:2639;}i:56;a:3:{i:0;s:14:"listitem_close";i:1;a:0:{}i:2;i:2639;}i:57;a:3:{i:0;s:13:"listitem_open";i:1;a:1:{i:0;i:0;}i:2;i:2639;}i:58;a:3:{i:0;s:16:"listcontent_open";i:1;a:0:{}i:2;i:2639;}i:59;a:3:{i:0;s:6:"plugin";i:1;a:4:{i:0;s:16:"markdowku_olists";i:1;b:1;i:2;i:2;i:3;s:5:"
 2. ";}i:2;i:2639;}i:60;a:3:{i:0;s:5:"cdata";i:1;a:1:{i:0;s:33:"Install fonts on a per-user basis";}i:2;i:2644;}i:61;a:3:{i:0;s:6:"plugin";i:1;a:4:{i:0;s:16:"markdowku_olists";i:1;b:1;i:2;i:3;i:3;s:33:"Install fonts on a per-user basis";}i:2;i:2644;}i:62;a:3:{i:0;s:17:"listcontent_close";i:1;a:0:{}i:2;i:2677;}i:63;a:3:{i:0;s:14:"listitem_close";i:1;a:0:{}i:2;i:2677;}i:64;a:3:{i:0;s:11:"listo_close";i:1;a:0:{}i:2;i:2677;}i:65;a:3:{i:0;s:6:"plugin";i:1;a:4:{i:0;s:16:"markdowku_olists";i:1;b:1;i:2;i:4;i:3;s:1:"
";}i:2;i:2677;}i:66;a:3:{i:0;s:6:"p_open";i:1;a:0:{}i:2;i:2677;}i:67;a:3:{i:0;s:5:"cdata";i:1;a:1:{i:0;s:527:"Traditionally, installing fonts systemwide made most sense. It was economical
on disk space and made sure all users had access to the same fonts for design
work. This is still true if you actually manage a multi-user system but if you
are an independent artist with no other users to consider, the multi-user
aspect is unimportant. In fact, there is a distinct advantage to installing
fonts on a per-user basis, since it makes keeping track of those fonts and
porting them or syncing them over to another computer a lot easier.";}i:2;i:2679;}i:68;a:3:{i:0;s:7:"p_close";i:1;a:0:{}i:2;i:3206;}i:69;a:3:{i:0;s:6:"p_open";i:1;a:0:{}i:2;i:3206;}i:70;a:3:{i:0;s:5:"cdata";i:1;a:1:{i:0;s:33:"Manually Installing Fonts as User";}i:2;i:3208;}i:71;a:3:{i:0;s:7:"p_close";i:1;a:0:{}i:2;i:3241;}i:72;a:3:{i:0;s:6:"p_open";i:1;a:0:{}i:2;i:3241;}i:73;a:3:{i:0;s:5:"cdata";i:1;a:1:{i:0;s:118:"To install fonts into a user's home folder, place a font file into a directory
(it may or may not yet exist) ~/.fonts.";}i:2;i:3243;}i:74;a:3:{i:0;s:7:"p_close";i:1;a:0:{}i:2;i:3361;}i:75;a:3:{i:0;s:6:"p_open";i:1;a:0:{}i:2;i:3361;}i:76;a:3:{i:0;s:5:"cdata";i:1;a:1:{i:0;s:47:"Traditionally, you would also run this command:";}i:2;i:3363;}i:77;a:3:{i:0;s:7:"p_close";i:1;a:0:{}i:2;i:3410;}i:78;a:3:{i:0;s:6:"p_open";i:1;a:0:{}i:2;i:3410;}i:79;a:3:{i:0;s:5:"cdata";i:1;a:1:{i:0;s:13:"$ fc-cache -f";}i:2;i:3412;}i:80;a:3:{i:0;s:7:"p_close";i:1;a:0:{}i:2;i:3425;}i:81;a:3:{i:0;s:6:"p_open";i:1;a:0:{}i:2;i:3425;}i:82;a:3:{i:0;s:5:"cdata";i:1;a:1:{i:0;s:34:"Although in practise, most modern ";}i:2;i:3427;}i:83;a:3:{i:0;s:7:"acronym";i:1;a:1:{i:0;s:3:"GUI";}i:2;i:3461;}i:84;a:3:{i:0;s:5:"cdata";i:1;a:1:{i:0;s:189:" applications auto-detect new fonts when
they are launched and the font cache updates when you reboot, so the command is
not strictly necessary for most things you will be doing with fonts.";}i:2;i:3464;}i:85;a:3:{i:0;s:7:"p_close";i:1;a:0:{}i:2;i:3653;}i:86;a:3:{i:0;s:6:"p_open";i:1;a:0:{}i:2;i:3653;}i:87;a:3:{i:0;s:5:"cdata";i:1;a:1:{i:0;s:403:"To install a font that has been packaged up by someone else (from Fedora or
Slackbuilds.org, for instance) then the package's default behaviour will be to
install the font to the system. To override that behaviour, treat the package
as exactly what it is: a tarball (archive). Instead of installing the package,
just un-tar it and move the ttf or otf files to your .fonts folder. You can do
this in the ";}i:2;i:3655;}i:88;a:3:{i:0;s:7:"acronym";i:1;a:1:{i:0;s:3:"GUI";}i:2;i:4058;}i:89;a:3:{i:0;s:5:"cdata";i:1;a:1:{i:0;s:17:" or in the shell.";}i:2;i:4061;}i:90;a:3:{i:0;s:7:"p_close";i:1;a:0:{}i:2;i:4078;}i:91;a:3:{i:0;s:6:"p_open";i:1;a:0:{}i:2;i:4078;}i:92;a:3:{i:0;s:5:"cdata";i:1;a:1:{i:0;s:273:"Since the .fonts is a hidden directory, it can be difficult to access from 
Dolphin. There are several ways to access a hidden directory from Dolphin but
the easiest is to press alt . (that's the Alt key and a dot) to reveal all
hidden folders, and then navigate to .fonts.";}i:2;i:4080;}i:93;a:3:{i:0;s:7:"p_close";i:1;a:0:{}i:2;i:4353;}i:94;a:3:{i:0;s:6:"p_open";i:1;a:0:{}i:2;i:4353;}i:95;a:3:{i:0;s:5:"cdata";i:1;a:1:{i:0;s:97:"In the shell, you can extract just the ttf files and move them to the
appropriate font directory:";}i:2;i:4355;}i:96;a:3:{i:0;s:7:"p_close";i:1;a:0:{}i:2;i:4453;}i:97;a:3:{i:0;s:12:"preformatted";i:1;a:1:{i:0;s:70:"$ tar tvf ttf-foo-font-1.0.tgz | egrep .tf$ | rev | cut -f -d' ' | rev";}i:2;i:4453;}i:98;a:3:{i:0;s:12:"preformatted";i:1;a:1:{i:0;s:251:"  ttf-foo-font-1.0
  ttf-foo-font-1.0/README
  ttf-foo-font-1.0/LICENSE
  ttf-foo-font-1.0/otf
  ttf-foo-font-1.0/otf/foo.otf
  ttf-foo-font-1.0/otf/foo bold.otf
  ttf-foo-font-1.0/ttf
  ttf-foo-font-1.0/ttf/foo bold.ttf
  ttf-foo-font-1.0/ttf/foo.ttf";}i:2;i:4527;}i:99;a:3:{i:0;s:12:"preformatted";i:1;a:1:{i:0;s:112:"$ tar xf ttf*foo*tgz foo.ttf > ~/.fonts/f/foo.ttf
  $ tar xf ttf*foo*tgz foo\ bold.ttf > ~/.fonts/f/foo_bold.ttf";}i:2;i:4798;}i:100;a:3:{i:0;s:6:"p_open";i:1;a:0:{}i:2;i:4798;}i:101;a:3:{i:0;s:5:"cdata";i:1;a:1:{i:0;s:274:"The advantage to this is that .fonts is located in your home directory, which
is, presumably, the directory you most often backup, and it is certainly the
directory you will take with you if you get a new computer. In both cases, your
font collection is sure to go with you.";}i:2;i:4917;}i:102;a:3:{i:0;s:7:"p_close";i:1;a:0:{}i:2;i:5191;}i:103;a:3:{i:0;s:6:"p_open";i:1;a:0:{}i:2;i:5191;}i:104;a:3:{i:0;s:5:"cdata";i:1;a:1:{i:0;s:270:"You can take your fonts with you if you install them to the system, too, but in
that case you do have to remember to take them, since they don't just get
pulled along with the rest of your personal data. It's not impossible, it just
has the potential of being forgotten.";}i:2;i:5193;}i:105;a:3:{i:0;s:7:"p_close";i:1;a:0:{}i:2;i:5463;}i:106;a:3:{i:0;s:6:"p_open";i:1;a:0:{}i:2;i:5463;}i:107;a:3:{i:0;s:5:"cdata";i:1;a:1:{i:0;s:39:"Manually Installing Fonts for All Users";}i:2;i:5465;}i:108;a:3:{i:0;s:7:"p_close";i:1;a:0:{}i:2;i:5504;}i:109;a:3:{i:0;s:6:"p_open";i:1;a:0:{}i:2;i:5504;}i:110;a:3:{i:0;s:5:"cdata";i:1;a:1:{i:0;s:240:"To install fonts on a system-wide basis, the font files should be copied to /
usr/share/fonts/foo where foo is the type of font )usually TTF or OTF. Since it
affects all users on the system, it must be done as root or with reoot
privileges:";}i:2;i:5506;}i:111;a:3:{i:0;s:7:"p_close";i:1;a:0:{}i:2;i:5746;}i:112;a:3:{i:0;s:6:"p_open";i:1;a:0:{}i:2;i:5746;}i:113;a:3:{i:0;s:5:"cdata";i:1;a:1:{i:0;s:74:"$ su -c 'cp foo.ttf /usr/share/fonts/TTF/' 
$ cd /usr/share/fonts/TTF
$ su";}i:2;i:5748;}i:114;a:3:{i:0;s:7:"p_close";i:1;a:0:{}i:2;i:5822;}i:115;a:3:{i:0;s:6:"header";i:1;a:3:{i:0;s:19:"enter root password";i:1;i:1;i:2;i:5822;}i:2;i:5822;}i:116;a:3:{i:0;s:12:"section_open";i:1;a:1:{i:0;i:1;}i:2;i:5822;}i:117;a:3:{i:0;s:6:"plugin";i:1;a:4:{i:0;s:19:"markdowku_headeratx";i:1;b:1;i:2;i:5;i:3;s:22:"
# enter root password";}i:2;i:5822;}i:118;a:3:{i:0;s:13:"section_close";i:1;a:0:{}i:2;i:5844;}i:119;a:3:{i:0;s:6:"header";i:1;a:3:{i:0;s:13:"mkfontscale .";i:1;i:1;i:2;i:5844;}i:2;i:5844;}i:120;a:3:{i:0;s:12:"section_open";i:1;a:1:{i:0;i:1;}i:2;i:5844;}i:121;a:3:{i:0;s:6:"plugin";i:1;a:4:{i:0;s:19:"markdowku_headeratx";i:1;b:1;i:2;i:5;i:3;s:16:"
# mkfontscale .";}i:2;i:5844;}i:122;a:3:{i:0;s:13:"section_close";i:1;a:0:{}i:2;i:5860;}i:123;a:3:{i:0;s:6:"header";i:1;a:3:{i:0;s:11:"mkfontdir .";i:1;i:1;i:2;i:5860;}i:2;i:5860;}i:124;a:3:{i:0;s:12:"section_open";i:1;a:1:{i:0;i:1;}i:2;i:5860;}i:125;a:3:{i:0;s:6:"plugin";i:1;a:4:{i:0;s:19:"markdowku_headeratx";i:1;b:1;i:2;i:5;i:3;s:14:"
# mkfontdir .";}i:2;i:5860;}i:126;a:3:{i:0;s:13:"section_close";i:1;a:0:{}i:2;i:5874;}i:127;a:3:{i:0;s:6:"header";i:1;a:3:{i:0;s:20:"/usr/bin/fc-cache -f";i:1;i:1;i:2;i:5874;}i:2;i:5874;}i:128;a:3:{i:0;s:12:"section_open";i:1;a:1:{i:0;i:1;}i:2;i:5874;}i:129;a:3:{i:0;s:6:"plugin";i:1;a:4:{i:0;s:19:"markdowku_headeratx";i:1;b:1;i:2;i:5;i:3;s:23:"
# /usr/bin/fc-cache -f";}i:2;i:5874;}i:130;a:3:{i:0;s:6:"p_open";i:1;a:0:{}i:2;i:5874;}i:131;a:3:{i:0;s:5:"cdata";i:1;a:1:{i:0;s:24:"Installing Fonts via KDE";}i:2;i:5899;}i:132;a:3:{i:0;s:7:"p_close";i:1;a:0:{}i:2;i:5923;}i:133;a:3:{i:0;s:6:"p_open";i:1;a:0:{}i:2;i:5923;}i:134;a:3:{i:0;s:5:"cdata";i:1;a:1:{i:0;s:432:"If you are running KDE, you may use KDE's Font Viewer (which automatically
launches when you click a font file in Dolphin). Font Viewer shows a preview of
all the glyphs in the font set and even allows you to enter your own preview
text. To install the font, click the Install button in the lower right corner
of the window. Enter the root password to install the font system-wide, or
choose to install it for only the current user.";}i:2;i:5925;}i:135;a:3:{i:0;s:7:"p_close";i:1;a:0:{}i:2;i:6357;}i:136;a:3:{i:0;s:6:"p_open";i:1;a:0:{}i:2;i:6357;}i:137;a:3:{i:0;s:5:"cdata";i:1;a:1:{i:0;s:13:"Font Previews";}i:2;i:6359;}i:138;a:3:{i:0;s:7:"p_close";i:1;a:0:{}i:2;i:6372;}i:139;a:3:{i:0;s:6:"p_open";i:1;a:0:{}i:2;i:6372;}i:140;a:3:{i:0;s:5:"cdata";i:1;a:1:{i:0;s:127:"Font files by default have a unified, generic icon. To instead set the cion to
a two-letter sample of what the font looks like:";}i:2;i:6374;}i:141;a:3:{i:0;s:7:"p_close";i:1;a:0:{}i:2;i:6501;}i:142;a:3:{i:0;s:10:"listo_open";i:1;a:0:{}i:2;i:6501;}i:143;a:3:{i:0;s:13:"listitem_open";i:1;a:1:{i:0;i:1;}i:2;i:6501;}i:144;a:3:{i:0;s:16:"listcontent_open";i:1;a:0:{}i:2;i:6501;}i:145;a:3:{i:0;s:6:"plugin";i:1;a:4:{i:0;s:16:"markdowku_olists";i:1;b:1;i:2;i:1;i:3;s:6:"

 1. ";}i:2;i:6501;}i:146;a:3:{i:0;s:5:"cdata";i:1;a:1:{i:0;s:72:"Click the Configure (a gear or a spanner, depending on your icon theme),";}i:2;i:6507;}i:147;a:3:{i:0;s:6:"plugin";i:1;a:4:{i:0;s:16:"markdowku_olists";i:1;b:1;i:2;i:3;i:3;s:72:"Click the Configure (a gear or a spanner, depending on your icon theme),";}i:2;i:6507;}i:148;a:3:{i:0;s:5:"cdata";i:1;a:1:{i:0;s:35:"
    and selecte Configure Dolphin.";}i:2;i:6579;}i:149;a:3:{i:0;s:6:"plugin";i:1;a:4:{i:0;s:16:"markdowku_olists";i:1;b:1;i:2;i:3;i:3;s:34:"    and selecte Configure Dolphin.";}i:2;i:6580;}i:150;a:3:{i:0;s:5:"cdata";i:1;a:1:{i:0;s:1:"
";}i:2;i:6614;}i:151;a:3:{i:0;s:17:"listcontent_close";i:1;a:0:{}i:2;i:6615;}i:152;a:3:{i:0;s:14:"listitem_close";i:1;a:0:{}i:2;i:6615;}i:153;a:3:{i:0;s:13:"listitem_open";i:1;a:1:{i:0;i:0;}i:2;i:6615;}i:154;a:3:{i:0;s:16:"listcontent_open";i:1;a:0:{}i:2;i:6615;}i:155;a:3:{i:0;s:6:"plugin";i:1;a:4:{i:0;s:16:"markdowku_olists";i:1;b:1;i:2;i:2;i:3;s:5:"
 2. ";}i:2;i:6615;}i:156;a:3:{i:0;s:5:"cdata";i:1;a:1:{i:0;s:41:"Click the General tab in the left column.";}i:2;i:6620;}i:157;a:3:{i:0;s:6:"plugin";i:1;a:4:{i:0;s:16:"markdowku_olists";i:1;b:1;i:2;i:3;i:3;s:41:"Click the General tab in the left column.";}i:2;i:6620;}i:158;a:3:{i:0;s:5:"cdata";i:1;a:1:{i:0;s:1:"
";}i:2;i:6661;}i:159;a:3:{i:0;s:17:"listcontent_close";i:1;a:0:{}i:2;i:6662;}i:160;a:3:{i:0;s:14:"listitem_close";i:1;a:0:{}i:2;i:6662;}i:161;a:3:{i:0;s:13:"listitem_open";i:1;a:1:{i:0;i:0;}i:2;i:6662;}i:162;a:3:{i:0;s:16:"listcontent_open";i:1;a:0:{}i:2;i:6662;}i:163;a:3:{i:0;s:6:"plugin";i:1;a:4:{i:0;s:16:"markdowku_olists";i:1;b:1;i:2;i:2;i:3;s:5:"
 3. ";}i:2;i:6662;}i:164;a:3:{i:0;s:5:"cdata";i:1;a:1:{i:0;s:22:"Click the Preview tab.";}i:2;i:6667;}i:165;a:3:{i:0;s:6:"plugin";i:1;a:4:{i:0;s:16:"markdowku_olists";i:1;b:1;i:2;i:3;i:3;s:22:"Click the Preview tab.";}i:2;i:6667;}i:166;a:3:{i:0;s:5:"cdata";i:1;a:1:{i:0;s:1:"
";}i:2;i:6689;}i:167;a:3:{i:0;s:17:"listcontent_close";i:1;a:0:{}i:2;i:6690;}i:168;a:3:{i:0;s:14:"listitem_close";i:1;a:0:{}i:2;i:6690;}i:169;a:3:{i:0;s:13:"listitem_open";i:1;a:1:{i:0;i:0;}i:2;i:6690;}i:170;a:3:{i:0;s:16:"listcontent_open";i:1;a:0:{}i:2;i:6690;}i:171;a:3:{i:0;s:6:"plugin";i:1;a:4:{i:0;s:16:"markdowku_olists";i:1;b:1;i:2;i:2;i:3;s:5:"
 4. ";}i:2;i:6690;}i:172;a:3:{i:0;s:5:"cdata";i:1;a:1:{i:0;s:66:"Activate previews for font files in the Preview list and click OK.";}i:2;i:6695;}i:173;a:3:{i:0;s:6:"plugin";i:1;a:4:{i:0;s:16:"markdowku_olists";i:1;b:1;i:2;i:3;i:3;s:66:"Activate previews for font files in the Preview list and click OK.";}i:2;i:6695;}i:174;a:3:{i:0;s:17:"listcontent_close";i:1;a:0:{}i:2;i:6761;}i:175;a:3:{i:0;s:14:"listitem_close";i:1;a:0:{}i:2;i:6761;}i:176;a:3:{i:0;s:11:"listo_close";i:1;a:0:{}i:2;i:6761;}i:177;a:3:{i:0;s:6:"plugin";i:1;a:4:{i:0;s:16:"markdowku_olists";i:1;b:1;i:2;i:4;i:3;s:1:"
";}i:2;i:6761;}i:178;a:3:{i:0;s:6:"p_open";i:1;a:0:{}i:2;i:6761;}i:179;a:3:{i:0;s:5:"cdata";i:1;a:1:{i:0;s:15:"Font Management";}i:2;i:6763;}i:180;a:3:{i:0;s:7:"p_close";i:1;a:0:{}i:2;i:6778;}i:181;a:3:{i:0;s:6:"p_open";i:1;a:0:{}i:2;i:6778;}i:182;a:3:{i:0;s:5:"cdata";i:1;a:1:{i:0;s:291:"Most applications scan the font directories every time they launch, so keeping
hundreds of fonts in your font directory may make applications slow to load. It
may, therefore, behoove you to familiarize yourself with the fonts you own, and
only install fonts you actually want on your system.";}i:2;i:6780;}i:183;a:3:{i:0;s:7:"p_close";i:1;a:0:{}i:2;i:7071;}i:184;a:3:{i:0;s:6:"p_open";i:1;a:0:{}i:2;i:7071;}i:185;a:3:{i:0;s:5:"cdata";i:1;a:1:{i:0;s:44:"Font Matrix, a font manager for your Desktop";}i:2;i:7073;}i:186;a:3:{i:0;s:7:"p_close";i:1;a:0:{}i:2;i:7117;}i:187;a:3:{i:0;s:6:"p_open";i:1;a:0:{}i:2;i:7117;}i:188;a:3:{i:0;s:5:"cdata";i:1;a:1:{i:0;s:460:"Of course with 2455+ fonts available on your system, familiarizing yourself
with your fonts is a tall order. Font Matrix is a font browser and font manager
available from slackbuilds.org, that lets you preview your fonts, tag and
classify fonts, search through them by various attributes including by
submitting a screenshot sample of a font you want to match, and activate or
de-activate fonts so that applications will either load or ignore them upon
launch.";}i:2;i:7119;}i:189;a:3:{i:0;s:7:"p_close";i:1;a:0:{}i:2;i:7579;}i:190;a:3:{i:0;s:6:"p_open";i:1;a:0:{}i:2;i:7579;}i:191;a:3:{i:0;s:5:"cdata";i:1;a:1:{i:0;s:30:"Tagging Fonts with Font Matrix";}i:2;i:7581;}i:192;a:3:{i:0;s:7:"p_close";i:1;a:0:{}i:2;i:7611;}i:193;a:3:{i:0;s:10:"listu_open";i:1;a:0:{}i:2;i:7611;}i:194;a:3:{i:0;s:13:"listitem_open";i:1;a:1:{i:0;i:1;}i:2;i:7611;}i:195;a:3:{i:0;s:16:"listcontent_open";i:1;a:0:{}i:2;i:7611;}i:196;a:3:{i:0;s:6:"plugin";i:1;a:4:{i:0;s:16:"markdowku_ulists";i:1;b:1;i:2;i:1;i:3;s:6:"

  * ";}i:2;i:7611;}i:197;a:3:{i:0;s:5:"cdata";i:1;a:1:{i:0;s:72:"To tag fonts with custom identifiers, first select the font or fonts you";}i:2;i:7617;}i:198;a:3:{i:0;s:6:"plugin";i:1;a:4:{i:0;s:16:"markdowku_ulists";i:1;b:1;i:2;i:3;i:3;s:72:"To tag fonts with custom identifiers, first select the font or fonts you";}i:2;i:7617;}i:199;a:3:{i:0;s:5:"cdata";i:1;a:1:{i:0;s:42:"
    want to tag in the Browse Font panel.";}i:2;i:7689;}i:200;a:3:{i:0;s:6:"plugin";i:1;a:4:{i:0;s:16:"markdowku_ulists";i:1;b:1;i:2;i:3;i:3;s:41:"    want to tag in the Browse Font panel.";}i:2;i:7690;}i:201;a:3:{i:0;s:5:"cdata";i:1;a:1:{i:0;s:1:"
";}i:2;i:7731;}i:202;a:3:{i:0;s:17:"listcontent_close";i:1;a:0:{}i:2;i:7732;}i:203;a:3:{i:0;s:14:"listitem_close";i:1;a:0:{}i:2;i:7732;}i:204;a:3:{i:0;s:13:"listitem_open";i:1;a:1:{i:0;i:1;}i:2;i:7732;}i:205;a:3:{i:0;s:16:"listcontent_open";i:1;a:0:{}i:2;i:7732;}i:206;a:3:{i:0;s:6:"plugin";i:1;a:4:{i:0;s:16:"markdowku_ulists";i:1;b:1;i:2;i:2;i:3;s:5:"
  * ";}i:2;i:7732;}i:207;a:3:{i:0;s:5:"cdata";i:1;a:1:{i:0;s:72:"With the font or fonts selected, click the Tags tab on the lower left of";}i:2;i:7737;}i:208;a:3:{i:0;s:6:"plugin";i:1;a:4:{i:0;s:16:"markdowku_ulists";i:1;b:1;i:2;i:3;i:3;s:72:"With the font or fonts selected, click the Tags tab on the lower left of";}i:2;i:7737;}i:209;a:3:{i:0;s:5:"cdata";i:1;a:1:{i:0;s:27:"
    the Browse Font panel.";}i:2;i:7809;}i:210;a:3:{i:0;s:6:"plugin";i:1;a:4:{i:0;s:16:"markdowku_ulists";i:1;b:1;i:2;i:3;i:3;s:26:"    the Browse Font panel.";}i:2;i:7810;}i:211;a:3:{i:0;s:5:"cdata";i:1;a:1:{i:0;s:1:"
";}i:2;i:7836;}i:212;a:3:{i:0;s:17:"listcontent_close";i:1;a:0:{}i:2;i:7837;}i:213;a:3:{i:0;s:14:"listitem_close";i:1;a:0:{}i:2;i:7837;}i:214;a:3:{i:0;s:13:"listitem_open";i:1;a:1:{i:0;i:1;}i:2;i:7837;}i:215;a:3:{i:0;s:16:"listcontent_open";i:1;a:0:{}i:2;i:7837;}i:216;a:3:{i:0;s:6:"plugin";i:1;a:4:{i:0;s:16:"markdowku_ulists";i:1;b:1;i:2;i:2;i:3;s:5:"
  * ";}i:2;i:7837;}i:217;a:3:{i:0;s:5:"cdata";i:1;a:1:{i:0;s:64:"Type a new tag into the text field and click the Add Tag button.";}i:2;i:7842;}i:218;a:3:{i:0;s:6:"plugin";i:1;a:4:{i:0;s:16:"markdowku_ulists";i:1;b:1;i:2;i:3;i:3;s:64:"Type a new tag into the text field and click the Add Tag button.";}i:2;i:7842;}i:219;a:3:{i:0;s:17:"listcontent_close";i:1;a:0:{}i:2;i:7906;}i:220;a:3:{i:0;s:14:"listitem_close";i:1;a:0:{}i:2;i:7906;}i:221;a:3:{i:0;s:11:"listu_close";i:1;a:0:{}i:2;i:7906;}i:222;a:3:{i:0;s:6:"plugin";i:1;a:4:{i:0;s:16:"markdowku_ulists";i:1;b:1;i:2;i:4;i:3;s:1:"
";}i:2;i:7906;}i:223;a:3:{i:0;s:6:"p_open";i:1;a:0:{}i:2;i:7906;}i:224;a:3:{i:0;s:5:"cdata";i:1;a:1:{i:0;s:169:"You can now filter all fonts on your computer with these tags by selecting a
tag in the Tags menu (by default set to All activated) at the top of the Browse
Fonts panel.";}i:2;i:7908;}i:225;a:3:{i:0;s:7:"p_close";i:1;a:0:{}i:2;i:8077;}i:226;a:3:{i:0;s:6:"p_open";i:1;a:0:{}i:2;i:8077;}i:227;a:3:{i:0;s:5:"cdata";i:1;a:1:{i:0;s:33:"Activating and Deactivating Fonts";}i:2;i:8079;}i:228;a:3:{i:0;s:7:"p_close";i:1;a:0:{}i:2;i:8112;}i:229;a:3:{i:0;s:6:"p_open";i:1;a:0:{}i:2;i:8112;}i:230;a:3:{i:0;s:5:"cdata";i:1;a:1:{i:0;s:87:"Deactivate a font by toggling the tick mark in the check block next to the
font's name.";}i:2;i:8114;}i:231;a:3:{i:0;s:7:"p_close";i:1;a:0:{}i:2;i:8201;}i:232;a:3:{i:0;s:6:"p_open";i:1;a:0:{}i:2;i:8201;}i:233;a:3:{i:0;s:5:"cdata";i:1;a:1:{i:0;s:227:"Deactivating a font or a group of fonts prevents the applications you launch
from scanning those fonts as a part of its startup process. This can increase
the launch time of applications like GIMP, Scribus, Inkscape, and so on.";}i:2;i:8203;}i:234;a:3:{i:0;s:7:"p_close";i:1;a:0:{}i:2;i:8430;}i:235;a:3:{i:0;s:6:"p_open";i:1;a:0:{}i:2;i:8430;}i:236;a:3:{i:0;s:5:"cdata";i:1;a:1:{i:0;s:23:"Integrating Font Matrix";}i:2;i:8432;}i:237;a:3:{i:0;s:7:"p_close";i:1;a:0:{}i:2;i:8455;}i:238;a:3:{i:0;s:6:"p_open";i:1;a:0:{}i:2;i:8455;}i:239;a:3:{i:0;s:5:"cdata";i:1;a:1:{i:0;s:179:"Font Matrix only dictates whether a font is active or not while it runs. If you
are a graphic artist, you will probably want Font Matrix to idle in the
background as part of your ";}i:2;i:8457;}i:240;a:3:{i:0;s:7:"acronym";i:1;a:1:{i:0;s:2:"OS";}i:2;i:8636;}i:241;a:3:{i:0;s:5:"cdata";i:1;a:1:{i:0;s:1:".";}i:2;i:8638;}i:242;a:3:{i:0;s:7:"p_close";i:1;a:0:{}i:2;i:8639;}i:243;a:3:{i:0;s:10:"listo_open";i:1;a:0:{}i:2;i:8639;}i:244;a:3:{i:0;s:13:"listitem_open";i:1;a:1:{i:0;i:1;}i:2;i:8639;}i:245;a:3:{i:0;s:16:"listcontent_open";i:1;a:0:{}i:2;i:8639;}i:246;a:3:{i:0;s:6:"plugin";i:1;a:4:{i:0;s:16:"markdowku_olists";i:1;b:1;i:2;i:1;i:3;s:6:"

 1. ";}i:2;i:8639;}i:247;a:3:{i:0;s:5:"cdata";i:1;a:1:{i:0;s:37:"Click on the Edit menu > Preferences.";}i:2;i:8645;}i:248;a:3:{i:0;s:6:"plugin";i:1;a:4:{i:0;s:16:"markdowku_olists";i:1;b:1;i:2;i:3;i:3;s:37:"Click on the Edit menu > Preferences.";}i:2;i:8645;}i:249;a:3:{i:0;s:5:"cdata";i:1;a:1:{i:0;s:1:"
";}i:2;i:8682;}i:250;a:3:{i:0;s:17:"listcontent_close";i:1;a:0:{}i:2;i:8683;}i:251;a:3:{i:0;s:14:"listitem_close";i:1;a:0:{}i:2;i:8683;}i:252;a:3:{i:0;s:13:"listitem_open";i:1;a:1:{i:0;i:0;}i:2;i:8683;}i:253;a:3:{i:0;s:16:"listcontent_open";i:1;a:0:{}i:2;i:8683;}i:254;a:3:{i:0;s:6:"plugin";i:1;a:4:{i:0;s:16:"markdowku_olists";i:1;b:1;i:2;i:2;i:3;s:5:"
 2. ";}i:2;i:8683;}i:255;a:3:{i:0;s:5:"cdata";i:1;a:1:{i:0;s:66:"Select System Tray from the left column of the Preferences window.";}i:2;i:8688;}i:256;a:3:{i:0;s:6:"plugin";i:1;a:4:{i:0;s:16:"markdowku_olists";i:1;b:1;i:2;i:3;i:3;s:66:"Select System Tray from the left column of the Preferences window.";}i:2;i:8688;}i:257;a:3:{i:0;s:5:"cdata";i:1;a:1:{i:0;s:1:"
";}i:2;i:8754;}i:258;a:3:{i:0;s:17:"listcontent_close";i:1;a:0:{}i:2;i:8755;}i:259;a:3:{i:0;s:14:"listitem_close";i:1;a:0:{}i:2;i:8755;}i:260;a:3:{i:0;s:13:"listitem_open";i:1;a:1:{i:0;i:0;}i:2;i:8755;}i:261;a:3:{i:0;s:16:"listcontent_open";i:1;a:0:{}i:2;i:8755;}i:262;a:3:{i:0;s:6:"plugin";i:1;a:4:{i:0;s:16:"markdowku_olists";i:1;b:1;i:2;i:2;i:3;s:5:"
 3. ";}i:2;i:8755;}i:263;a:3:{i:0;s:5:"cdata";i:1;a:1:{i:0;s:73:"Place a tick mark in the Show Font Matrix in the System Tray check box to";}i:2;i:8760;}i:264;a:3:{i:0;s:6:"plugin";i:1;a:4:{i:0;s:16:"markdowku_olists";i:1;b:1;i:2;i:3;i:3;s:73:"Place a tick mark in the Show Font Matrix in the System Tray check box to";}i:2;i:8760;}i:265;a:3:{i:0;s:5:"cdata";i:1;a:1:{i:0;s:75:"
    give Font Matrix the ability to be put into the background as it runs.";}i:2;i:8833;}i:266;a:3:{i:0;s:6:"plugin";i:1;a:4:{i:0;s:16:"markdowku_olists";i:1;b:1;i:2;i:3;i:3;s:74:"    give Font Matrix the ability to be put into the background as it runs.";}i:2;i:8834;}i:267;a:3:{i:0;s:5:"cdata";i:1;a:1:{i:0;s:1:"
";}i:2;i:8908;}i:268;a:3:{i:0;s:17:"listcontent_close";i:1;a:0:{}i:2;i:8909;}i:269;a:3:{i:0;s:14:"listitem_close";i:1;a:0:{}i:2;i:8909;}i:270;a:3:{i:0;s:13:"listitem_open";i:1;a:1:{i:0;i:0;}i:2;i:8909;}i:271;a:3:{i:0;s:16:"listcontent_open";i:1;a:0:{}i:2;i:8909;}i:272;a:3:{i:0;s:6:"plugin";i:1;a:4:{i:0;s:16:"markdowku_olists";i:1;b:1;i:2;i:2;i:3;s:5:"
 4. ";}i:2;i:8909;}i:273;a:3:{i:0;s:5:"cdata";i:1;a:1:{i:0;s:75:"Place a tick mark in the Close to System Tray check box to prevent yourself";}i:2;i:8914;}i:274;a:3:{i:0;s:6:"plugin";i:1;a:4:{i:0;s:16:"markdowku_olists";i:1;b:1;i:2;i:3;i:3;s:75:"Place a tick mark in the Close to System Tray check box to prevent yourself";}i:2;i:8914;}i:275;a:3:{i:0;s:5:"cdata";i:1;a:1:{i:0;s:79:"
    from accidentally quitting Font Matrix. Optionally, have Font Matrix start";}i:2;i:8989;}i:276;a:3:{i:0;s:6:"plugin";i:1;a:4:{i:0;s:16:"markdowku_olists";i:1;b:1;i:2;i:3;i:3;s:78:"    from accidentally quitting Font Matrix. Optionally, have Font Matrix start";}i:2;i:8990;}i:277;a:3:{i:0;s:5:"cdata";i:1;a:1:{i:0;s:78:"
    as a System Tray item; you'll still be able to click the System Tray icon";}i:2;i:9068;}i:278;a:3:{i:0;s:6:"plugin";i:1;a:4:{i:0;s:16:"markdowku_olists";i:1;b:1;i:2;i:3;i:3;s:77:"    as a System Tray item; you'll still be able to click the System Tray icon";}i:2;i:9069;}i:279;a:3:{i:0;s:5:"cdata";i:1;a:1:{i:0;s:26:"
    to bring up the full ";}i:2;i:9146;}i:280;a:3:{i:0;s:6:"plugin";i:1;a:4:{i:0;s:16:"markdowku_olists";i:1;b:1;i:2;i:3;i:3;s:25:"    to bring up the full ";}i:2;i:9147;}i:281;a:3:{i:0;s:7:"acronym";i:1;a:1:{i:0;s:3:"GUI";}i:2;i:9172;}i:282;a:3:{i:0;s:5:"cdata";i:1;a:1:{i:0;s:1:".";}i:2;i:9175;}i:283;a:3:{i:0;s:6:"plugin";i:1;a:4:{i:0;s:16:"markdowku_olists";i:1;b:1;i:2;i:3;i:3;s:1:".";}i:2;i:9175;}i:284;a:3:{i:0;s:5:"cdata";i:1;a:1:{i:0;s:1:"
";}i:2;i:9176;}i:285;a:3:{i:0;s:17:"listcontent_close";i:1;a:0:{}i:2;i:9177;}i:286;a:3:{i:0;s:14:"listitem_close";i:1;a:0:{}i:2;i:9177;}i:287;a:3:{i:0;s:13:"listitem_open";i:1;a:1:{i:0;i:0;}i:2;i:9177;}i:288;a:3:{i:0;s:16:"listcontent_open";i:1;a:0:{}i:2;i:9177;}i:289;a:3:{i:0;s:6:"plugin";i:1;a:4:{i:0;s:16:"markdowku_olists";i:1;b:1;i:2;i:2;i:3;s:5:"
 5. ";}i:2;i:9177;}i:290;a:3:{i:0;s:5:"cdata";i:1;a:1:{i:0;s:71:"In KDE, once you've launched Font Matrix as a System Tray icon, it will";}i:2;i:9182;}i:291;a:3:{i:0;s:6:"plugin";i:1;a:4:{i:0;s:16:"markdowku_olists";i:1;b:1;i:2;i:3;i:3;s:71:"In KDE, once you've launched Font Matrix as a System Tray icon, it will";}i:2;i:9182;}i:292;a:3:{i:0;s:5:"cdata";i:1;a:1:{i:0;s:74:"
    launch the next time KDE is restarted. If you have customized Session";}i:2;i:9253;}i:293;a:3:{i:0;s:6:"plugin";i:1;a:4:{i:0;s:16:"markdowku_olists";i:1;b:1;i:2;i:3;i:3;s:73:"    launch the next time KDE is restarted. If you have customized Session";}i:2;i:9254;}i:294;a:3:{i:0;s:5:"cdata";i:1;a:1:{i:0;s:79:"
    settings, you can force Font Matrix to start upon KDE startup by placing a";}i:2;i:9327;}i:295;a:3:{i:0;s:6:"plugin";i:1;a:4:{i:0;s:16:"markdowku_olists";i:1;b:1;i:2;i:3;i:3;s:78:"    settings, you can force Font Matrix to start upon KDE startup by placing a";}i:2;i:9328;}i:296;a:3:{i:0;s:5:"cdata";i:1;a:1:{i:0;s:71:"
    shell script in ~/.kde/Autostart or by opening System Settings and";}i:2;i:9406;}i:297;a:3:{i:0;s:6:"plugin";i:1;a:4:{i:0;s:16:"markdowku_olists";i:1;b:1;i:2;i:3;i:3;s:70:"    shell script in ~/.kde/Autostart or by opening System Settings and";}i:2;i:9407;}i:298;a:3:{i:0;s:5:"cdata";i:1;a:1:{i:0;s:76:"
    selecting Startup and Shutdown; add Font Matrix to the Autostart group.";}i:2;i:9477;}i:299;a:3:{i:0;s:6:"plugin";i:1;a:4:{i:0;s:16:"markdowku_olists";i:1;b:1;i:2;i:3;i:3;s:75:"    selecting Startup and Shutdown; add Font Matrix to the Autostart group.";}i:2;i:9478;}i:300;a:3:{i:0;s:17:"listcontent_close";i:1;a:0:{}i:2;i:9554;}i:301;a:3:{i:0;s:14:"listitem_close";i:1;a:0:{}i:2;i:9554;}i:302;a:3:{i:0;s:11:"listo_close";i:1;a:0:{}i:2;i:9554;}i:303;a:3:{i:0;s:13:"section_close";i:1;a:0:{}i:2;i:9554;}i:304;a:3:{i:0;s:12:"document_end";i:1;a:0:{}i:2;i:9554;}}