a:605:{i:0;a:3:{i:0;s:14:"document_start";i:1;a:0:{}i:2;i:0;}i:1;a:3:{i:0;s:6:"p_open";i:1;a:0:{}i:2;i:0;}i:2;a:3:{i:0;s:6:"plugin";i:1;a:4:{i:0;s:6:"button";i:1;a:2:{i:0;i:1;i:1;a:10:{i:0;s:106:"[[{arrowp.png|border:0;background:none;width:0;display:inline-block;position:absolute;top:0;left:0;}intro|";s:5:"image";s:10:"arrowp.png";i:1;s:10:"arrowp.png";s:3:"css";s:85:"border:0;background:none;width:0;display:inline-block;position:absolute;top:0;left:0;";i:2;s:85:"border:0;background:none;width:0;display:inline-block;position:absolute;top:0;left:0;";s:4:"link";s:5:"intro";i:3;s:5:"intro";s:5:"title";s:0:"";i:4;s:0:"";s:6:"target";s:0:"";}}i:2;i:1;i:3;s:106:"[[{arrowp.png|border:0;background:none;width:0;display:inline-block;position:absolute;top:0;left:0;}intro|";}i:2;i:1;}i:3;a:3:{i:0;s:6:"plugin";i:1;a:4:{i:0;s:6:"button";i:1;a:2:{i:0;i:4;i:1;s:0:"";}i:2;i:4;i:3;s:2:"]]";}i:2;i:107;}i:4;a:3:{i:0;s:7:"p_close";i:1;a:0:{}i:2;i:109;}i:5;a:3:{i:0;s:6:"p_open";i:1;a:0:{}i:2;i:109;}i:6;a:3:{i:0;s:6:"plugin";i:1;a:4:{i:0;s:6:"button";i:1;a:2:{i:0;i:1;i:1;a:10:{i:0;s:119:"[[{arrown.png|border:0;background:none;width:0;display:inline-block;position:absolute;top:0;margin-left:2.5em;}install|";s:5:"image";s:10:"arrown.png";i:1;s:10:"arrown.png";s:3:"css";s:96:"border:0;background:none;width:0;display:inline-block;position:absolute;top:0;margin-left:2.5em;";i:2;s:96:"border:0;background:none;width:0;display:inline-block;position:absolute;top:0;margin-left:2.5em;";s:4:"link";s:7:"install";i:3;s:7:"install";s:5:"title";s:0:"";i:4;s:0:"";s:6:"target";s:0:"";}}i:2;i:1;i:3;s:119:"[[{arrown.png|border:0;background:none;width:0;display:inline-block;position:absolute;top:0;margin-left:2.5em;}install|";}i:2;i:111;}i:7;a:3:{i:0;s:6:"plugin";i:1;a:4:{i:0;s:6:"button";i:1;a:2:{i:0;i:4;i:1;s:0:"";}i:2;i:4;i:3;s:2:"]]";}i:2;i:230;}i:8;a:3:{i:0;s:7:"p_close";i:1;a:0:{}i:2;i:232;}i:9;a:3:{i:0;s:6:"header";i:1;a:3:{i:0;s:16:"Pre-Installation";i:1;i:1;i:2;i:234;}i:2;i:234;}i:10;a:3:{i:0;s:12:"section_open";i:1;a:1:{i:0;i:1;}i:2;i:234;}i:11;a:3:{i:0;s:6:"p_open";i:1;a:0:{}i:2;i:234;}i:12;a:3:{i:0;s:5:"cdata";i:1;a:1:{i:0;s:459:"The first step in creating Slackermedia is to install Slackware and configure it for your machine. It is strongly advised that a user be familiar with GNU, Linux, BSD, or UNIX before attempting to build a Slackermedia system. However,
it is hardly unheard of (and in fact, arguably best) for someone to start their Linux journey with Slackware. This chapter will guide you through the install process and it will attempt to flag potential points of confusion.";}i:2;i:266;}i:13;a:3:{i:0;s:7:"p_close";i:1;a:0:{}i:2;i:725;}i:14;a:3:{i:0;s:6:"p_open";i:1;a:0:{}i:2;i:725;}i:15;a:3:{i:0;s:5:"cdata";i:1;a:1:{i:0;s:313:"There is no way for this book to anticipate every problem possible, but there are many resources online to help a new Linux or new Slackware user through the installation process, not the least of which is the official Slackware documentation at docs.slackware.com. Some support for installation is available via ";}i:2;i:727;}i:16;a:3:{i:0;s:12:"externallink";i:1;a:2:{i:0;s:25:"http://linuxquestions.org";i:1;N;}i:2;i:1040;}i:17;a:3:{i:0;s:5:"cdata";i:1;a:1:{i:0;s:193:", which is a forum run by volunteers, so be patient,
friendly, and do as much research as possible before asking questions so that the answers that you do get are not redundant to your efforts.";}i:2;i:1069;}i:18;a:3:{i:0;s:7:"p_close";i:1;a:0:{}i:2;i:1262;}i:19;a:3:{i:0;s:6:"p_open";i:1;a:0:{}i:2;i:1262;}i:20;a:3:{i:0;s:5:"cdata";i:1;a:1:{i:0;s:95:"If you are looking into using Slackermedia for a large user base and you require paid support, ";}i:2;i:1264;}i:21;a:3:{i:0;s:12:"externallink";i:1;a:2:{i:0;s:32:"http://slackermedia.info/support";i:1;s:18:"contact the author";}i:2;i:1359;}i:22;a:3:{i:0;s:5:"cdata";i:1;a:1:{i:0;s:20:" to discuss options.";}i:2;i:1414;}i:23;a:3:{i:0;s:7:"p_close";i:1;a:0:{}i:2;i:1434;}i:24;a:3:{i:0;s:13:"section_close";i:1;a:0:{}i:2;i:1437;}i:25;a:3:{i:0;s:6:"header";i:1;a:3:{i:0;s:27:"Off-the-Shelf Linux Systems";i:1;i:2;i:2;i:1437;}i:2;i:1437;}i:26;a:3:{i:0;s:12:"section_open";i:1;a:1:{i:0;i:2;}i:2;i:1437;}i:27;a:3:{i:0;s:6:"p_open";i:1;a:0:{}i:2;i:1437;}i:28;a:3:{i:0;s:5:"cdata";i:1;a:1:{i:0;s:184:"Computers are mostly sold with an operating system already installed and configured by the OEM vendor. If that is the experience that you seek, then you
should purchase computers from ";}i:2;i:1478;}i:29;a:3:{i:0;s:12:"externallink";i:1;a:2:{i:0;s:19:"http://zareason.com";i:1;N;}i:2;i:1662;}i:30;a:3:{i:0;s:5:"cdata";i:1;a:1:{i:0;s:4:" or ";}i:2;i:1685;}i:31;a:3:{i:0;s:12:"internallink";i:1;a:2:{i:0;s:19:"http;//system76.com";i:1;N;}i:2;i:1689;}i:32;a:3:{i:0;s:5:"cdata";i:1;a:1:{i:0;s:330:", or any vendor offering any kind of pre-installed Linux. With Zareason, you can even request a
Slackware install, but even if the vendor will not pre-install Slackware, at least when you purchase from a Linux-oriented vendor, you know that the
hardware is tested for compatibility, which makes the install process nearly trivial.";}i:2;i:1712;}i:33;a:3:{i:0;s:7:"p_close";i:1;a:0:{}i:2;i:2042;}i:34;a:3:{i:0;s:13:"section_close";i:1;a:0:{}i:2;i:2045;}i:35;a:3:{i:0;s:6:"header";i:1;a:3:{i:0;s:18:"Hardware Selection";i:1;i:2;i:2;i:2045;}i:2;i:2045;}i:36;a:3:{i:0;s:12:"section_open";i:1;a:1:{i:0;i:2;}i:2;i:2045;}i:37;a:3:{i:0;s:6:"p_open";i:1;a:0:{}i:2;i:2045;}i:38;a:3:{i:0;s:5:"cdata";i:1;a:1:{i:0;s:278:"If you do not have the money or inclination to purchase a pre-approved Linux computer, you can install Slackware yourself. You can even build your own workstation from parts, if you are looking for higher-than-usual performance, or you just happen to enjoy building your own PC.";}i:2;i:2077;}i:39;a:3:{i:0;s:7:"p_close";i:1;a:0:{}i:2;i:2355;}i:40;a:3:{i:0;s:6:"p_open";i:1;a:0:{}i:2;i:2355;}i:41;a:3:{i:0;s:5:"cdata";i:1;a:1:{i:0;s:195:"If you are a starving artist with strong technical tendencies, then you can even rescue a computer from a dumpster (either figuratively or literally), fix it up as needed, and then install Linux.";}i:2;i:2357;}i:42;a:3:{i:0;s:7:"p_close";i:1;a:0:{}i:2;i:2552;}i:43;a:3:{i:0;s:6:"p_open";i:1;a:0:{}i:2;i:2552;}i:44;a:3:{i:0;s:5:"cdata";i:1;a:1:{i:0;s:316:"If you have never installed an operating system, you will probably find it far easier than you might imagine, as long as you choose the right hardware. Most problems in a Linux install occur due to closed source drivers, so choosing hardware that is designed to make a user's life easy will save you time and effort.";}i:2;i:2554;}i:45;a:3:{i:0;s:7:"p_close";i:1;a:0:{}i:2;i:2870;}i:46;a:3:{i:0;s:6:"p_open";i:1;a:0:{}i:2;i:2870;}i:47;a:3:{i:0;s:5:"cdata";i:1;a:1:{i:0;s:550:"The Linux kernel has become famous for its hardware support, but it never hurts to research what you are about to purchase with real-world case-studies. There are a handful of sites on the internet dedicated to analyzing how different
hardware works with Linux, which works best as a boolean determination of compatibility; it can accurately be measured whether something does or does not work with Linux. Degrees, however, are harder to ascertain, since one person's
requirements for performance might be drastically different than another person's.";}i:2;i:2872;}i:48;a:3:{i:0;s:7:"p_close";i:1;a:0:{}i:2;i:3422;}i:49;a:3:{i:0;s:6:"p_open";i:1;a:0:{}i:2;i:3422;}i:50;a:3:{i:0;s:5:"cdata";i:1;a:1:{i:0;s:316:"The best way to make sure hardware works to the degree needed from a multimedia artist is to test the hardware. Burning a liveCD of a multimedia distribution and taking that disc to a computer store and rebooting the target machine into
Linux is a very good way to judge hardware Linux compatibility and performance.";}i:2;i:3424;}i:51;a:3:{i:0;s:7:"p_close";i:1;a:0:{}i:2;i:3740;}i:52;a:3:{i:0;s:6:"p_open";i:1;a:0:{}i:2;i:3740;}i:53;a:3:{i:0;s:5:"cdata";i:1;a:1:{i:0;s:46:"While liveCDs will run slower than running an ";}i:2;i:3742;}i:54;a:3:{i:0;s:7:"acronym";i:1;a:1:{i:0;s:2:"OS";}i:2;i:3788;}i:55;a:3:{i:0;s:5:"cdata";i:1;a:1:{i:0;s:182:" from the harddrive, it should still give the user a good idea of severe problems, and the user should make some allowances for the fact that the test is being performed on a liveCD.";}i:2;i:3790;}i:56;a:3:{i:0;s:7:"p_close";i:1;a:0:{}i:2;i:3972;}i:57;a:3:{i:0;s:6:"p_open";i:1;a:0:{}i:2;i:3972;}i:58;a:3:{i:0;s:5:"cdata";i:1;a:1:{i:0;s:386:"If specific multimedia peripherals are required to work as well, they can be judged separate from the workstation itself. Regardless of what computer is
purchased, the Linux kernel either does or does not have support for a peripheral. An online search or tests at home on any computer available should
reveal whether or not an interface or peripheral is recognized and usable on Linux.";}i:2;i:3974;}i:59;a:3:{i:0;s:7:"p_close";i:1;a:0:{}i:2;i:4360;}i:60;a:3:{i:0;s:6:"p_open";i:1;a:0:{}i:2;i:4360;}i:61;a:3:{i:0;s:5:"cdata";i:1;a:1:{i:0;s:260:"The computer market can be confusing and it is often difficult to know what actually has a pragmatic significance in multimedia. In other words, all things being equal, where in a computer system should a buyer spend money? Some general things to keep in mind:";}i:2;i:4362;}i:62;a:3:{i:0;s:7:"p_close";i:1;a:0:{}i:2;i:4622;}i:63;a:3:{i:0;s:13:"section_close";i:1;a:0:{}i:2;i:4624;}i:64;a:3:{i:0;s:6:"header";i:1;a:3:{i:0;s:3:"CPU";i:1;i:3;i:2;i:4624;}i:2;i:4624;}i:65;a:3:{i:0;s:12:"section_open";i:1;a:1:{i:0;i:3;}i:2;i:4624;}i:66;a:3:{i:0;s:6:"p_open";i:1;a:0:{}i:2;i:4624;}i:67;a:3:{i:0;s:5:"cdata";i:1;a:1:{i:0;s:322:"There was a time when every last megahertz really did matter to the end user, but lately most CPUs have reached a mostly-equal plateau in speed. Brands and model names will advertise different features but generally speaking any
general-purpose computer AMD or Intel 64-bit CPU will do as well with
multimedia as another. ";}i:2;i:4639;}i:68;a:3:{i:0;s:18:"doublequoteopening";i:1;a:0:{}i:2;i:4961;}i:69;a:3:{i:0;s:5:"cdata";i:1;a:1:{i:0;s:15:"General purpose";}i:2;i:4962;}i:70;a:3:{i:0;s:18:"doublequoteclosing";i:1;a:0:{}i:2;i:4977;}i:71;a:3:{i:0;s:5:"cdata";i:1;a:1:{i:0;s:97:" excludes chips designed specifically
for netbooks and other ultra-portable or low-power devices.";}i:2;i:4978;}i:72;a:3:{i:0;s:7:"p_close";i:1;a:0:{}i:2;i:5075;}i:73;a:3:{i:0;s:6:"p_open";i:1;a:0:{}i:2;i:5075;}i:74;a:3:{i:0;s:5:"cdata";i:1;a:1:{i:0;s:259:"CPUs process data, so the jobs that benefit most from multiple CPUs or very
fast CPUs are processing-heavy activities such as video compression,
non-realtime special effect rendering, realtime audio effect generation, audio
effect rendering (sometimes called ";}i:2;i:5077;}i:75;a:3:{i:0;s:18:"doublequoteopening";i:1;a:0:{}i:2;i:5336;}i:76;a:3:{i:0;s:5:"cdata";i:1;a:1:{i:0;s:8:"freezing";}i:2;i:5337;}i:77;a:3:{i:0;s:18:"doublequoteclosing";i:1;a:0:{}i:2;i:5345;}i:78;a:3:{i:0;s:5:"cdata";i:1;a:1:{i:0;s:450:" in a DAW), large image
conversion, audio file conversion or compression, and so on. Very broadly
speaking, it could be said that the CPU matters most on jobs that involve
pressing a button and then getting up and going for a cup of coffee in
anticipation of having to wait for the job to be complete. Some of these jobs
will literally last for days, others may only be a few seconds past the point
at which a typical user becomes bored with waiting.";}i:2;i:5346;}i:79;a:3:{i:0;s:7:"p_close";i:1;a:0:{}i:2;i:5796;}i:80;a:3:{i:0;s:6:"p_open";i:1;a:0:{}i:2;i:5796;}i:81;a:3:{i:0;s:5:"cdata";i:1;a:1:{i:0;s:192:"If you are going to do to do graphically-intensive work such as 3d modeling,
digital painting, or video editing, then go with a mid-range CPU and spend more
money on a good graphics processor.";}i:2;i:5798;}i:82;a:3:{i:0;s:7:"p_close";i:1;a:0:{}i:2;i:5990;}i:83;a:3:{i:0;s:6:"p_open";i:1;a:0:{}i:2;i:5990;}i:84;a:3:{i:0;s:5:"cdata";i:1;a:1:{i:0;s:104:"If you are going to do audio work, put your money into CPU and RAM, and spend
less on the graphics card.";}i:2;i:5992;}i:85;a:3:{i:0;s:7:"p_close";i:1;a:0:{}i:2;i:6096;}i:86;a:3:{i:0;s:6:"p_open";i:1;a:0:{}i:2;i:6096;}i:87;a:3:{i:0;s:5:"cdata";i:1;a:1:{i:0;s:179:"Finally, do not be confused by branding. Intel and AMD are basically the same
in function and performance from a practical standpoint. The brand should never
be a deciding factor.";}i:2;i:6098;}i:88;a:3:{i:0;s:7:"p_close";i:1;a:0:{}i:2;i:6277;}i:89;a:3:{i:0;s:13:"section_close";i:1;a:0:{}i:2;i:6279;}i:90;a:3:{i:0;s:6:"header";i:1;a:3:{i:0;s:3:"RAM";i:1;i:3;i:2;i:6279;}i:2;i:6279;}i:91;a:3:{i:0;s:12:"section_open";i:1;a:1:{i:0;i:3;}i:2;i:6279;}i:92;a:3:{i:0;s:6:"p_open";i:1;a:0:{}i:2;i:6279;}i:93;a:3:{i:0;s:5:"cdata";i:1;a:1:{i:0;s:460:"How much RAM you have dictates, largely, what size projects your system can
comfortably handle. Audacity. for instance, will be responsive with a 30-second
spot but will feel sluggish with longer projects, or projects with a great many
tracks. GIMP will do well on web graphics but struggle with for-print graphics.
This is simply because information is moving in and out of RAM; upgrade the
amount of RAM, and the applications will function more consistently.";}i:2;i:6294;}i:94;a:3:{i:0;s:7:"p_close";i:1;a:0:{}i:2;i:6754;}i:95;a:3:{i:0;s:6:"p_open";i:1;a:0:{}i:2;i:6754;}i:96;a:3:{i:0;s:5:"cdata";i:1;a:1:{i:0;s:376:"The speed of RAM is less talked about in consumer electronics, but the overall
responsiveness of the system is greatly dependent upon it. The faster the RAM,
the faster the information can be moved from RAM to CPU for processing, so
given the choice, purchase the faster RAM. On the other hand, if money is an
issue, try to find a happy medium between storage space and speed.";}i:2;i:6756;}i:97;a:3:{i:0;s:7:"p_close";i:1;a:0:{}i:2;i:7132;}i:98;a:3:{i:0;s:6:"p_open";i:1;a:0:{}i:2;i:7132;}i:99;a:3:{i:0;s:5:"cdata";i:1;a:1:{i:0;s:19:"The old adage that ";}i:2;i:7134;}i:100;a:3:{i:0;s:18:"doublequoteopening";i:1;a:0:{}i:2;i:7153;}i:101;a:3:{i:0;s:5:"cdata";i:1;a:1:{i:0;s:31:"you can never have too much RAM";}i:2;i:7154;}i:102;a:3:{i:0;s:18:"doublequoteclosing";i:1;a:0:{}i:2;i:7185;}i:103;a:3:{i:0;s:5:"cdata";i:1;a:1:{i:0;s:543:" has not held up all that
well with time, at least not on a normal desktop or laptop (render farms and
RAM disks are notable exceptions). Realistically, you can only be doing so many
things at once, so unless you just open up every large project simply to spite
your computer, some RAM will end up net being used. So get a lot of RAM, but if
price is an issue, only get a little more than you anticipate needing. If you
have money to spend, get some extra RAM for comfort, but don't go overboard
unless you are actively building a render farm.";}i:2;i:7186;}i:104;a:3:{i:0;s:7:"p_close";i:1;a:0:{}i:2;i:7729;}i:105;a:3:{i:0;s:13:"section_close";i:1;a:0:{}i:2;i:7731;}i:106;a:3:{i:0;s:6:"header";i:1;a:3:{i:0;s:10:"Hard drive";i:1;i:3;i:2;i:7731;}i:2;i:7731;}i:107;a:3:{i:0;s:12:"section_open";i:1;a:1:{i:0;i:3;}i:2;i:7731;}i:108;a:3:{i:0;s:6:"p_open";i:1;a:0:{}i:2;i:7731;}i:109;a:3:{i:0;s:5:"cdata";i:1;a:1:{i:0;s:503:"Hard drives are quite reasonably priced, so more is probably better, and
financially possible for all but the most severest of budgets. Less affordable
are Solid State Drives (SSD), but the performance increase is so remarkable
that it is strongly suggested that you purchase an SSD drive for at least part
of your system; since it only needs to house the applications, it can be a
small drive (16gb or 32gb will do, considering that the entire Slackware
distribution, uncompressed, is only about 10gb).";}i:2;i:7753;}i:110;a:3:{i:0;s:7:"p_close";i:1;a:0:{}i:2;i:8256;}i:111;a:3:{i:0;s:6:"p_open";i:1;a:0:{}i:2;i:8256;}i:112;a:3:{i:0;s:5:"cdata";i:1;a:1:{i:0;s:337:"An ideal, but still affordable, setup would be one SSD drive to hold the
binary, executable applications that run your computer (and the multimedia
applications which you will run on a daily basis), one standard hard drive to
house all of your data as well as the system data, and a third standard hard
drive to perform constant backups.";}i:2;i:8258;}i:113;a:3:{i:0;s:7:"p_close";i:1;a:0:{}i:2;i:8595;}i:114;a:3:{i:0;s:13:"section_close";i:1;a:0:{}i:2;i:8598;}i:115;a:3:{i:0;s:6:"header";i:1;a:3:{i:0;s:13:"Graphics Card";i:1;i:3;i:2;i:8598;}i:2;i:8598;}i:116;a:3:{i:0;s:12:"section_open";i:1;a:1:{i:0;i:3;}i:2;i:8598;}i:117;a:3:{i:0;s:6:"p_open";i:1;a:0:{}i:2;i:8598;}i:118;a:3:{i:0;s:5:"cdata";i:1;a:1:{i:0;s:407:"A powerful graphics card is quite important if you will be doing video and
graphics work. For serious visual multimedia, it is very likely that you will
need to install a proprietary graphics card driver since the companies do not
release their driver code as free software. This is unfortunate and taints an
otherwise open source system, but the performance increase can be measured in
orders of magnitude.";}i:2;i:8623;}i:119;a:3:{i:0;s:7:"p_close";i:1;a:0:{}i:2;i:9030;}i:120;a:3:{i:0;s:6:"p_open";i:1;a:0:{}i:2;i:9030;}i:121;a:3:{i:0;s:5:"cdata";i:1;a:1:{i:0;s:380:"If you are not doing intensive video or graphics work, then probably your only
concern with a graphics card is whether it will work and handle the basic
visual needs of your system. For these low-end to mid-range cards, the drivers
can come from Nvidia, ATI, or Intel, or from the Linux (actually Xorg)
developers. Performance can usually be gauged in tests at any computer store.";}i:2;i:9032;}i:122;a:3:{i:0;s:7:"p_close";i:1;a:0:{}i:2;i:9412;}i:123;a:3:{i:0;s:6:"p_open";i:1;a:0:{}i:2;i:9412;}i:124;a:3:{i:0;s:5:"cdata";i:1;a:1:{i:0;s:361:"Whether you're looking for a high-performance card or a mid-range card, you can
always determine the official support by going to the chipset manufacturer's
website and finding a download (or lack thereof) for the card. If the download
is there, you are at least guaranteed performance for that chipset, on the
kernel or kernels for which the code was released.";}i:2;i:9414;}i:125;a:3:{i:0;s:7:"p_close";i:1;a:0:{}i:2;i:9775;}i:126;a:3:{i:0;s:6:"p_open";i:1;a:0:{}i:2;i:9775;}i:127;a:3:{i:0;s:5:"cdata";i:1;a:1:{i:0;s:249:"Otherwise, look on the X.org website to see if they have a driver for the card
you are looking to buy (or buy along with a laptop or pre-built system), and
take note of what kind of performance results are being seen with those drivers
on that card.";}i:2;i:9777;}i:128;a:3:{i:0;s:7:"p_close";i:1;a:0:{}i:2;i:10026;}i:129;a:3:{i:0;s:6:"p_open";i:1;a:0:{}i:2;i:10026;}i:130;a:3:{i:0;s:5:"cdata";i:1;a:1:{i:0;s:534:"Not out of allegiance for a particular brand, the best bet for graphics are
pragmatically Intel for light graphic work (photos, still image compositing,
some 3d titling, light video editing) and Nvidia for moderate-to-high graphic
work (serious 3d modeling, complex video editing, animation, video compositing,
large-format photo work). Nvidia is infamously proprietary and secretive, but
they do actively maintain their code, and it performs well. Developers hate them, but in
terms of results, they are the high-end graphics to use.";}i:2;i:10028;}i:131;a:3:{i:0;s:7:"p_close";i:1;a:0:{}i:2;i:10562;}i:132;a:3:{i:0;s:6:"p_open";i:1;a:0:{}i:2;i:10562;}i:133;a:3:{i:0;s:5:"cdata";i:1;a:1:{i:0;s:77:"Currently, it is recommended that you avoid AMD (formerly ATI) graphic cards.";}i:2;i:10564;}i:134;a:3:{i:0;s:7:"p_close";i:1;a:0:{}i:2;i:10641;}i:135;a:3:{i:0;s:13:"section_close";i:1;a:0:{}i:2;i:10644;}i:136;a:3:{i:0;s:6:"header";i:1;a:3:{i:0;s:9:"GPU Tests";i:1;i:4;i:2;i:10644;}i:2;i:10644;}i:137;a:3:{i:0;s:12:"section_open";i:1;a:1:{i:0;i:4;}i:2;i:10644;}i:138;a:3:{i:0;s:6:"p_open";i:1;a:0:{}i:2;i:10644;}i:139;a:3:{i:0;s:5:"cdata";i:1;a:1:{i:0;s:216:"Buying a GPU is nearly as complicated as buying a computer. GPU cards have processor clock speeds, RAM, RAM speed, bus speed, fans, a variety of possible monitor outputs, and may even require additional power to run.";}i:2;i:10664;}i:140;a:3:{i:0;s:7:"p_close";i:1;a:0:{}i:2;i:10880;}i:141;a:3:{i:0;s:6:"p_open";i:1;a:0:{}i:2;i:10880;}i:142;a:3:{i:0;s:5:"cdata";i:1;a:1:{i:0;s:624:"Actually using a GPU notwithstanding, the best way to get a feel for GPU performance is to keep a finger on the pulse of the GPU market, especially within either the visual effects or the gamer community. The VFX community would presumably be the most apropos group to follow, but they tend to be less verbose about the gear they use than the gamer community. Since so much of gaming depends on realtime GPU performance, and gamers are some of the most demanding computer geeks alive, and they tend to take pride in their computer builds. Consequently, when gamers rave about a GPU, you know that the GPU is worth the money.";}i:2;i:10882;}i:143;a:3:{i:0;s:7:"p_close";i:1;a:0:{}i:2;i:11506;}i:144;a:3:{i:0;s:6:"p_open";i:1;a:0:{}i:2;i:11506;}i:145;a:3:{i:0;s:5:"cdata";i:1;a:1:{i:0;s:282:"The general-purpose multimedia community is usually less reliable, since so many of the users in that space don't actually know what a GPU or a
CPU does. They generally know a lot about video editing or 3d modeling, but not much about the technical side of what makes it all happen.";}i:2;i:11508;}i:146;a:3:{i:0;s:7:"p_close";i:1;a:0:{}i:2;i:11790;}i:147;a:3:{i:0;s:6:"p_open";i:1;a:0:{}i:2;i:11790;}i:148;a:3:{i:0;s:5:"cdata";i:1;a:1:{i:0;s:248:"A GPU's performance is defined primarily by how much video memory it has, and how fast its processor is. Look at a card's specs, and find out the clock speed and the amount of memory, and use these numbers to determine what to expect
from the card.";}i:2;i:11792;}i:149;a:3:{i:0;s:7:"p_close";i:1;a:0:{}i:2;i:12040;}i:150;a:3:{i:0;s:6:"p_open";i:1;a:0:{}i:2;i:12040;}i:151;a:3:{i:0;s:5:"cdata";i:1;a:1:{i:0;s:189:"A few unscientific tests to determine the real-world performance of a graphics
card, should you have the opportunity to test it in a computer store before buying, is to go burn an image of ";}i:2;i:12042;}i:152;a:3:{i:0;s:12:"externallink";i:1;a:2:{i:0;s:15:"http://slax.org";i:1;s:4:"Slax";}i:2;i:12231;}i:153;a:3:{i:0;s:5:"cdata";i:1;a:1:{i:0;s:170:", a portable live Linux distribution based on Slackware. Take the CD (or USB drive, if you're savvy) to a computer store and put it into any display computer and reboot. ";}i:2;i:12255;}i:154;a:3:{i:0;s:7:"p_close";i:1;a:0:{}i:2;i:12425;}i:155;a:3:{i:0;s:6:"plugin";i:1;a:4:{i:0;s:12:"wrap_divwrap";i:1;a:2:{i:0;i:1;i:1;s:3:"tip";}i:2;i:1;i:3;s:10:"<WRAP tip>";}i:2;i:12427;}i:156;a:3:{i:0;s:6:"p_open";i:1;a:0:{}i:2;i:12427;}i:157;a:3:{i:0;s:5:"cdata";i:1;a:1:{i:0;s:59:"For a full explanation of how to use Slax, see the website ";}i:2;i:12438;}i:158;a:3:{i:0;s:12:"externallink";i:1;a:2:{i:0;s:33:"http://straightedgelinux.com/slax";i:1;N;}i:2;i:12497;}i:159;a:3:{i:0;s:5:"cdata";i:1;a:1:{i:0;s:1:".";}i:2;i:12534;}i:160;a:3:{i:0;s:7:"p_close";i:1;a:0:{}i:2;i:12536;}i:161;a:3:{i:0;s:6:"plugin";i:1;a:4:{i:0;s:12:"wrap_divwrap";i:1;a:2:{i:0;i:4;i:1;s:0:"";}i:2;i:4;i:3;s:7:"</WRAP>";}i:2;i:12536;}i:162;a:3:{i:0;s:10:"listo_open";i:1;a:0:{}i:2;i:12544;}i:163;a:3:{i:0;s:13:"listitem_open";i:1;a:1:{i:0;i:1;}i:2;i:12544;}i:164;a:3:{i:0;s:16:"listcontent_open";i:1;a:0:{}i:2;i:12544;}i:165;a:3:{i:0;s:5:"cdata";i:1;a:1:{i:0;s:77:"Launch KDE's System Settings and turn on Desktop Effects in the Desktop pane.";}i:2;i:12548;}i:166;a:3:{i:0;s:17:"listcontent_close";i:1;a:0:{}i:2;i:12625;}i:167;a:3:{i:0;s:14:"listitem_close";i:1;a:0:{}i:2;i:12625;}i:168;a:3:{i:0;s:13:"listitem_open";i:1;a:1:{i:0;i:1;}i:2;i:12625;}i:169;a:3:{i:0;s:16:"listcontent_open";i:1;a:0:{}i:2;i:12625;}i:170;a:3:{i:0;s:5:"cdata";i:1;a:1:{i:0;s:53:"Navigate to the All Effects tab and turn them all on.";}i:2;i:12629;}i:171;a:3:{i:0;s:17:"listcontent_close";i:1;a:0:{}i:2;i:12682;}i:172;a:3:{i:0;s:14:"listitem_close";i:1;a:0:{}i:2;i:12682;}i:173;a:3:{i:0;s:13:"listitem_open";i:1;a:1:{i:0;i:1;}i:2;i:12682;}i:174;a:3:{i:0;s:16:"listcontent_open";i:1;a:0:{}i:2;i:12682;}i:175;a:3:{i:0;s:5:"cdata";i:1;a:1:{i:0;s:151:"Close System Settings (saving your changes). If any of the effects are not able to be activated, then that GPU is obviously limited (or its driver is).";}i:2;i:12686;}i:176;a:3:{i:0;s:17:"listcontent_close";i:1;a:0:{}i:2;i:12837;}i:177;a:3:{i:0;s:14:"listitem_close";i:1;a:0:{}i:2;i:12837;}i:178;a:3:{i:0;s:13:"listitem_open";i:1;a:1:{i:0;i:1;}i:2;i:12837;}i:179;a:3:{i:0;s:16:"listcontent_open";i:1;a:0:{}i:2;i:12837;}i:180;a:3:{i:0;s:5:"cdata";i:1;a:1:{i:0;s:161:"Assuming all the effects can be enabled, open a few windows (Dolphin, Konsole, konqueror, and so on) and play a video in Dragon; while the video is playing, use ";}i:2;i:12841;}i:181;a:3:{i:0;s:14:"monospace_open";i:1;a:0:{}i:2;i:13002;}i:182;a:3:{i:0;s:5:"cdata";i:1;a:1:{i:0;s:7:"alt-tab";}i:2;i:13004;}i:183;a:3:{i:0;s:15:"monospace_close";i:1;a:0:{}i:2;i:13011;}i:184;a:3:{i:0;s:5:"cdata";i:1;a:1:{i:0;s:31:" to switch between the windows.";}i:2;i:13013;}i:185;a:3:{i:0;s:17:"listcontent_close";i:1;a:0:{}i:2;i:13044;}i:186;a:3:{i:0;s:14:"listitem_close";i:1;a:0:{}i:2;i:13044;}i:187;a:3:{i:0;s:13:"listitem_open";i:1;a:1:{i:0;i:1;}i:2;i:13044;}i:188;a:3:{i:0;s:16:"listcontent_open";i:1;a:0:{}i:2;i:13044;}i:189;a:3:{i:0;s:5:"cdata";i:1;a:1:{i:0;s:213:"If the video and its reflection continues to play smoothly through the animated switching, the card will more than likely be a suitable card for at least moderate to heavy video work and other multimedia creation.";}i:2;i:13048;}i:190;a:3:{i:0;s:17:"listcontent_close";i:1;a:0:{}i:2;i:13261;}i:191;a:3:{i:0;s:14:"listitem_close";i:1;a:0:{}i:2;i:13261;}i:192;a:3:{i:0;s:13:"listitem_open";i:1;a:1:{i:0;i:1;}i:2;i:13261;}i:193;a:3:{i:0;s:16:"listcontent_open";i:1;a:0:{}i:2;i:13261;}i:194;a:3:{i:0;s:5:"cdata";i:1;a:1:{i:0;s:45:"Continue to add more videos, and continue to ";}i:2;i:13265;}i:195;a:3:{i:0;s:14:"monospace_open";i:1;a:0:{}i:2;i:13310;}i:196;a:3:{i:0;s:5:"cdata";i:1;a:1:{i:0;s:7:"alt-tab";}i:2;i:13312;}i:197;a:3:{i:0;s:15:"monospace_close";i:1;a:0:{}i:2;i:13319;}i:198;a:3:{i:0;s:5:"cdata";i:1;a:1:{i:0;s:91:" to test the limits of the card. Take note of flickering, stuttering, and other distortion.";}i:2;i:13321;}i:199;a:3:{i:0;s:9:"linebreak";i:1;a:0:{}i:2;i:13412;}i:200;a:3:{i:0;s:17:"listcontent_close";i:1;a:0:{}i:2;i:13414;}i:201;a:3:{i:0;s:14:"listitem_close";i:1;a:0:{}i:2;i:13414;}i:202;a:3:{i:0;s:11:"listo_close";i:1;a:0:{}i:2;i:13414;}i:203;a:3:{i:0;s:6:"p_open";i:1;a:0:{}i:2;i:13414;}i:204;a:3:{i:0;s:9:"linebreak";i:1;a:0:{}i:2;i:13415;}i:205;a:3:{i:0;s:5:"cdata";i:1;a:1:{i:0;s:188:"
If you have time and the skill for Blender, test it out on the computer. If Blender performs well, then the card is probably well-suited for any other
visual work you have in mind for it.";}i:2;i:13417;}i:206;a:3:{i:0;s:7:"p_close";i:1;a:0:{}i:2;i:13605;}i:207;a:3:{i:0;s:13:"section_close";i:1;a:0:{}i:2;i:13608;}i:208;a:3:{i:0;s:6:"header";i:1;a:3:{i:0;s:10:"Sound card";i:1;i:3;i:2;i:13608;}i:2;i:13608;}i:209;a:3:{i:0;s:12:"section_open";i:1;a:1:{i:0;i:3;}i:2;i:13608;}i:210;a:3:{i:0;s:6:"p_open";i:1;a:0:{}i:2;i:13608;}i:211;a:3:{i:0;s:5:"cdata";i:1;a:1:{i:0;s:488:"Play sound to ensure that the speakers are being recognized and are supported
by the Linux kernel. Assuming that the computer does provide sound, try playing
multiple sources of sound and test how the audio card handles multiple tasks.
Obviously, the more robust the card, the better, but in most computers the real
test is simply whether or not the sound card is recognized. For multiple inputs
and outputs, an additional, more professional sound card or interface will need
to be added.";}i:2;i:13630;}i:212;a:3:{i:0;s:7:"p_close";i:1;a:0:{}i:2;i:14118;}i:213;a:3:{i:0;s:6:"p_open";i:1;a:0:{}i:2;i:14118;}i:214;a:3:{i:0;s:5:"cdata";i:1;a:1:{i:0;s:350:"Audio difficulties usually arise from either HDMI (the computer might see HDMI
as the primary output, but most speakers plug into the 3.5mm jack), or from dual-purpose audio jacks (a horrendous invention that combines the output for
headphones with the input for a microphone, meaning that you can never have both plugged into your computer at once).";}i:2;i:14120;}i:215;a:3:{i:0;s:7:"p_close";i:1;a:0:{}i:2;i:14470;}i:216;a:3:{i:0;s:6:"p_open";i:1;a:0:{}i:2;i:14470;}i:217;a:3:{i:0;s:5:"cdata";i:1;a:1:{i:0;s:180:"If audio does not appear to work during your tests, chances are that it will either never work, or it will work only after much re-configuration. Consider
that before you purchase.";}i:2;i:14472;}i:218;a:3:{i:0;s:7:"p_close";i:1;a:0:{}i:2;i:14652;}i:219;a:3:{i:0;s:6:"p_open";i:1;a:0:{}i:2;i:14652;}i:220;a:3:{i:0;s:5:"cdata";i:1;a:1:{i:0;s:102:"If you are having problems in your sound tests, find out the specs of the audio card with the command ";}i:2;i:14654;}i:221;a:3:{i:0;s:14:"monospace_open";i:1;a:0:{}i:2;i:14756;}i:222;a:3:{i:0;s:5:"cdata";i:1;a:1:{i:0;s:8:"aplay -l";}i:2;i:14758;}i:223;a:3:{i:0;s:15:"monospace_close";i:1;a:0:{}i:2;i:14766;}i:224;a:3:{i:0;s:5:"cdata";i:1;a:1:{i:0;s:36:" and then research the model online.";}i:2;i:14768;}i:225;a:3:{i:0;s:7:"p_close";i:1;a:0:{}i:2;i:14804;}i:226;a:3:{i:0;s:13:"section_close";i:1;a:0:{}i:2;i:14807;}i:227;a:3:{i:0;s:6:"header";i:1;a:3:{i:0;s:13:"Wireless card";i:1;i:3;i:2;i:14807;}i:2;i:14807;}i:228;a:3:{i:0;s:12:"section_open";i:1;a:1:{i:0;i:3;}i:2;i:14807;}i:229;a:3:{i:0;s:6:"p_open";i:1;a:0:{}i:2;i:14807;}i:230;a:3:{i:0;s:5:"cdata";i:1;a:1:{i:0;s:343:"Although this is less of a problem now than it has been historically, there are wireless network cards that simply do not have Linux drivers. Recently more
drivers have been developed and hacks around the lack of drivers have been implemented, but a cursory test of the wireless card is worth while. If it is not recognized, issue the command ";}i:2;i:14832;}i:231;a:3:{i:0;s:14:"monospace_open";i:1;a:0:{}i:2;i:15175;}i:232;a:3:{i:0;s:5:"cdata";i:1;a:1:{i:0;s:5:"lspci";}i:2;i:15177;}i:233;a:3:{i:0;s:15:"monospace_close";i:1;a:0:{}i:2;i:15182;}i:234;a:3:{i:0;s:5:"cdata";i:1;a:1:{i:0;s:232:" on the command line and look through the listing to find the card's chipset. Perform an online search to find out how well supported the chipset is and review the necessary steps that will need to be taken for the card to function.";}i:2;i:15184;}i:235;a:3:{i:0;s:7:"p_close";i:1;a:0:{}i:2;i:15416;}i:236;a:3:{i:0;s:6:"plugin";i:1;a:4:{i:0;s:12:"wrap_divwrap";i:1;a:2:{i:0;i:1;i:1;s:3:"tip";}i:2;i:1;i:3;s:10:"<WRAP tip>";}i:2;i:15418;}i:237;a:3:{i:0;s:6:"p_open";i:1;a:0:{}i:2;i:15418;}i:238;a:3:{i:0;s:5:"cdata";i:1;a:1:{i:0;s:52:"The go-to site for wireless information on Linux is ";}i:2;i:15429;}i:239;a:3:{i:0;s:12:"externallink";i:1;a:2:{i:0;s:32:"https://wireless.wiki.kernel.org";i:1;N;}i:2;i:15481;}i:240;a:3:{i:0;s:5:"cdata";i:1;a:1:{i:0;s:1:".";}i:2;i:15517;}i:241;a:3:{i:0;s:7:"p_close";i:1;a:0:{}i:2;i:15519;}i:242;a:3:{i:0;s:6:"plugin";i:1;a:4:{i:0;s:12:"wrap_divwrap";i:1;a:2:{i:0;i:4;i:1;s:0:"";}i:2;i:4;i:3;s:7:"</WRAP>";}i:2;i:15519;}i:243;a:3:{i:0;s:13:"section_close";i:1;a:0:{}i:2;i:15528;}i:244;a:3:{i:0;s:6:"header";i:1;a:3:{i:0;s:6:"Webcam";i:1;i:3;i:2;i:15528;}i:2;i:15528;}i:245;a:3:{i:0;s:12:"section_open";i:1;a:1:{i:0;i:3;}i:2;i:15528;}i:246;a:3:{i:0;s:6:"p_open";i:1;a:0:{}i:2;i:15528;}i:247;a:3:{i:0;s:5:"cdata";i:1;a:1:{i:0;s:126:"Webcams are generally well-supported in Linux, even if they are not recognized out of the box. If the webcam is vital, launch ";}i:2;i:15546;}i:248;a:3:{i:0;s:14:"monospace_open";i:1;a:0:{}i:2;i:15672;}i:249;a:3:{i:0;s:5:"cdata";i:1;a:1:{i:0;s:3:"vlc";}i:2;i:15674;}i:250;a:3:{i:0;s:15:"monospace_close";i:1;a:0:{}i:2;i:15677;}i:251;a:3:{i:0;s:5:"cdata";i:1;a:1:{i:0;s:42:" to test whether the webcam is recognized.";}i:2;i:15679;}i:252;a:3:{i:0;s:7:"p_close";i:1;a:0:{}i:2;i:15722;}i:253;a:3:{i:0;s:10:"listo_open";i:1;a:0:{}i:2;i:15722;}i:254;a:3:{i:0;s:13:"listitem_open";i:1;a:1:{i:0;i:1;}i:2;i:15722;}i:255;a:3:{i:0;s:16:"listcontent_open";i:1;a:0:{}i:2;i:15722;}i:256;a:3:{i:0;s:5:"cdata";i:1;a:1:{i:0;s:7:"Launch ";}i:2;i:15726;}i:257;a:3:{i:0;s:14:"monospace_open";i:1;a:0:{}i:2;i:15733;}i:258;a:3:{i:0;s:5:"cdata";i:1;a:1:{i:0;s:3:"vlc";}i:2;i:15735;}i:259;a:3:{i:0;s:15:"monospace_close";i:1;a:0:{}i:2;i:15738;}i:260;a:3:{i:0;s:5:"cdata";i:1;a:1:{i:0;s:45:"; install if it is not already on the liveCD ";}i:2;i:15740;}i:261;a:3:{i:0;s:17:"listcontent_close";i:1;a:0:{}i:2;i:15785;}i:262;a:3:{i:0;s:14:"listitem_close";i:1;a:0:{}i:2;i:15785;}i:263;a:3:{i:0;s:13:"listitem_open";i:1;a:1:{i:0;i:1;}i:2;i:15785;}i:264;a:3:{i:0;s:16:"listcontent_open";i:1;a:0:{}i:2;i:15785;}i:265;a:3:{i:0;s:5:"cdata";i:1;a:1:{i:0;s:56:"Navigate to the File menu and choose Open Capture Device";}i:2;i:15789;}i:266;a:3:{i:0;s:17:"listcontent_close";i:1;a:0:{}i:2;i:15845;}i:267;a:3:{i:0;s:14:"listitem_close";i:1;a:0:{}i:2;i:15845;}i:268;a:3:{i:0;s:13:"listitem_open";i:1;a:1:{i:0;i:1;}i:2;i:15845;}i:269;a:3:{i:0;s:16:"listcontent_open";i:1;a:0:{}i:2;i:15845;}i:270;a:3:{i:0;s:5:"cdata";i:1;a:1:{i:0;s:75:"How the webcam will be seen is difficult to predict; it might be listed as ";}i:2;i:15849;}i:271;a:3:{i:0;s:14:"monospace_open";i:1;a:0:{}i:2;i:15924;}i:272;a:3:{i:0;s:5:"cdata";i:1;a:1:{i:0;s:11:"/dev/video0";}i:2;i:15926;}i:273;a:3:{i:0;s:15:"monospace_close";i:1;a:0:{}i:2;i:15937;}i:274;a:3:{i:0;s:5:"cdata";i:1;a:1:{i:0;s:63:" or it may be some other name, and it may use the video4linux (";}i:2;i:15939;}i:275;a:3:{i:0;s:14:"monospace_open";i:1;a:0:{}i:2;i:16002;}i:276;a:3:{i:0;s:5:"cdata";i:1;a:1:{i:0;s:4:"v4l2";}i:2;i:16004;}i:277;a:3:{i:0;s:15:"monospace_close";i:1;a:0:{}i:2;i:16008;}i:278;a:3:{i:0;s:5:"cdata";i:1;a:1:{i:0;s:27:") driver or the UVC driver.";}i:2;i:16010;}i:279;a:3:{i:0;s:17:"listcontent_close";i:1;a:0:{}i:2;i:16037;}i:280;a:3:{i:0;s:14:"listitem_close";i:1;a:0:{}i:2;i:16037;}i:281;a:3:{i:0;s:13:"listitem_open";i:1;a:1:{i:0;i:1;}i:2;i:16037;}i:282;a:3:{i:0;s:16:"listcontent_open";i:1;a:0:{}i:2;i:16037;}i:283;a:3:{i:0;s:5:"cdata";i:1;a:1:{i:0;s:43:"Play around with the settings, look at the ";}i:2;i:16041;}i:284;a:3:{i:0;s:14:"monospace_open";i:1;a:0:{}i:2;i:16084;}i:285;a:3:{i:0;s:5:"cdata";i:1;a:1:{i:0;s:4:"/dev";}i:2;i:16086;}i:286;a:3:{i:0;s:15:"monospace_close";i:1;a:0:{}i:2;i:16090;}i:287;a:3:{i:0;s:5:"cdata";i:1;a:1:{i:0;s:142:" listing in a terminal as needed, and see if you can get an image from the webcam when you press the Play button in the capture device window.";}i:2;i:16092;}i:288;a:3:{i:0;s:17:"listcontent_close";i:1;a:0:{}i:2;i:16234;}i:289;a:3:{i:0;s:14:"listitem_close";i:1;a:0:{}i:2;i:16234;}i:290;a:3:{i:0;s:11:"listo_close";i:1;a:0:{}i:2;i:16234;}i:291;a:3:{i:0;s:13:"section_close";i:1;a:0:{}i:2;i:16237;}i:292;a:3:{i:0;s:6:"header";i:1;a:3:{i:0;s:28:"Miscellaneous Considerations";i:1;i:3;i:2;i:16237;}i:2;i:16237;}i:293;a:3:{i:0;s:12:"section_open";i:1;a:1:{i:0;i:3;}i:2;i:16237;}i:294;a:3:{i:0;s:6:"p_open";i:1;a:0:{}i:2;i:16237;}i:295;a:3:{i:0;s:5:"cdata";i:1;a:1:{i:0;s:374:"Anticipate what might be required of the multimedia system and take this into consideration whilst considering the purchase. The outward appearance of a computer matters not at all compared to its capabilities. Proprietary connection types and a lack of common features like an optical drive or SD card reader will only complicate the always complex task of importing media.";}i:2;i:16277;}i:296;a:3:{i:0;s:7:"p_close";i:1;a:0:{}i:2;i:16651;}i:297;a:3:{i:0;s:6:"p_open";i:1;a:0:{}i:2;i:16651;}i:298;a:3:{i:0;s:5:"cdata";i:1;a:1:{i:0;s:268:"If it is not a new computer being purchased, but a used computer, the same tests should be performed, in addition to common physical tests, such as
ensuring all of the ports are functioning, the optical drive functions as expected, the harddrive is healthy, and so on.";}i:2;i:16653;}i:299;a:3:{i:0;s:7:"p_close";i:1;a:0:{}i:2;i:16921;}i:300;a:3:{i:0;s:6:"p_open";i:1;a:0:{}i:2;i:16921;}i:301;a:3:{i:0;s:5:"cdata";i:1;a:1:{i:0;s:27:"In all cases, the commands ";}i:2;i:16923;}i:302;a:3:{i:0;s:7:"p_close";i:1;a:0:{}i:2;i:16950;}i:303;a:3:{i:0;s:4:"code";i:1;a:3:{i:0;s:34:"
lspci >> lspci_computerModel.txt
";i:1;N;i:2;N;}i:2;i:16957;}i:304;a:3:{i:0;s:6:"p_open";i:1;a:0:{}i:2;i:16957;}i:305;a:3:{i:0;s:5:"cdata";i:1;a:1:{i:0;s:4:"and ";}i:2;i:17001;}i:306;a:3:{i:0;s:7:"p_close";i:1;a:0:{}i:2;i:17005;}i:307;a:3:{i:0;s:4:"code";i:1;a:3:{i:0;s:37:"
aplay -l >> aplay_computerModel.txt
";i:1;N;i:2;N;}i:2;i:17012;}i:308;a:3:{i:0;s:6:"p_open";i:1;a:0:{}i:2;i:17012;}i:309;a:3:{i:0;s:5:"cdata";i:1;a:1:{i:0;s:46:"should be performed, and the resulting files
(";}i:2;i:17059;}i:310;a:3:{i:0;s:14:"monospace_open";i:1;a:0:{}i:2;i:17105;}i:311;a:3:{i:0;s:5:"cdata";i:1;a:1:{i:0;s:5:"lspci";}i:2;i:17107;}i:312;a:3:{i:0;s:6:"plugin";i:1;a:4:{i:0;s:25:"markdowku_italicunderline";i:1;a:2:{i:0;i:1;i:1;s:1:"_";}i:2;i:1;i:3;s:1:"_";}i:2;i:17112;}i:313;a:3:{i:0;s:6:"plugin";i:1;a:4:{i:0;s:25:"markdowku_italicunderline";i:1;a:2:{i:0;i:3;i:1;s:17:"computerModel.txt";}i:2;i:3;i:3;s:17:"computerModel.txt";}i:2;i:17113;}i:314;a:3:{i:0;s:14:"monospace_open";i:1;a:0:{}i:2;i:17130;}i:315;a:3:{i:0;s:5:"cdata";i:1;a:1:{i:0;s:5:" and ";}i:2;i:17132;}i:316;a:3:{i:0;s:15:"monospace_close";i:1;a:0:{}i:2;i:17137;}i:317;a:3:{i:0;s:6:"plugin";i:1;a:4:{i:0;s:25:"markdowku_italicunderline";i:1;a:2:{i:0;i:3;i:1;s:5:"aplay";}i:2;i:3;i:3;s:5:"aplay";}i:2;i:17139;}i:318;a:3:{i:0;s:6:"plugin";i:1;a:4:{i:0;s:25:"markdowku_italicunderline";i:1;a:2:{i:0;i:4;i:1;s:1:"_";}i:2;i:4;i:3;s:1:"_";}i:2;i:17144;}i:319;a:3:{i:0;s:5:"cdata";i:1;a:1:{i:0;s:17:"computerModel.txt";}i:2;i:17145;}i:320;a:3:{i:0;s:15:"monospace_close";i:1;a:0:{}i:2;i:17162;}i:321;a:3:{i:0;s:5:"cdata";i:1;a:1:{i:0;s:56:") should be saved to a
thumbdrive for later review. The ";}i:2;i:17164;}i:322;a:3:{i:0;s:14:"monospace_open";i:1;a:0:{}i:2;i:17220;}i:323;a:3:{i:0;s:5:"cdata";i:1;a:1:{i:0;s:5:"lspci";}i:2;i:17222;}i:324;a:3:{i:0;s:15:"monospace_close";i:1;a:0:{}i:2;i:17227;}i:325;a:3:{i:0;s:5:"cdata";i:1;a:1:{i:0;s:148:" command lists all internal components such as the graphics card, amount of RAM, wireless card, and so on. Some
commands to bear in mind in general:";}i:2;i:17229;}i:326;a:3:{i:0;s:7:"p_close";i:1;a:0:{}i:2;i:17377;}i:327;a:3:{i:0;s:10:"listu_open";i:1;a:0:{}i:2;i:17377;}i:328;a:3:{i:0;s:13:"listitem_open";i:1;a:1:{i:0;i:1;}i:2;i:17377;}i:329;a:3:{i:0;s:16:"listcontent_open";i:1;a:0:{}i:2;i:17377;}i:330;a:3:{i:0;s:6:"plugin";i:1;a:4:{i:0;s:16:"markdowku_ulists";i:1;b:1;i:2;i:1;i:3;s:6:"

  * ";}i:2;i:17377;}i:331;a:3:{i:0;s:14:"monospace_open";i:1;a:0:{}i:2;i:17383;}i:332;a:3:{i:0;s:5:"cdata";i:1;a:1:{i:0;s:5:"lspci";}i:2;i:17385;}i:333;a:3:{i:0;s:15:"monospace_close";i:1;a:0:{}i:2;i:17390;}i:334;a:3:{i:0;s:5:"cdata";i:1;a:1:{i:0;s:77:" lists all major internal components including revision numbers and much more";}i:2;i:17392;}i:335;a:3:{i:0;s:6:"plugin";i:1;a:4:{i:0;s:16:"markdowku_ulists";i:1;b:1;i:2;i:3;i:3;s:77:" lists all major internal components including revision numbers and much more";}i:2;i:17392;}i:336;a:3:{i:0;s:17:"listcontent_close";i:1;a:0:{}i:2;i:17469;}i:337;a:3:{i:0;s:14:"listitem_close";i:1;a:0:{}i:2;i:17469;}i:338;a:3:{i:0;s:13:"listitem_open";i:1;a:1:{i:0;i:1;}i:2;i:17469;}i:339;a:3:{i:0;s:16:"listcontent_open";i:1;a:0:{}i:2;i:17469;}i:340;a:3:{i:0;s:6:"plugin";i:1;a:4:{i:0;s:16:"markdowku_ulists";i:1;b:1;i:2;i:2;i:3;s:5:"
  * ";}i:2;i:17469;}i:341;a:3:{i:0;s:14:"monospace_open";i:1;a:0:{}i:2;i:17474;}i:342;a:3:{i:0;s:5:"cdata";i:1;a:1:{i:0;s:17:"cat /proc/cpuinfo";}i:2;i:17476;}i:343;a:3:{i:0;s:15:"monospace_close";i:1;a:0:{}i:2;i:17493;}i:344;a:3:{i:0;s:5:"cdata";i:1;a:1:{i:0;s:32:" lists all details on the CPU(s)";}i:2;i:17495;}i:345;a:3:{i:0;s:6:"plugin";i:1;a:4:{i:0;s:16:"markdowku_ulists";i:1;b:1;i:2;i:3;i:3;s:32:" lists all details on the CPU(s)";}i:2;i:17495;}i:346;a:3:{i:0;s:17:"listcontent_close";i:1;a:0:{}i:2;i:17527;}i:347;a:3:{i:0;s:14:"listitem_close";i:1;a:0:{}i:2;i:17527;}i:348;a:3:{i:0;s:13:"listitem_open";i:1;a:1:{i:0;i:1;}i:2;i:17527;}i:349;a:3:{i:0;s:16:"listcontent_open";i:1;a:0:{}i:2;i:17527;}i:350;a:3:{i:0;s:6:"plugin";i:1;a:4:{i:0;s:16:"markdowku_ulists";i:1;b:1;i:2;i:2;i:3;s:5:"
  * ";}i:2;i:17527;}i:351;a:3:{i:0;s:14:"monospace_open";i:1;a:0:{}i:2;i:17532;}i:352;a:3:{i:0;s:5:"cdata";i:1;a:1:{i:0;s:7:"free -g";}i:2;i:17534;}i:353;a:3:{i:0;s:15:"monospace_close";i:1;a:0:{}i:2;i:17541;}i:354;a:3:{i:0;s:5:"cdata";i:1;a:1:{i:0;s:57:" reveals how much RAM is in the system in gigabytes, and ";}i:2;i:17543;}i:355;a:3:{i:0;s:6:"plugin";i:1;a:4:{i:0;s:16:"markdowku_ulists";i:1;b:1;i:2;i:3;i:3;s:57:" reveals how much RAM is in the system in gigabytes, and ";}i:2;i:17543;}i:356;a:3:{i:0;s:14:"monospace_open";i:1;a:0:{}i:2;i:17600;}i:357;a:3:{i:0;s:5:"cdata";i:1;a:1:{i:0;s:7:"free -m";}i:2;i:17602;}i:358;a:3:{i:0;s:15:"monospace_close";i:1;a:0:{}i:2;i:17609;}i:359;a:3:{i:0;s:5:"cdata";i:1;a:1:{i:0;s:29:" reveals the RAM in megabytes";}i:2;i:17611;}i:360;a:3:{i:0;s:6:"plugin";i:1;a:4:{i:0;s:16:"markdowku_ulists";i:1;b:1;i:2;i:3;i:3;s:29:" reveals the RAM in megabytes";}i:2;i:17611;}i:361;a:3:{i:0;s:17:"listcontent_close";i:1;a:0:{}i:2;i:17640;}i:362;a:3:{i:0;s:14:"listitem_close";i:1;a:0:{}i:2;i:17640;}i:363;a:3:{i:0;s:13:"listitem_open";i:1;a:1:{i:0;i:1;}i:2;i:17640;}i:364;a:3:{i:0;s:16:"listcontent_open";i:1;a:0:{}i:2;i:17640;}i:365;a:3:{i:0;s:6:"plugin";i:1;a:4:{i:0;s:16:"markdowku_ulists";i:1;b:1;i:2;i:2;i:3;s:5:"
  * ";}i:2;i:17640;}i:366;a:3:{i:0;s:14:"monospace_open";i:1;a:0:{}i:2;i:17645;}i:367;a:3:{i:0;s:5:"cdata";i:1;a:1:{i:0;s:5:"df -h";}i:2;i:17647;}i:368;a:3:{i:0;s:15:"monospace_close";i:1;a:0:{}i:2;i:17652;}i:369;a:3:{i:0;s:5:"cdata";i:1;a:1:{i:0;s:96:" reveals free disk space in human readable format; useful for checking the size of the harddrive";}i:2;i:17654;}i:370;a:3:{i:0;s:6:"plugin";i:1;a:4:{i:0;s:16:"markdowku_ulists";i:1;b:1;i:2;i:3;i:3;s:96:" reveals free disk space in human readable format; useful for checking the size of the harddrive";}i:2;i:17654;}i:371;a:3:{i:0;s:17:"listcontent_close";i:1;a:0:{}i:2;i:17750;}i:372;a:3:{i:0;s:14:"listitem_close";i:1;a:0:{}i:2;i:17750;}i:373;a:3:{i:0;s:11:"listu_close";i:1;a:0:{}i:2;i:17750;}i:374;a:3:{i:0;s:6:"plugin";i:1;a:4:{i:0;s:16:"markdowku_ulists";i:1;b:1;i:2;i:4;i:3;s:2:"

";}i:2;i:17750;}i:375;a:3:{i:0;s:13:"section_close";i:1;a:0:{}i:2;i:17753;}i:376;a:3:{i:0;s:6:"header";i:1;a:3:{i:0;s:18:"Desktop or Laptop?";i:1;i:2;i:2;i:17753;}i:2;i:17753;}i:377;a:3:{i:0;s:12:"section_open";i:1;a:1:{i:0;i:2;}i:2;i:17753;}i:378;a:3:{i:0;s:6:"p_open";i:1;a:0:{}i:2;i:17753;}i:379;a:3:{i:0;s:5:"cdata";i:1;a:1:{i:0;s:355:"It's financially advantageous for computer manufacturers to claim that their laptops are as powerful as traditional desktop computers; it encourages people to buy laptops, which feature lower-specs for higher prices. These claims seem
true at first glance. After all, if someone is editing a video clip on a laptop
then the marketing must have been right.";}i:2;i:17785;}i:380;a:3:{i:0;s:7:"p_close";i:1;a:0:{}i:2;i:18140;}i:381;a:3:{i:0;s:6:"p_open";i:1;a:0:{}i:2;i:18140;}i:382;a:3:{i:0;s:5:"cdata";i:1;a:1:{i:0;s:435:"The truth, of course, is that laptops have lower-specs than a desktop that is
even a fraction of its price, so for the same amount of money as one might
spend on a good laptop, a downright amazing desktop could be purchased. And for
every professional artist you see working on their masterpiece on a laptop in
either a glossy magazine ad or in a trendy cafe, there are ten real artists
working on actual productions at their desktops.";}i:2;i:18142;}i:383;a:3:{i:0;s:7:"p_close";i:1;a:0:{}i:2;i:18577;}i:384;a:3:{i:0;s:6:"p_open";i:1;a:0:{}i:2;i:18577;}i:385;a:3:{i:0;s:5:"cdata";i:1;a:1:{i:0;s:232:"If it is horsepower you seek, then you should invest in a desktop machine. If
you are more flexible with how much raw power you have at your immediate disposal and value mobility, then obviously a laptop is probably a better
choice.";}i:2;i:18579;}i:386;a:3:{i:0;s:7:"p_close";i:1;a:0:{}i:2;i:18811;}i:387;a:3:{i:0;s:13:"section_close";i:1;a:0:{}i:2;i:18813;}i:388;a:3:{i:0;s:6:"header";i:1;a:3:{i:0;s:24:"Building Your Own System";i:1;i:2;i:2;i:18813;}i:2;i:18813;}i:389;a:3:{i:0;s:12:"section_open";i:1;a:1:{i:0;i:2;}i:2;i:18813;}i:390;a:3:{i:0;s:6:"p_open";i:1;a:0:{}i:2;i:18813;}i:391;a:3:{i:0;s:5:"cdata";i:1;a:1:{i:0;s:273:"Building your own system from parts is the best possible option you have in terms of finances and control. Useless parts are not forced upon you, you can achieve a perfect balance of all the different features and capabilities you need, and there always room for expansion.";}i:2;i:18851;}i:392;a:3:{i:0;s:7:"p_close";i:1;a:0:{}i:2;i:19124;}i:393;a:3:{i:0;s:6:"p_open";i:1;a:0:{}i:2;i:19124;}i:394;a:3:{i:0;s:5:"cdata";i:1;a:1:{i:0;s:358:"A computer consists of a few main parts that can be bought individually from any good computer store. You must ensure that all of the parts fit together
properly, which can be tricky for beginners, but if you read the descriptions of the items carefully and match all of the part numbers and types together, then you will be able to assemble it with success.";}i:2;i:19126;}i:395;a:3:{i:0;s:7:"p_close";i:1;a:0:{}i:2;i:19484;}i:396;a:3:{i:0;s:6:"p_open";i:1;a:0:{}i:2;i:19484;}i:397;a:3:{i:0;s:5:"cdata";i:1;a:1:{i:0;s:52:"If you are unsure about what you've chosen, find an ";}i:2;i:19486;}i:398;a:3:{i:0;s:7:"acronym";i:1;a:1:{i:0;s:3:"IRC";}i:2;i:19538;}i:399;a:3:{i:0;s:5:"cdata";i:1;a:1:{i:0;s:127:" server where you can chat with Linux geeks, and ask them about the parts you've chosen. Slackermedia
itself maintains an open ";}i:2;i:19541;}i:400;a:3:{i:0;s:7:"acronym";i:1;a:1:{i:0;s:3:"IRC";}i:2;i:19668;}i:401;a:3:{i:0;s:5:"cdata";i:1;a:1:{i:0;s:16:" channel on the ";}i:2;i:19671;}i:402;a:3:{i:0;s:12:"externallink";i:1;a:2:{i:0;s:23:"http://irc.freenode.net";i:1;N;}i:2;i:19687;}i:403;a:3:{i:0;s:5:"cdata";i:1;a:1:{i:0;s:9:" network.";}i:2;i:19714;}i:404;a:3:{i:0;s:7:"p_close";i:1;a:0:{}i:2;i:19723;}i:405;a:3:{i:0;s:6:"p_open";i:1;a:0:{}i:2;i:19723;}i:406;a:3:{i:0;s:5:"cdata";i:1;a:1:{i:0;s:379:"Balancing cost with performance is obviously an eternal struggle. Keep in mind what you really want from your computer, and spend your money accordingly. For graphics and video, concentrate on the graphics card; for audio, lean toward
the CPU and RAM, and possibly an extra audio card or interface, and for writing, well, buy a second-hand netbook and save your money for coffee.";}i:2;i:19725;}i:407;a:3:{i:0;s:7:"p_close";i:1;a:0:{}i:2;i:20104;}i:408;a:3:{i:0;s:6:"p_open";i:1;a:0:{}i:2;i:20104;}i:409;a:3:{i:0;s:5:"cdata";i:1;a:1:{i:0;s:301:"In any case, consider purchasing an SSD drive (solid state harddrive) for your system. The performance increase is mind-boggling and a small 16gb or 32gb SSD drive can easily hold the system partitions for Slackware (that sounds small, but consider that Slackware itself is distributed on a 4.7 disc).";}i:2;i:20106;}i:410;a:3:{i:0;s:7:"p_close";i:1;a:0:{}i:2;i:20407;}i:411;a:3:{i:0;s:6:"p_open";i:1;a:0:{}i:2;i:20407;}i:412;a:3:{i:0;s:5:"cdata";i:1;a:1:{i:0;s:372:"In every case, try to re-use parts from other computers; if you can recycle an optical drive, save yourself the expense. Find an old keyboard you can use, pull a network card from a neighbour's discarded computer. Offer to rescue a
helpless Windows user's data in exchange for the parts of their dead computer.
Building your own box makes re-directing cashflow quite easy.";}i:2;i:20409;}i:413;a:3:{i:0;s:7:"p_close";i:1;a:0:{}i:2;i:20781;}i:414;a:3:{i:0;s:6:"p_open";i:1;a:0:{}i:2;i:20781;}i:415;a:3:{i:0;s:5:"cdata";i:1;a:1:{i:0;s:294:"Slackware's installation is menu-based and provides all the information needed to understand the process. This is not necessarily true with all operating system installers, or even with all Linux installers, but with Slackware, reading the screen makes the installation fairly self-explanatory.";}i:2;i:20783;}i:416;a:3:{i:0;s:7:"p_close";i:1;a:0:{}i:2;i:21077;}i:417;a:3:{i:0;s:6:"p_open";i:1;a:0:{}i:2;i:21077;}i:418;a:3:{i:0;s:5:"cdata";i:1;a:1:{i:0;s:175:"The following walk-through will explain how to do a normal, general-purpose Slackware install. If you require something more complex (hint: you probably
don't), then refer to ";}i:2;i:21079;}i:419;a:3:{i:0;s:12:"externallink";i:1;a:2:{i:0;s:25:"http://docs.slackware.com";i:1;N;}i:2;i:21254;}i:420;a:3:{i:0;s:5:"cdata";i:1;a:1:{i:0;s:1:".";}i:2;i:21283;}i:421;a:3:{i:0;s:7:"p_close";i:1;a:0:{}i:2;i:21284;}i:422;a:3:{i:0;s:6:"p_open";i:1;a:0:{}i:2;i:21284;}i:423;a:3:{i:0;s:5:"cdata";i:1;a:1:{i:0;s:330:"Installation of Slackware begins with obtaining a Slackware installation disc. Since an installation disc is a handy thing to have around, and since you'll likely find Slackware a priceless addition to your studio, purchase a disc from
the Slackware Store. If you cannot afford an install disc, it is also available
for free from ";}i:2;i:21286;}i:424;a:3:{i:0;s:12:"externallink";i:1;a:2:{i:0;s:20:"http://slackware.com";i:1;N;}i:2;i:21616;}i:425;a:3:{i:0;s:5:"cdata";i:1;a:1:{i:0;s:20:" or via bit torrent.";}i:2;i:21640;}i:426;a:3:{i:0;s:7:"p_close";i:1;a:0:{}i:2;i:21660;}i:427;a:3:{i:0;s:6:"p_open";i:1;a:0:{}i:2;i:21660;}i:428;a:3:{i:0;s:5:"cdata";i:1;a:1:{i:0;s:53:"<WARP alert>
Slackermedia officially advises against ";}i:2;i:21662;}i:429;a:3:{i:0;s:18:"doublequoteopening";i:1;a:0:{}i:2;i:21715;}i:430;a:3:{i:0;s:5:"cdata";i:1;a:1:{i:0;s:12:"dual booting";}i:2;i:21716;}i:431;a:3:{i:0;s:18:"doublequoteclosing";i:1;a:0:{}i:2;i:21728;}i:432;a:3:{i:0;s:5:"cdata";i:1;a:1:{i:0;s:252:", a somewhat popular method of having more than one operating system or versions of operating
systems on a single computer. Dual booting is fine for bug testing or trying out various versions of Linux, or for enabling a user to have both a
proprietary ";}i:2;i:21729;}i:433;a:3:{i:0;s:7:"acronym";i:1;a:1:{i:0;s:2:"OS";}i:2;i:21981;}i:434;a:3:{i:0;s:5:"cdata";i:1;a:1:{i:0;s:30:" needed for work and one free ";}i:2;i:21983;}i:435;a:3:{i:0;s:7:"acronym";i:1;a:1:{i:0;s:2:"OS";}i:2;i:22013;}i:436;a:3:{i:0;s:5:"cdata";i:1;a:1:{i:0;s:126:" for real life, but it tends to add confusion to the installation process as well as to the stability of the system since one ";}i:2;i:22015;}i:437;a:3:{i:0;s:7:"acronym";i:1;a:1:{i:0;s:2:"OS";}i:2;i:22141;}i:438;a:3:{i:0;s:5:"cdata";i:1;a:1:{i:0;s:83:" may attempt to change the master boot record unexpectedly, or a user of the other ";}i:2;i:22143;}i:439;a:3:{i:0;s:7:"acronym";i:1;a:1:{i:0;s:2:"OS";}i:2;i:22226;}i:440;a:3:{i:0;s:5:"cdata";i:1;a:1:{i:0;s:64:" may accidentally erase or corrupt another partition, and so on.";}i:2;i:22228;}i:441;a:3:{i:0;s:7:"p_close";i:1;a:0:{}i:2;i:22292;}i:442;a:3:{i:0;s:6:"p_open";i:1;a:0:{}i:2;i:22292;}i:443;a:3:{i:0;s:5:"cdata";i:1;a:1:{i:0;s:37:"Slackware works best when you simply ";}i:2;i:22294;}i:444;a:3:{i:0;s:12:"internallink";i:1;a:2:{i:0;s:10:"ref:mantra";i:1;s:16:"have faith in it";}i:2;i:22331;}i:445;a:3:{i:0;s:5:"cdata";i:1;a:1:{i:0;s:236:". Dual-booting provides a false sense of unnecessary security, and helps subconciously reinforce the idea that Slackware is too complex or too independent or not popular enough, or whatever subconscious fear you happen to have about it.";}i:2;i:22362;}i:446;a:3:{i:0;s:7:"p_close";i:1;a:0:{}i:2;i:22598;}i:447;a:3:{i:0;s:6:"p_open";i:1;a:0:{}i:2;i:22598;}i:448;a:3:{i:0;s:5:"cdata";i:1;a:1:{i:0;s:101:"Install Slackware and use it. Or don't. But don't hedge your bets and dilute your commitment.
</WARP>";}i:2;i:22600;}i:449;a:3:{i:0;s:7:"p_close";i:1;a:0:{}i:2;i:22701;}i:450;a:3:{i:0;s:6:"p_open";i:1;a:0:{}i:2;i:22701;}i:451;a:3:{i:0;s:5:"cdata";i:1;a:1:{i:0;s:161:"At $50, a complete operating system and a complete set of applications is not a bad price, and all the money goes to Slackware, so do consider paying if you can.";}i:2;i:22703;}i:452;a:3:{i:0;s:7:"p_close";i:1;a:0:{}i:2;i:22864;}i:453;a:3:{i:0;s:6:"p_open";i:1;a:0:{}i:2;i:22864;}i:454;a:3:{i:0;s:5:"cdata";i:1;a:1:{i:0;s:89:"After the Slackware install disc has been obtained, begin installation as with any other ";}i:2;i:22866;}i:455;a:3:{i:0;s:7:"acronym";i:1;a:1:{i:0;s:2:"OS";}i:2;i:22955;}i:456;a:3:{i:0;s:5:"cdata";i:1;a:1:{i:0;s:173:" or distribution: place the disc into your optical drive, and reboot the computer with BIOS or EFI settings such that the optical drive
precedes the harddrive in boot order.";}i:2;i:22957;}i:457;a:3:{i:0;s:7:"p_close";i:1;a:0:{}i:2;i:23130;}i:458;a:3:{i:0;s:13:"section_close";i:1;a:0:{}i:2;i:23133;}i:459;a:3:{i:0;s:6:"header";i:1;a:3:{i:0;s:20:"Motherboard Settings";i:1;i:2;i:2;i:23133;}i:2;i:23133;}i:460;a:3:{i:0;s:12:"section_open";i:1;a:1:{i:0;i:2;}i:2;i:23133;}i:461;a:3:{i:0;s:6:"p_open";i:1;a:0:{}i:2;i:23133;}i:462;a:3:{i:0;s:5:"cdata";i:1;a:1:{i:0;s:438:"There are dozens of motherboards on the market, and there is no way to cover
them all, but there are some general things to know about motherboard settings.
First of all, the settings of a motherboard can be modified by an embedded
firmware interface. By modifying the motherboard settings, you can activate or
deactivate features that will help your install go much smoother, and possibly
enable your computer to have better performance.";}i:2;i:23167;}i:463;a:3:{i:0;s:7:"p_close";i:1;a:0:{}i:2;i:23605;}i:464;a:3:{i:0;s:6:"p_open";i:1;a:0:{}i:2;i:23605;}i:465;a:3:{i:0;s:5:"cdata";i:1;a:1:{i:0;s:269:"<WARP alert>
Apple hardware locks down the motherboard firmware interface, making it inaccessible to the user. They have some snag keys that perform basic actions
(such as activating a verbose boot, or selecting a boot device) but mostly the user is locked out.
</WARP>";}i:2;i:23607;}i:466;a:3:{i:0;s:7:"p_close";i:1;a:0:{}i:2;i:23876;}i:467;a:3:{i:0;s:6:"p_open";i:1;a:0:{}i:2;i:23876;}i:468;a:3:{i:0;s:5:"cdata";i:1;a:1:{i:0;s:61:"To enter the firmware interface of a motherboard, there is a ";}i:2;i:23878;}i:469;a:3:{i:0;s:18:"doublequoteopening";i:1;a:0:{}i:2;i:23939;}i:470;a:3:{i:0;s:5:"cdata";i:1;a:1:{i:0;s:8:"snag key";}i:2;i:23940;}i:471;a:3:{i:0;s:18:"doublequoteclosing";i:1;a:0:{}i:2;i:23948;}i:472;a:3:{i:0;s:5:"cdata";i:1;a:1:{i:0;s:165:" that you must press just after powering up the computer. The snag key will probably be different depending on what motherboard your computer uses, but it's usually
";}i:2;i:23949;}i:473;a:3:{i:0;s:14:"monospace_open";i:1;a:0:{}i:2;i:24114;}i:474;a:3:{i:0;s:5:"cdata";i:1;a:1:{i:0;s:3:"Del";}i:2;i:24116;}i:475;a:3:{i:0;s:15:"monospace_close";i:1;a:0:{}i:2;i:24119;}i:476;a:3:{i:0;s:5:"cdata";i:1;a:1:{i:0;s:4:" or ";}i:2;i:24121;}i:477;a:3:{i:0;s:14:"monospace_open";i:1;a:0:{}i:2;i:24125;}i:478;a:3:{i:0;s:5:"cdata";i:1;a:1:{i:0;s:2:"F2";}i:2;i:24127;}i:479;a:3:{i:0;s:15:"monospace_close";i:1;a:0:{}i:2;i:24129;}i:480;a:3:{i:0;s:5:"cdata";i:1;a:1:{i:0;s:4:" or ";}i:2;i:24131;}i:481;a:3:{i:0;s:14:"monospace_open";i:1;a:0:{}i:2;i:24135;}i:482;a:3:{i:0;s:5:"cdata";i:1;a:1:{i:0;s:3:"Esc";}i:2;i:24137;}i:483;a:3:{i:0;s:15:"monospace_close";i:1;a:0:{}i:2;i:24140;}i:484;a:3:{i:0;s:5:"cdata";i:1;a:1:{i:0;s:110:". Refer to onscreen instructions if there are any, or to the
motherboard's documentation, if you are not sure.";}i:2;i:24142;}i:485;a:3:{i:0;s:7:"p_close";i:1;a:0:{}i:2;i:24252;}i:486;a:3:{i:0;s:6:"p_open";i:1;a:0:{}i:2;i:24252;}i:487;a:3:{i:0;s:5:"cdata";i:1;a:1:{i:0;s:97:"Available options vary from motherboard to motherboard, but these are important ones to look for:";}i:2;i:24254;}i:488;a:3:{i:0;s:7:"p_close";i:1;a:0:{}i:2;i:24351;}i:489;a:3:{i:0;s:10:"listu_open";i:1;a:0:{}i:2;i:24351;}i:490;a:3:{i:0;s:13:"listitem_open";i:1;a:1:{i:0;i:1;}i:2;i:24351;}i:491;a:3:{i:0;s:16:"listcontent_open";i:1;a:0:{}i:2;i:24351;}i:492;a:3:{i:0;s:6:"plugin";i:1;a:4:{i:0;s:16:"markdowku_ulists";i:1;b:1;i:2;i:1;i:3;s:6:"

  * ";}i:2;i:24351;}i:493;a:3:{i:0;s:5:"cdata";i:1;a:1:{i:0;s:20:"Motherboard Settings";}i:2;i:24357;}i:494;a:3:{i:0;s:6:"plugin";i:1;a:4:{i:0;s:16:"markdowku_ulists";i:1;b:1;i:2;i:3;i:3;s:20:"Motherboard Settings";}i:2;i:24357;}i:495;a:3:{i:0;s:17:"listcontent_close";i:1;a:0:{}i:2;i:24377;}i:496;a:3:{i:0;s:10:"listu_open";i:1;a:0:{}i:2;i:24377;}i:497;a:3:{i:0;s:13:"listitem_open";i:1;a:1:{i:0;i:2;}i:2;i:24377;}i:498;a:3:{i:0;s:16:"listcontent_open";i:1;a:0:{}i:2;i:24377;}i:499;a:3:{i:0;s:6:"plugin";i:1;a:4:{i:0;s:16:"markdowku_ulists";i:1;b:1;i:2;i:2;i:3;s:7:"
    * ";}i:2;i:24377;}i:500;a:3:{i:0;s:5:"cdata";i:1;a:1:{i:0;s:89:"Secure Boot: motherboards made around the time of Windows 8 may have the option of using ";}i:2;i:24384;}i:501;a:3:{i:0;s:6:"plugin";i:1;a:4:{i:0;s:16:"markdowku_ulists";i:1;b:1;i:2;i:3;i:3;s:89:"Secure Boot: motherboards made around the time of Windows 8 may have the option of using ";}i:2;i:24384;}i:502;a:3:{i:0;s:18:"doublequoteopening";i:1;a:0:{}i:2;i:24473;}i:503;a:3:{i:0;s:5:"cdata";i:1;a:1:{i:0;s:11:"Secure Boot";}i:2;i:24474;}i:504;a:3:{i:0;s:6:"plugin";i:1;a:4:{i:0;s:16:"markdowku_ulists";i:1;b:1;i:2;i:3;i:3;s:11:"Secure Boot";}i:2;i:24474;}i:505;a:3:{i:0;s:18:"doublequoteclosing";i:1;a:0:{}i:2;i:24485;}i:506;a:3:{i:0;s:5:"cdata";i:1;a:1:{i:0;s:42:" (on some boards, the option is rather to ";}i:2;i:24486;}i:507;a:3:{i:0;s:6:"plugin";i:1;a:4:{i:0;s:16:"markdowku_ulists";i:1;b:1;i:2;i:3;i:3;s:42:" (on some boards, the option is rather to ";}i:2;i:24486;}i:508;a:3:{i:0;s:13:"emphasis_open";i:1;a:0:{}i:2;i:24528;}i:509;a:3:{i:0;s:5:"cdata";i:1;a:1:{i:0;s:3:"not";}i:2;i:24530;}i:510;a:3:{i:0;s:14:"emphasis_close";i:1;a:0:{}i:2;i:24533;}i:511;a:3:{i:0;s:5:"cdata";i:1;a:1:{i:0;s:5:" use ";}i:2;i:24535;}i:512;a:3:{i:0;s:6:"plugin";i:1;a:4:{i:0;s:16:"markdowku_ulists";i:1;b:1;i:2;i:3;i:3;s:5:" use ";}i:2;i:24535;}i:513;a:3:{i:0;s:18:"doublequoteopening";i:1;a:0:{}i:2;i:24540;}i:514;a:3:{i:0;s:5:"cdata";i:1;a:1:{i:0;s:11:"Secure Boot";}i:2;i:24541;}i:515;a:3:{i:0;s:6:"plugin";i:1;a:4:{i:0;s:16:"markdowku_ulists";i:1;b:1;i:2;i:3;i:3;s:11:"Secure Boot";}i:2;i:24541;}i:516;a:3:{i:0;s:18:"doublequoteclosing";i:1;a:0:{}i:2;i:24552;}i:517;a:3:{i:0;s:5:"cdata";i:1;a:1:{i:0;s:3:"). ";}i:2;i:24553;}i:518;a:3:{i:0;s:6:"plugin";i:1;a:4:{i:0;s:16:"markdowku_ulists";i:1;b:1;i:2;i:3;i:3;s:3:"). ";}i:2;i:24553;}i:519;a:3:{i:0;s:18:"doublequoteopening";i:1;a:0:{}i:2;i:24556;}i:520;a:3:{i:0;s:5:"cdata";i:1;a:1:{i:0;s:11:"Secure Boot";}i:2;i:24557;}i:521;a:3:{i:0;s:6:"plugin";i:1;a:4:{i:0;s:16:"markdowku_ulists";i:1;b:1;i:2;i:3;i:3;s:11:"Secure Boot";}i:2;i:24557;}i:522;a:3:{i:0;s:18:"doublequoteclosing";i:1;a:0:{}i:2;i:24568;}i:523;a:3:{i:0;s:5:"cdata";i:1;a:1:{i:0;s:59:" should be deactivated, as it will treat any non-Microsoft ";}i:2;i:24569;}i:524;a:3:{i:0;s:6:"plugin";i:1;a:4:{i:0;s:16:"markdowku_ulists";i:1;b:1;i:2;i:3;i:3;s:59:" should be deactivated, as it will treat any non-Microsoft ";}i:2;i:24569;}i:525;a:3:{i:0;s:7:"acronym";i:1;a:1:{i:0;s:2:"OS";}i:2;i:24628;}i:526;a:3:{i:0;s:5:"cdata";i:1;a:1:{i:0;s:27:" as, more or less, a virus.";}i:2;i:24630;}i:527;a:3:{i:0;s:6:"plugin";i:1;a:4:{i:0;s:16:"markdowku_ulists";i:1;b:1;i:2;i:3;i:3;s:27:" as, more or less, a virus.";}i:2;i:24630;}i:528;a:3:{i:0;s:17:"listcontent_close";i:1;a:0:{}i:2;i:24657;}i:529;a:3:{i:0;s:14:"listitem_close";i:1;a:0:{}i:2;i:24657;}i:530;a:3:{i:0;s:13:"listitem_open";i:1;a:1:{i:0;i:2;}i:2;i:24657;}i:531;a:3:{i:0;s:16:"listcontent_open";i:1;a:0:{}i:2;i:24657;}i:532;a:3:{i:0;s:6:"plugin";i:1;a:4:{i:0;s:16:"markdowku_ulists";i:1;b:1;i:2;i:2;i:3;s:7:"
    * ";}i:2;i:24657;}i:533;a:3:{i:0;s:5:"cdata";i:1;a:1:{i:0;s:182:"Boot Order: this controls which drive gets priority when the computer gets powered on. Set it to look to the optical media first, then whatever drive you will be installing Linux to.";}i:2;i:24664;}i:534;a:3:{i:0;s:6:"plugin";i:1;a:4:{i:0;s:16:"markdowku_ulists";i:1;b:1;i:2;i:3;i:3;s:182:"Boot Order: this controls which drive gets priority when the computer gets powered on. Set it to look to the optical media first, then whatever drive you will be installing Linux to.";}i:2;i:24664;}i:535;a:3:{i:0;s:9:"linebreak";i:1;a:0:{}i:2;i:24846;}i:536;a:3:{i:0;s:5:"cdata";i:1;a:1:{i:0;s:1:"
";}i:2;i:24848;}i:537;a:3:{i:0;s:9:"linebreak";i:1;a:0:{}i:2;i:24849;}i:538;a:3:{i:0;s:5:"cdata";i:1;a:1:{i:0;s:97:"
You can usually override this setting manually, as well, with some other snag key at boot time (";}i:2;i:24851;}i:539;a:3:{i:0;s:6:"plugin";i:1;a:4:{i:0;s:16:"markdowku_ulists";i:1;b:1;i:2;i:3;i:3;s:96:"You can usually override this setting manually, as well, with some other snag key at boot time (";}i:2;i:24852;}i:540;a:3:{i:0;s:14:"monospace_open";i:1;a:0:{}i:2;i:24948;}i:541;a:3:{i:0;s:5:"cdata";i:1;a:1:{i:0;s:2:"F8";}i:2;i:24950;}i:542;a:3:{i:0;s:15:"monospace_close";i:1;a:0:{}i:2;i:24952;}i:543;a:3:{i:0;s:5:"cdata";i:1;a:1:{i:0;s:4:" or ";}i:2;i:24954;}i:544;a:3:{i:0;s:6:"plugin";i:1;a:4:{i:0;s:16:"markdowku_ulists";i:1;b:1;i:2;i:3;i:3;s:4:" or ";}i:2;i:24954;}i:545;a:3:{i:0;s:14:"monospace_open";i:1;a:0:{}i:2;i:24958;}i:546;a:3:{i:0;s:5:"cdata";i:1;a:1:{i:0;s:2:"F9";}i:2;i:24960;}i:547;a:3:{i:0;s:15:"monospace_close";i:1;a:0:{}i:2;i:24962;}i:548;a:3:{i:0;s:5:"cdata";i:1;a:1:{i:0;s:29:" seem to be popular choices).";}i:2;i:24964;}i:549;a:3:{i:0;s:6:"plugin";i:1;a:4:{i:0;s:16:"markdowku_ulists";i:1;b:1;i:2;i:3;i:3;s:29:" seem to be popular choices).";}i:2;i:24964;}i:550;a:3:{i:0;s:17:"listcontent_close";i:1;a:0:{}i:2;i:24993;}i:551;a:3:{i:0;s:14:"listitem_close";i:1;a:0:{}i:2;i:24993;}i:552;a:3:{i:0;s:13:"listitem_open";i:1;a:1:{i:0;i:2;}i:2;i:24993;}i:553;a:3:{i:0;s:16:"listcontent_open";i:1;a:0:{}i:2;i:24993;}i:554;a:3:{i:0;s:6:"plugin";i:1;a:4:{i:0;s:16:"markdowku_ulists";i:1;b:1;i:2;i:2;i:3;s:7:"
    * ";}i:2;i:24993;}i:555;a:3:{i:0;s:5:"cdata";i:1;a:1:{i:0;s:170:"Partition support: every motherboard seems to label this differently, so look for CSM Mode, IDE Mode, BIOS Legacy, or anything with options differentiating BIOS and UEFI.";}i:2;i:25000;}i:556;a:3:{i:0;s:6:"plugin";i:1;a:4:{i:0;s:16:"markdowku_ulists";i:1;b:1;i:2;i:3;i:3;s:170:"Partition support: every motherboard seems to label this differently, so look for CSM Mode, IDE Mode, BIOS Legacy, or anything with options differentiating BIOS and UEFI.";}i:2;i:25000;}i:557;a:3:{i:0;s:9:"linebreak";i:1;a:0:{}i:2;i:25170;}i:558;a:3:{i:0;s:5:"cdata";i:1;a:1:{i:0;s:1:"
";}i:2;i:25172;}i:559;a:3:{i:0;s:9:"linebreak";i:1;a:0:{}i:2;i:25173;}i:560;a:3:{i:0;s:5:"cdata";i:1;a:1:{i:0;s:94:"
There are, basically, two types of motherboards: those that use BIOS and those that use UEFI.";}i:2;i:25175;}i:561;a:3:{i:0;s:6:"plugin";i:1;a:4:{i:0;s:16:"markdowku_ulists";i:1;b:1;i:2;i:3;i:3;s:93:"There are, basically, two types of motherboards: those that use BIOS and those that use UEFI.";}i:2;i:25176;}i:562;a:3:{i:0;s:9:"linebreak";i:1;a:0:{}i:2;i:25269;}i:563;a:3:{i:0;s:5:"cdata";i:1;a:1:{i:0;s:1:"
";}i:2;i:25271;}i:564;a:3:{i:0;s:9:"linebreak";i:1;a:0:{}i:2;i:25272;}i:565;a:3:{i:0;s:5:"cdata";i:1;a:1:{i:0;s:382:"
If your motherboard uses BIOS, then you will use MBR partition headers, and will not be able to use any single drive that is larger than 2TB in size (you can RAID several drives together into an array greater than 2TB, but no single drive can be over 2TB due to limitations of MBR) UEFI motherboards can use the GPT (GUID) partition type, free of any pragmatic limit on drive size.";}i:2;i:25274;}i:566;a:3:{i:0;s:6:"plugin";i:1;a:4:{i:0;s:16:"markdowku_ulists";i:1;b:1;i:2;i:3;i:3;s:381:"If your motherboard uses BIOS, then you will use MBR partition headers, and will not be able to use any single drive that is larger than 2TB in size (you can RAID several drives together into an array greater than 2TB, but no single drive can be over 2TB due to limitations of MBR) UEFI motherboards can use the GPT (GUID) partition type, free of any pragmatic limit on drive size.";}i:2;i:25275;}i:567;a:3:{i:0;s:9:"linebreak";i:1;a:0:{}i:2;i:25656;}i:568;a:3:{i:0;s:5:"cdata";i:1;a:1:{i:0;s:1:"
";}i:2;i:25658;}i:569;a:3:{i:0;s:9:"linebreak";i:1;a:0:{}i:2;i:25659;}i:570;a:3:{i:0;s:5:"cdata";i:1;a:1:{i:0;s:92:"
UEFI motherboards usually have the option to also support MBR partitions (usually labelled ";}i:2;i:25661;}i:571;a:3:{i:0;s:6:"plugin";i:1;a:4:{i:0;s:16:"markdowku_ulists";i:1;b:1;i:2;i:3;i:3;s:91:"UEFI motherboards usually have the option to also support MBR partitions (usually labelled ";}i:2;i:25662;}i:572;a:3:{i:0;s:18:"doublequoteopening";i:1;a:0:{}i:2;i:25753;}i:573;a:3:{i:0;s:5:"cdata";i:1;a:1:{i:0;s:11:"legacy mode";}i:2;i:25754;}i:574;a:3:{i:0;s:6:"plugin";i:1;a:4:{i:0;s:16:"markdowku_ulists";i:1;b:1;i:2;i:3;i:3;s:11:"legacy mode";}i:2;i:25754;}i:575;a:3:{i:0;s:18:"doublequoteclosing";i:1;a:0:{}i:2;i:25765;}i:576;a:3:{i:0;s:5:"cdata";i:1;a:1:{i:0;s:2:").";}i:2;i:25766;}i:577;a:3:{i:0;s:6:"plugin";i:1;a:4:{i:0;s:16:"markdowku_ulists";i:1;b:1;i:2;i:3;i:3;s:2:").";}i:2;i:25766;}i:578;a:3:{i:0;s:9:"linebreak";i:1;a:0:{}i:2;i:25768;}i:579;a:3:{i:0;s:5:"cdata";i:1;a:1:{i:0;s:1:"
";}i:2;i:25770;}i:580;a:3:{i:0;s:9:"linebreak";i:1;a:0:{}i:2;i:25771;}i:581;a:3:{i:0;s:5:"cdata";i:1;a:1:{i:0;s:160:"
If you do not have a drive that is greater than 2TB, then you can use this mode. If you have a drive greater than 2TB then you must use the GPT partition type.";}i:2;i:25773;}i:582;a:3:{i:0;s:6:"plugin";i:1;a:4:{i:0;s:16:"markdowku_ulists";i:1;b:1;i:2;i:3;i:3;s:159:"If you do not have a drive that is greater than 2TB, then you can use this mode. If you have a drive greater than 2TB then you must use the GPT partition type.";}i:2;i:25774;}i:583;a:3:{i:0;s:17:"listcontent_close";i:1;a:0:{}i:2;i:25933;}i:584;a:3:{i:0;s:14:"listitem_close";i:1;a:0:{}i:2;i:25933;}i:585;a:3:{i:0;s:13:"listitem_open";i:1;a:1:{i:0;i:2;}i:2;i:25933;}i:586;a:3:{i:0;s:16:"listcontent_open";i:1;a:0:{}i:2;i:25933;}i:587;a:3:{i:0;s:6:"plugin";i:1;a:4:{i:0;s:16:"markdowku_ulists";i:1;b:1;i:2;i:2;i:3;s:7:"
    * ";}i:2;i:25933;}i:588;a:3:{i:0;s:5:"cdata";i:1;a:1:{i:0;s:157:"Date and Time: take note of the date and time settings on your motherboard. If they are incorrect, set them to either local time or to GMT (also called UTC).";}i:2;i:25940;}i:589;a:3:{i:0;s:6:"plugin";i:1;a:4:{i:0;s:16:"markdowku_ulists";i:1;b:1;i:2;i:3;i:3;s:157:"Date and Time: take note of the date and time settings on your motherboard. If they are incorrect, set them to either local time or to GMT (also called UTC).";}i:2;i:25940;}i:590;a:3:{i:0;s:6:"p_open";i:1;a:0:{}i:2;i:26097;}i:591;a:3:{i:0;s:5:"cdata";i:1;a:1:{i:0;s:1:" ";}i:2;i:26099;}i:592;a:3:{i:0;s:6:"plugin";i:1;a:4:{i:0;s:16:"markdowku_ulists";i:1;b:1;i:2;i:3;i:3;s:1:" ";}i:2;i:26099;}i:593;a:3:{i:0;s:6:"plugin";i:1;a:4:{i:0;s:6:"button";i:1;a:2:{i:0;i:1;i:1;a:10:{i:0;s:89:"[[{arrown.png|border:0;background:none;width:0;display:inline-block;float:right;}install|";s:5:"image";s:10:"arrown.png";i:1;s:10:"arrown.png";s:3:"css";s:66:"border:0;background:none;width:0;display:inline-block;float:right;";i:2;s:66:"border:0;background:none;width:0;display:inline-block;float:right;";s:4:"link";s:7:"install";i:3;s:7:"install";s:5:"title";s:0:"";i:4;s:0:"";s:6:"target";s:0:"";}}i:2;i:1;i:3;s:89:"[[{arrown.png|border:0;background:none;width:0;display:inline-block;float:right;}install|";}i:2;i:26100;}i:594;a:3:{i:0;s:6:"plugin";i:1;a:4:{i:0;s:6:"button";i:1;a:2:{i:0;i:4;i:1;s:0:"";}i:2;i:4;i:3;s:2:"]]";}i:2;i:26189;}i:595;a:3:{i:0;s:6:"plugin";i:1;a:4:{i:0;s:6:"button";i:1;a:2:{i:0;i:1;i:1;a:10:{i:0;s:66:"[[{arrowp.png|border:0;background:none;width:0;float:right;}intro|";s:5:"image";s:10:"arrowp.png";i:1;s:10:"arrowp.png";s:3:"css";s:45:"border:0;background:none;width:0;float:right;";i:2;s:45:"border:0;background:none;width:0;float:right;";s:4:"link";s:5:"intro";i:3;s:5:"intro";s:5:"title";s:0:"";i:4;s:0:"";s:6:"target";s:0:"";}}i:2;i:1;i:3;s:66:"[[{arrowp.png|border:0;background:none;width:0;float:right;}intro|";}i:2;i:26191;}i:596;a:3:{i:0;s:6:"plugin";i:1;a:4:{i:0;s:6:"button";i:1;a:2:{i:0;i:4;i:1;s:0:"";}i:2;i:4;i:3;s:2:"]]";}i:2;i:26257;}i:597;a:3:{i:0;s:7:"p_close";i:1;a:0:{}i:2;i:26257;}i:598;a:3:{i:0;s:17:"listcontent_close";i:1;a:0:{}i:2;i:26257;}i:599;a:3:{i:0;s:14:"listitem_close";i:1;a:0:{}i:2;i:26257;}i:600;a:3:{i:0;s:11:"listu_close";i:1;a:0:{}i:2;i:26257;}i:601;a:3:{i:0;s:14:"listitem_close";i:1;a:0:{}i:2;i:26257;}i:602;a:3:{i:0;s:11:"listu_close";i:1;a:0:{}i:2;i:26257;}i:603;a:3:{i:0;s:13:"section_close";i:1;a:0:{}i:2;i:26257;}i:604;a:3:{i:0;s:12:"document_end";i:1;a:0:{}i:2;i:26257;}}