<?xml version="1.0" encoding="UTF-8" standalone="no"?>
<!-- Created with Inkscape (http://www.inkscape.org/) -->

<svg
   xmlns:dc="http://purl.org/dc/elements/1.1/"
   xmlns:cc="http://creativecommons.org/ns#"
   xmlns:rdf="http://www.w3.org/1999/02/22-rdf-syntax-ns#"
   xmlns:svg="http://www.w3.org/2000/svg"
   xmlns="http://www.w3.org/2000/svg"
   xmlns:sodipodi="http://sodipodi.sourceforge.net/DTD/sodipodi-0.dtd"
   xmlns:inkscape="http://www.inkscape.org/namespaces/inkscape"
   width="90mm"
   height="50mm"
   viewBox="0 0 90 50"
   id="svg4168"
   version="1.1"
   inkscape:version="0.91 r13725"
   inkscape:export-filename="/home/sxe/boom/publishing.png"
   inkscape:export-xdpi="148.92"
   inkscape:export-ydpi="148.92"
   sodipodi:docname="publishing.svg">
  <defs
     id="defs3">
    <marker
       inkscape:isstock="true"
       style="overflow:visible;"
       id="marker5175"
       refX="0.0"
       refY="0.0"
       orient="auto"
       inkscape:stockid="Arrow1Lend">
      <path
         transform="scale(0.8) rotate(180) translate(12.5,0)"
         style="fill-rule:evenodd;stroke:#000000;stroke-width:1pt;stroke-opacity:1;fill:#000000;fill-opacity:1"
         d="M 0.0,0.0 L 5.0,-5.0 L -12.5,0.0 L 5.0,5.0 L 0.0,0.0 z "
         id="path5177" />
    </marker>
    <marker
       inkscape:stockid="Arrow1Lend"
       orient="auto"
       refY="0.0"
       refX="0.0"
       id="marker5135"
       style="overflow:visible;"
       inkscape:isstock="true"
       inkscape:collect="always">
      <path
         id="path5137"
         d="M 0.0,0.0 L 5.0,-5.0 L -12.5,0.0 L 5.0,5.0 L 0.0,0.0 z "
         style="fill-rule:evenodd;stroke:#000000;stroke-width:1pt;stroke-opacity:1;fill:#000000;fill-opacity:1"
         transform="scale(0.8) rotate(180) translate(12.5,0)" />
    </marker>
    <marker
       inkscape:isstock="true"
       style="overflow:visible;"
       id="marker5101"
       refX="0.0"
       refY="0.0"
       orient="auto"
       inkscape:stockid="Arrow1Lend"
       inkscape:collect="always">
      <path
         transform="scale(0.8) rotate(180) translate(12.5,0)"
         style="fill-rule:evenodd;stroke:#000000;stroke-width:1pt;stroke-opacity:1;fill:#000000;fill-opacity:1"
         d="M 0.0,0.0 L 5.0,-5.0 L -12.5,0.0 L 5.0,5.0 L 0.0,0.0 z "
         id="path5103" />
    </marker>
    <marker
       inkscape:stockid="Arrow1Lend"
       orient="auto"
       refY="0.0"
       refX="0.0"
       id="Arrow1Lend"
       style="overflow:visible;"
       inkscape:isstock="true"
       inkscape:collect="always">
      <path
         id="path4822"
         d="M 0.0,0.0 L 5.0,-5.0 L -12.5,0.0 L 5.0,5.0 L 0.0,0.0 z "
         style="fill-rule:evenodd;stroke:#000000;stroke-width:1pt;stroke-opacity:1;fill:#000000;fill-opacity:1"
         transform="scale(0.8) rotate(180) translate(12.5,0)" />
    </marker>
  </defs>
  <sodipodi:namedview
     id="base"
     pagecolor="#ffffff"
     bordercolor="#666666"
     borderopacity="1.0"
     inkscape:pageopacity="0.0"
     inkscape:pageshadow="2"
     inkscape:zoom="1.2"
     inkscape:cx="10.833333"
     inkscape:cy="69.583333"
     inkscape:document-units="mm"
     inkscape:current-layer="layer1"
     showgrid="false"
     inkscape:window-width="1920"
     inkscape:window-height="1026"
     inkscape:window-x="-2"
     inkscape:window-y="31"
     inkscape:window-maximized="1" />
  <metadata
     id="metadata4172">
    <rdf:RDF>
      <cc:Work
         rdf:about="">
        <dc:format>image/svg+xml</dc:format>
        <dc:type
           rdf:resource="http://purl.org/dc/dcmitype/StillImage" />
        <dc:title></dc:title>
      </cc:Work>
    </rdf:RDF>
  </metadata>
  <g
     inkscape:label="Layer 1"
     inkscape:groupmode="layer"
     id="layer1">
    <rect
       style="opacity:1;fill:#ededed;fill-opacity:1;stroke:#303030;stroke-width:0.99999994;stroke-linecap:round;stroke-linejoin:bevel;stroke-miterlimit:4;stroke-dasharray:none;stroke-dashoffset:0;stroke-opacity:1"
       id="rect4715"
       width="29.162966"
       height="35.277775"
       x="57.385189"
       y="8.1370354"
       ry="1.5863992" />
    <rect
       ry="0.74528044"
       y="4.7892842"
       x="4.2034187"
       height="16.573278"
       width="13.70058"
       id="rect4717"
       style="opacity:1;fill:#ededed;fill-opacity:1;stroke:#303030;stroke-width:0.46979374;stroke-linecap:round;stroke-linejoin:bevel;stroke-miterlimit:4;stroke-dasharray:none;stroke-dashoffset:0;stroke-opacity:1" />
    <rect
       ry="0.74528044"
       y="26.661507"
       x="31.955269"
       height="16.573278"
       width="13.70058"
       id="rect4721"
       style="opacity:1;fill:#ededed;fill-opacity:1;stroke:#303030;stroke-width:0.46979374;stroke-linecap:round;stroke-linejoin:bevel;stroke-miterlimit:4;stroke-dasharray:none;stroke-dashoffset:0;stroke-opacity:1" />
    <rect
       style="opacity:1;fill:#2e3436;fill-opacity:1;stroke:#303030;stroke-width:0.99999994;stroke-linecap:round;stroke-linejoin:bevel;stroke-miterlimit:4;stroke-dasharray:none;stroke-dashoffset:0;stroke-opacity:1"
       id="rect4725"
       width="11.288889"
       height="10.818518"
       x="5.4092588"
       y="6.4907403"
       ry="0"
       rx="0" />
    <rect
       style="opacity:1;fill:#ededed;fill-opacity:1;stroke:#303030;stroke-width:0.46979374;stroke-linecap:round;stroke-linejoin:bevel;stroke-miterlimit:4;stroke-dasharray:none;stroke-dashoffset:0;stroke-opacity:1"
       id="rect4723"
       width="13.70058"
       height="16.573278"
       x="24.899715"
       y="1.2615062"
       ry="0.74528044" />
    <path
       style="fill:none;fill-rule:evenodd;stroke:#000000;stroke-width:0.28222221px;stroke-linecap:butt;stroke-linejoin:miter;stroke-opacity:1"
       d="m 26.575926,3.6685183 9.407407,0"
       id="path4727"
       inkscape:connector-curvature="0" />
    <path
       inkscape:connector-curvature="0"
       id="path4729"
       d="m 26.575926,5.3618515 9.407407,0"
       style="fill:none;fill-rule:evenodd;stroke:#000000;stroke-width:0.28222221px;stroke-linecap:butt;stroke-linejoin:miter;stroke-opacity:1" />
    <path
       style="fill:none;fill-rule:evenodd;stroke:#000000;stroke-width:0.28222221px;stroke-linecap:butt;stroke-linejoin:miter;stroke-opacity:1"
       d="m 26.575926,7.0551847 9.407407,0"
       id="path4731"
       inkscape:connector-curvature="0" />
    <path
       inkscape:connector-curvature="0"
       id="path4733"
       d="m 26.575926,8.7485179 9.407407,0"
       style="fill:none;fill-rule:evenodd;stroke:#000000;stroke-width:0.28222221px;stroke-linecap:butt;stroke-linejoin:miter;stroke-opacity:1" />
    <path
       style="fill:none;fill-rule:evenodd;stroke:#000000;stroke-width:0.28222221px;stroke-linecap:butt;stroke-linejoin:miter;stroke-opacity:1"
       d="m 26.575926,10.441851 7.525926,0"
       id="path4735"
       inkscape:connector-curvature="0"
       sodipodi:nodetypes="cc" />
    <path
       inkscape:connector-curvature="0"
       id="path4737"
       d="m 26.575926,12.699627 9.407407,0"
       style="fill:none;fill-rule:evenodd;stroke:#000000;stroke-width:0.28222221px;stroke-linecap:butt;stroke-linejoin:miter;stroke-opacity:1" />
    <path
       style="fill:none;fill-rule:evenodd;stroke:#000000;stroke-width:0.28222221px;stroke-linecap:butt;stroke-linejoin:miter;stroke-opacity:1"
       d="m 26.575926,14.392959 9.407407,0"
       id="path4739"
       inkscape:connector-curvature="0" />
    <path
       inkscape:connector-curvature="0"
       id="path4741"
       d="m 26.575926,16.086291 4.938888,0"
       style="fill:none;fill-rule:evenodd;stroke:#000000;stroke-width:0.28222221px;stroke-linecap:butt;stroke-linejoin:miter;stroke-opacity:1"
       sodipodi:nodetypes="cc" />
    <g
       id="g4760"
       transform="translate(5.1740741,3.2925924)">
      <rect
         ry="0.74528044"
         y="25.485579"
         x="2.5571225"
         height="16.573278"
         width="13.70058"
         id="rect4719"
         style="opacity:1;fill:#ededed;fill-opacity:1;stroke:#303030;stroke-width:0.46979374;stroke-linecap:round;stroke-linejoin:bevel;stroke-miterlimit:4;stroke-dasharray:none;stroke-dashoffset:0;stroke-opacity:1" />
      <rect
         style="opacity:1;fill:#5c3566;fill-opacity:1;stroke:none;stroke-width:0.34930679;stroke-linecap:round;stroke-linejoin:bevel;stroke-miterlimit:4;stroke-dasharray:none;stroke-dashoffset:0;stroke-opacity:1"
         id="rect4754"
         width="3.9432857"
         height="3.7789819"
         x="3.6728013"
         y="26.708654"
         ry="0"
         rx="0" />
      <rect
         rx="0"
         ry="0"
         y="32.217415"
         x="4.2426705"
         height="5.9318366"
         width="9.4823351"
         id="rect4756"
         style="opacity:1;fill:#3465a4;fill-opacity:1;stroke:none;stroke-width:0.54830396;stroke-linecap:round;stroke-linejoin:bevel;stroke-miterlimit:4;stroke-dasharray:none;stroke-dashoffset:0;stroke-opacity:1" />
      <rect
         style="opacity:1;fill:#cc0000;fill-opacity:1;stroke:none;stroke-width:0.37606165;stroke-linecap:round;stroke-linejoin:bevel;stroke-miterlimit:4;stroke-dasharray:none;stroke-dashoffset:0;stroke-opacity:1"
         id="rect4758"
         width="4.2453184"
         height="12.535096"
         x="10.741735"
         y="27.192404"
         ry="0"
         rx="0" />
    </g>
    <text
       xml:space="preserve"
       style="font-style:normal;font-weight:normal;font-size:11.28888798px;line-height:125%;font-family:Sans;letter-spacing:0px;word-spacing:0px;fill:#000000;fill-opacity:1;stroke:none;stroke-width:1px;stroke-linecap:butt;stroke-linejoin:miter;stroke-opacity:1"
       x="10.348147"
       y="49.529629"
       id="text4766"
       sodipodi:linespacing="125%"><tspan
         sodipodi:role="line"
         id="tspan4768"
         x="10.348147"
         y="49.529629"
         style="font-size:4.58611107px">Ads</tspan></text>
    <text
       sodipodi:linespacing="125%"
       id="text4770"
       y="25.540741"
       x="3.5277767"
       style="font-style:normal;font-weight:normal;font-size:11.28888798px;line-height:125%;font-family:Sans;letter-spacing:0px;word-spacing:0px;fill:#000000;fill-opacity:1;stroke:none;stroke-width:1px;stroke-linecap:butt;stroke-linejoin:miter;stroke-opacity:1"
       xml:space="preserve"><tspan
         style="font-size:4.58611107px"
         y="25.540741"
         x="3.5277767"
         id="tspan4772"
         sodipodi:role="line">Photos</tspan></text>
    <text
       xml:space="preserve"
       style="font-style:normal;font-weight:normal;font-size:11.28888798px;line-height:125%;font-family:Sans;letter-spacing:0px;word-spacing:0px;fill:#000000;fill-opacity:1;stroke:none;stroke-width:1px;stroke-linecap:butt;stroke-linejoin:miter;stroke-opacity:1"
       x="23.988888"
       y="22.248148"
       id="text4774"
       sodipodi:linespacing="125%"><tspan
         sodipodi:role="line"
         id="tspan4776"
         x="23.988888"
         y="22.248148"
         style="font-size:4.58611107px">Articles</tspan></text>
    <text
       sodipodi:linespacing="125%"
       id="text4778"
       y="47.648144"
       x="31.514814"
       style="font-style:normal;font-weight:normal;font-size:11.28888798px;line-height:125%;font-family:Sans;letter-spacing:0px;word-spacing:0px;fill:#000000;fill-opacity:1;stroke:none;stroke-width:1px;stroke-linecap:butt;stroke-linejoin:miter;stroke-opacity:1"
       xml:space="preserve"><tspan
         style="font-size:4.58611107px"
         y="47.648144"
         x="31.514814"
         id="tspan4780"
         sodipodi:role="line">Op Ed</tspan></text>
    <path
       inkscape:connector-curvature="0"
       id="path4791"
       d="m 33.631482,28.598146 9.407407,0"
       style="fill:none;fill-rule:evenodd;stroke:#000000;stroke-width:0.28222221px;stroke-linecap:butt;stroke-linejoin:miter;stroke-opacity:1" />
    <path
       style="fill:none;fill-rule:evenodd;stroke:#000000;stroke-width:0.28222221px;stroke-linecap:butt;stroke-linejoin:miter;stroke-opacity:1"
       d="m 33.631482,30.29148 9.407407,0"
       id="path4793"
       inkscape:connector-curvature="0" />
    <path
       inkscape:connector-curvature="0"
       id="path4795"
       d="m 33.631482,31.984813 9.407407,0"
       style="fill:none;fill-rule:evenodd;stroke:#000000;stroke-width:0.28222221px;stroke-linecap:butt;stroke-linejoin:miter;stroke-opacity:1" />
    <path
       style="fill:none;fill-rule:evenodd;stroke:#000000;stroke-width:0.28222221px;stroke-linecap:butt;stroke-linejoin:miter;stroke-opacity:1"
       d="m 33.631482,33.678146 9.407407,0"
       id="path4797"
       inkscape:connector-curvature="0" />
    <path
       sodipodi:nodetypes="cc"
       inkscape:connector-curvature="0"
       id="path4799"
       d="m 33.631482,35.371479 7.525926,0"
       style="fill:none;fill-rule:evenodd;stroke:#000000;stroke-width:0.28222221px;stroke-linecap:butt;stroke-linejoin:miter;stroke-opacity:1" />
    <path
       style="fill:none;fill-rule:evenodd;stroke:#000000;stroke-width:0.28222221px;stroke-linecap:butt;stroke-linejoin:miter;stroke-opacity:1"
       d="m 33.631482,37.629255 9.407407,0"
       id="path4801"
       inkscape:connector-curvature="0" />
    <path
       inkscape:connector-curvature="0"
       id="path4803"
       d="m 33.631482,39.322587 9.407407,0"
       style="fill:none;fill-rule:evenodd;stroke:#000000;stroke-width:0.28222221px;stroke-linecap:butt;stroke-linejoin:miter;stroke-opacity:1" />
    <path
       sodipodi:nodetypes="cc"
       style="fill:none;fill-rule:evenodd;stroke:#000000;stroke-width:0.28222221px;stroke-linecap:butt;stroke-linejoin:miter;stroke-opacity:1"
       d="m 33.631482,41.015919 4.938888,0"
       id="path4805"
       inkscape:connector-curvature="0" />
    <path
       style="fill:none;fill-rule:evenodd;stroke:#000000;stroke-width:0.28222221px;stroke-linecap:butt;stroke-linejoin:miter;stroke-opacity:1;marker-end:url(#marker5101)"
       d="m 19.05,13.31111 c 12.042963,0.888469 23.312958,1.23586 41.392593,6.349999"
       id="path4807"
       inkscape:connector-curvature="0"
       sodipodi:nodetypes="cc" />
    <path
       style="fill:none;fill-rule:evenodd;stroke:#000000;stroke-width:0.28222221px;stroke-linecap:butt;stroke-linejoin:miter;stroke-opacity:1;marker-end:url(#marker5175)"
       d="m 22.577778,39.887034 c 34.523367,-1.646296 24.55725,-5.409259 37.864815,-4.938889 l 0,0"
       id="path4809"
       inkscape:connector-curvature="0"
       sodipodi:nodetypes="ccc" />
    <path
       style="fill:none;fill-rule:evenodd;stroke:#000000;stroke-width:0.28222221px;stroke-linecap:butt;stroke-linejoin:miter;stroke-opacity:1;marker-end:url(#marker5135)"
       d="m 47.977777,34.007405 c 3.920548,-9.843876 12.81996,-3.755391 19.520372,-4.703704 l 0,0"
       id="path4811"
       inkscape:connector-curvature="0"
       sodipodi:nodetypes="ccc" />
    <path
       style="fill:none;fill-rule:evenodd;stroke:#000000;stroke-width:0.28199998;stroke-linecap:butt;stroke-linejoin:miter;stroke-miterlimit:4;stroke-dasharray:none;stroke-opacity:1;marker-end:url(#Arrow1Lend)"
       d="m 41.392593,10.488888 c 9.490615,-2.1775208 17.022679,4.458439 25.4,7.29074"
       id="path4813"
       inkscape:connector-curvature="0"
       sodipodi:nodetypes="cc" />
    <path
       inkscape:connector-curvature="0"
       id="path6109"
       d="m 59.501852,10.959259 23.988889,0"
       style="fill:none;fill-rule:evenodd;stroke:#000000;stroke-width:0.45067275px;stroke-linecap:butt;stroke-linejoin:miter;stroke-opacity:1" />
    <path
       style="fill:none;fill-rule:evenodd;stroke:#000000;stroke-width:0.45067275px;stroke-linecap:butt;stroke-linejoin:miter;stroke-opacity:1"
       d="m 59.501852,12.652592 23.988889,0"
       id="path6111"
       inkscape:connector-curvature="0" />
    <path
       inkscape:connector-curvature="0"
       id="path6113"
       d="m 59.501852,14.345925 23.988889,0"
       style="fill:none;fill-rule:evenodd;stroke:#000000;stroke-width:0.45067275px;stroke-linecap:butt;stroke-linejoin:miter;stroke-opacity:1" />
    <path
       style="fill:none;fill-rule:evenodd;stroke:#000000;stroke-width:0.45067275px;stroke-linecap:butt;stroke-linejoin:miter;stroke-opacity:1"
       d="m 59.501852,16.039258 23.988889,0"
       id="path6115"
       inkscape:connector-curvature="0" />
    <path
       sodipodi:nodetypes="cc"
       inkscape:connector-curvature="0"
       id="path6117"
       d="m 59.501852,17.732591 19.191112,0"
       style="fill:none;fill-rule:evenodd;stroke:#000000;stroke-width:0.45067275px;stroke-linecap:butt;stroke-linejoin:miter;stroke-opacity:1" />
    <path
       style="fill:none;fill-rule:evenodd;stroke:#000000;stroke-width:0.45067275px;stroke-linecap:butt;stroke-linejoin:miter;stroke-opacity:1"
       d="m 59.501852,19.990367 23.988889,0"
       id="path6119"
       inkscape:connector-curvature="0" />
    <path
       inkscape:connector-curvature="0"
       id="path6121"
       d="m 59.501852,21.683699 23.988889,0"
       style="fill:none;fill-rule:evenodd;stroke:#000000;stroke-width:0.45067275px;stroke-linecap:butt;stroke-linejoin:miter;stroke-opacity:1" />
    <path
       sodipodi:nodetypes="cc"
       style="fill:none;fill-rule:evenodd;stroke:#000000;stroke-width:0.45067275px;stroke-linecap:butt;stroke-linejoin:miter;stroke-opacity:1"
       d="m 59.501852,23.377031 12.594165,0"
       id="path6123"
       inkscape:connector-curvature="0" />
    <rect
       style="opacity:1;fill:#3465a4;fill-opacity:1;stroke:none;stroke-width:0.99921262;stroke-linecap:round;stroke-linejoin:bevel;stroke-miterlimit:4;stroke-dasharray:none;stroke-dashoffset:0;stroke-opacity:1"
       id="rect6125"
       width="11.053704"
       height="18.109257"
       x="72.90741"
       y="23.188887"
       ry="0.7452811" />
    <path
       inkscape:connector-curvature="0"
       id="path6127"
       d="m 59.501852,25.775924 11.524074,0"
       style="fill:none;fill-rule:evenodd;stroke:#000000;stroke-width:0.31236276px;stroke-linecap:butt;stroke-linejoin:miter;stroke-opacity:1" />
    <path
       style="fill:none;fill-rule:evenodd;stroke:#000000;stroke-width:0.31236276px;stroke-linecap:butt;stroke-linejoin:miter;stroke-opacity:1"
       d="m 59.501852,27.469258 11.524074,0"
       id="path6129"
       inkscape:connector-curvature="0" />
    <path
       inkscape:connector-curvature="0"
       id="path6131"
       d="m 59.501852,29.162591 11.524074,0"
       style="fill:none;fill-rule:evenodd;stroke:#000000;stroke-width:0.31236276px;stroke-linecap:butt;stroke-linejoin:miter;stroke-opacity:1" />
    <path
       style="fill:none;fill-rule:evenodd;stroke:#000000;stroke-width:0.31236276px;stroke-linecap:butt;stroke-linejoin:miter;stroke-opacity:1"
       d="m 59.501852,30.855924 11.524074,0"
       id="path6133"
       inkscape:connector-curvature="0" />
    <path
       sodipodi:nodetypes="cc"
       inkscape:connector-curvature="0"
       id="path6135"
       d="m 59.501852,32.549257 9.219259,0"
       style="fill:none;fill-rule:evenodd;stroke:#000000;stroke-width:0.31236276px;stroke-linecap:butt;stroke-linejoin:miter;stroke-opacity:1" />
    <rect
       style="opacity:1;fill:#cc0000;fill-opacity:1;stroke:none;stroke-width:0.99921262;stroke-linecap:round;stroke-linejoin:bevel;stroke-miterlimit:4;stroke-dasharray:none;stroke-dashoffset:0;stroke-opacity:1"
       id="rect6137"
       width="11.759259"
       height="6.8203697"
       x="59.737038"
       y="34.477776"
       ry="0.7452811" />
  </g>
</svg>
