a:558:{i:0;a:3:{i:0;s:14:"document_start";i:1;a:0:{}i:2;i:0;}i:1;a:3:{i:0;s:6:"p_open";i:1;a:0:{}i:2;i:0;}i:2;a:3:{i:0;s:6:"plugin";i:1;a:4:{i:0;s:6:"button";i:1;a:2:{i:0;i:1;i:1;a:10:{i:0;s:108:"[[{arrowp.png|border:0;background:none;width:0;display:inline-block;position:absolute;top:0;left:0;}install|";s:5:"image";s:10:"arrowp.png";i:1;s:10:"arrowp.png";s:3:"css";s:85:"border:0;background:none;width:0;display:inline-block;position:absolute;top:0;left:0;";i:2;s:85:"border:0;background:none;width:0;display:inline-block;position:absolute;top:0;left:0;";s:4:"link";s:7:"install";i:3;s:7:"install";s:5:"title";s:0:"";i:4;s:0:"";s:6:"target";s:0:"";}}i:2;i:1;i:3;s:108:"[[{arrowp.png|border:0;background:none;width:0;display:inline-block;position:absolute;top:0;left:0;}install|";}i:2;i:1;}i:3;a:3:{i:0;s:6:"plugin";i:1;a:4:{i:0;s:6:"button";i:1;a:2:{i:0;i:4;i:1;s:0:"";}i:2;i:4;i:3;s:2:"]]";}i:2;i:109;}i:4;a:3:{i:0;s:7:"p_close";i:1;a:0:{}i:2;i:111;}i:5;a:3:{i:0;s:6:"p_open";i:1;a:0:{}i:2;i:111;}i:6;a:3:{i:0;s:6:"plugin";i:1;a:4:{i:0;s:6:"button";i:1;a:2:{i:0;i:1;i:1;a:10:{i:0;s:122:"[[{arrown.png|border:0;background:none;width:0;display:inline-block;position:absolute;top:0;margin-left:2.5em;}linuxaudio|";s:5:"image";s:10:"arrown.png";i:1;s:10:"arrown.png";s:3:"css";s:96:"border:0;background:none;width:0;display:inline-block;position:absolute;top:0;margin-left:2.5em;";i:2;s:96:"border:0;background:none;width:0;display:inline-block;position:absolute;top:0;margin-left:2.5em;";s:4:"link";s:10:"linuxaudio";i:3;s:10:"linuxaudio";s:5:"title";s:0:"";i:4;s:0:"";s:6:"target";s:0:"";}}i:2;i:1;i:3;s:122:"[[{arrown.png|border:0;background:none;width:0;display:inline-block;position:absolute;top:0;margin-left:2.5em;}linuxaudio|";}i:2;i:113;}i:7;a:3:{i:0;s:6:"plugin";i:1;a:4:{i:0;s:6:"button";i:1;a:2:{i:0;i:4;i:1;s:0:"";}i:2;i:4;i:3;s:2:"]]";}i:2;i:235;}i:8;a:3:{i:0;s:7:"p_close";i:1;a:0:{}i:2;i:237;}i:9;a:3:{i:0;s:6:"header";i:1;a:3:{i:0;s:10:"User Space";i:1;i:1;i:2;i:240;}i:2;i:240;}i:10;a:3:{i:0;s:12:"section_open";i:1;a:1:{i:0;i:1;}i:2;i:240;}i:11;a:3:{i:0;s:6:"p_open";i:1;a:0:{}i:2;i:240;}i:12;a:3:{i:0;s:5:"cdata";i:1;a:1:{i:0;s:165:"After the installation has finished and you have rebooted. Login to the new
system as root with the password that you set, and set about configuring your
new system.";}i:2;i:266;}i:13;a:3:{i:0;s:7:"p_close";i:1;a:0:{}i:2;i:431;}i:14;a:3:{i:0;s:6:"p_open";i:1;a:0:{}i:2;i:431;}i:15;a:3:{i:0;s:5:"cdata";i:1;a:1:{i:0;s:209:"First, so that you can get into a graphical environment to do this job, create
at least one user (assuming that you are the only user on your system, you need
only create one). Slackware ships with the script ";}i:2;i:433;}i:16;a:3:{i:0;s:14:"monospace_open";i:1;a:0:{}i:2;i:642;}i:17;a:3:{i:0;s:5:"cdata";i:1;a:1:{i:0;s:7:"adduser";}i:2;i:644;}i:18;a:3:{i:0;s:15:"monospace_close";i:1;a:0:{}i:2;i:651;}i:19;a:3:{i:0;s:5:"cdata";i:1;a:1:{i:0;s:86:" for creating new
users, making the process interactive. In fact, as of Slackware 13, ";}i:2;i:653;}i:20;a:3:{i:0;s:14:"monospace_open";i:1;a:0:{}i:2;i:739;}i:21;a:3:{i:0;s:5:"cdata";i:1;a:1:{i:0;s:7:"adduser";}i:2;i:741;}i:22;a:3:{i:0;s:15:"monospace_close";i:1;a:0:{}i:2;i:748;}i:23;a:3:{i:0;s:5:"cdata";i:1;a:1:{i:0;s:203:"
even offers to place a new user in the appropriate groups that will enable the
user to access important multimedia components such as audio, video, optical
media, and so on, so take it up on that offer.";}i:2;i:750;}i:24;a:3:{i:0;s:7:"p_close";i:1;a:0:{}i:2;i:953;}i:25;a:3:{i:0;s:6:"p_open";i:1;a:0:{}i:2;i:953;}i:26;a:3:{i:0;s:14:"monospace_open";i:1;a:0:{}i:2;i:955;}i:27;a:3:{i:0;s:5:"cdata";i:1;a:1:{i:0;s:7:"adduser";}i:2;i:957;}i:28;a:3:{i:0;s:15:"monospace_close";i:1;a:0:{}i:2;i:964;}i:29;a:3:{i:0;s:5:"cdata";i:1;a:1:{i:0;s:29:" allows you to customise the ";}i:2;i:966;}i:30;a:3:{i:0;s:6:"plugin";i:1;a:4:{i:0;s:22:"markdowku_boldasterisk";i:1;a:2:{i:0;i:1;i:1;s:2:"**";}i:2;i:1;i:3;s:2:"**";}i:2;i:995;}i:31;a:3:{i:0;s:6:"plugin";i:1;a:4:{i:0;s:22:"markdowku_boldasterisk";i:1;a:2:{i:0;i:3;i:1;s:3:"UID";}i:2;i:3;i:3;s:3:"UID";}i:2;i:997;}i:32;a:3:{i:0;s:6:"plugin";i:1;a:4:{i:0;s:22:"markdowku_boldasterisk";i:1;a:2:{i:0;i:4;i:1;s:2:"**";}i:2;i:4;i:3;s:2:"**";}i:2;i:1000;}i:33;a:3:{i:0;s:5:"cdata";i:1;a:1:{i:0;s:265:" (User ID) of the user you create. If you use other GNU or BSD systems, you probably want to make your UID and
username the same on your Slackermedia system as on your other systems, simply
to avoid small but annoying permission problems when using external drives.";}i:2;i:1002;}i:34;a:3:{i:0;s:7:"p_close";i:1;a:0:{}i:2;i:1267;}i:35;a:3:{i:0;s:6:"p_open";i:1;a:0:{}i:2;i:1267;}i:36;a:3:{i:0;s:5:"cdata";i:1;a:1:{i:0;s:53:"After creating a user, start a graphical environment:";}i:2;i:1269;}i:37;a:3:{i:0;s:7:"p_close";i:1;a:0:{}i:2;i:1322;}i:38;a:3:{i:0;s:4:"code";i:1;a:3:{i:0;s:13:"
# kdm; exit
";i:1;N;i:2;N;}i:2;i:1329;}i:39;a:3:{i:0;s:6:"p_open";i:1;a:0:{}i:2;i:1329;}i:40;a:3:{i:0;s:5:"cdata";i:1;a:1:{i:0;s:61:"At the graphical prompt, log in as the user you just created.";}i:2;i:1352;}i:41;a:3:{i:0;s:7:"p_close";i:1;a:0:{}i:2;i:1413;}i:42;a:3:{i:0;s:13:"section_close";i:1;a:0:{}i:2;i:1416;}i:43;a:3:{i:0;s:6:"header";i:1;a:3:{i:0;s:26:"Boot to Desktop by Default";i:1;i:2;i:2;i:1416;}i:2;i:1416;}i:44;a:3:{i:0;s:12:"section_open";i:1;a:1:{i:0;i:2;}i:2;i:1416;}i:45;a:3:{i:0;s:6:"p_open";i:1;a:0:{}i:2;i:1416;}i:46;a:3:{i:0;s:5:"cdata";i:1;a:1:{i:0;s:162:"Since not all Slackware users actually use a graphical environment, Slackware
boots to a text console by default. You can keep this behaviour, issuing the
command";}i:2;i:1456;}i:47;a:3:{i:0;s:7:"p_close";i:1;a:0:{}i:2;i:1618;}i:48;a:3:{i:0;s:4:"code";i:1;a:3:{i:0;s:13:"
# kdm; exit
";i:1;N;i:2;N;}i:2;i:1625;}i:49;a:3:{i:0;s:6:"p_open";i:1;a:0:{}i:2;i:1625;}i:50;a:3:{i:0;s:5:"cdata";i:1;a:1:{i:0;s:275:"every time you want to use your computer (if you have nosey housemates, there
is admittedly nothing quite as intimidating as a computer that looks like it's
broken every time it boots), or you can alter one configuration file and have
Slackware start up a desktop by default.";}i:2;i:1648;}i:51;a:3:{i:0;s:7:"p_close";i:1;a:0:{}i:2;i:1923;}i:52;a:3:{i:0;s:6:"p_open";i:1;a:0:{}i:2;i:1923;}i:53;a:3:{i:0;s:5:"cdata";i:1;a:1:{i:0;s:61:"To change the boot behaviour, open a terminal and change the ";}i:2;i:1925;}i:54;a:3:{i:0;s:6:"plugin";i:1;a:4:{i:0;s:22:"markdowku_boldasterisk";i:1;a:2:{i:0;i:1;i:1;s:2:"**";}i:2;i:1;i:3;s:2:"**";}i:2;i:1986;}i:55;a:3:{i:0;s:6:"plugin";i:1;a:4:{i:0;s:22:"markdowku_boldasterisk";i:1;a:2:{i:0;i:3;i:1;s:9:"initlevel";}i:2;i:3;i:3;s:9:"initlevel";}i:2;i:1988;}i:56;a:3:{i:0;s:6:"plugin";i:1;a:4:{i:0;s:22:"markdowku_boldasterisk";i:1;a:2:{i:0;i:4;i:1;s:2:"**";}i:2;i:4;i:3;s:2:"**";}i:2;i:1997;}i:57;a:3:{i:0;s:5:"cdata";i:1;a:1:{i:0;s:71:" from 3
(text console, or TTY, mode) to a 4 (the mode which launches a ";}i:2;i:1999;}i:58;a:3:{i:0;s:7:"acronym";i:1;a:1:{i:0;s:3:"GUI";}i:2;i:2070;}i:59;a:3:{i:0;s:5:"cdata";i:1;a:1:{i:0;s:25:" login
screen) with this ";}i:2;i:2073;}i:60;a:3:{i:0;s:14:"monospace_open";i:1;a:0:{}i:2;i:2098;}i:61;a:3:{i:0;s:5:"cdata";i:1;a:1:{i:0;s:3:"sed";}i:2;i:2100;}i:62;a:3:{i:0;s:15:"monospace_close";i:1;a:0:{}i:2;i:2103;}i:63;a:3:{i:0;s:5:"cdata";i:1;a:1:{i:0;s:9:" command:";}i:2;i:2105;}i:64;a:3:{i:0;s:7:"p_close";i:1;a:0:{}i:2;i:2114;}i:65;a:3:{i:0;s:4:"code";i:1;a:3:{i:0;s:50:"
$ su -c 'sed -i "s%init:3%init:4%" /etc/inittab'
";i:1;N;i:2;N;}i:2;i:2121;}i:66;a:3:{i:0;s:6:"p_open";i:1;a:0:{}i:2;i:2121;}i:67;a:3:{i:0;s:5:"cdata";i:1;a:1:{i:0;s:138:"From now on, when you boot up Slackware, the desktop login prompt will be
launched automatically after the usual boot process is complete.";}i:2;i:2181;}i:68;a:3:{i:0;s:7:"p_close";i:1;a:0:{}i:2;i:2319;}i:69;a:3:{i:0;s:13:"section_close";i:1;a:0:{}i:2;i:2322;}i:70;a:3:{i:0;s:6:"header";i:1;a:3:{i:0;s:34:"Login to the Desktop Automatically";i:1;i:2;i:2;i:2322;}i:2;i:2322;}i:71;a:3:{i:0;s:12:"section_open";i:1;a:1:{i:0;i:2;}i:2;i:2322;}i:72;a:3:{i:0;s:6:"p_open";i:1;a:0:{}i:2;i:2322;}i:73;a:3:{i:0;s:5:"cdata";i:1;a:1:{i:0;s:178:"The KDE desktop makes allowances for automatic login, so that you are able to
boot your computer and be dropped straight into your desktop rather than having
to log in each time.";}i:2;i:2370;}i:74;a:3:{i:0;s:7:"p_close";i:1;a:0:{}i:2;i:2548;}i:75;a:3:{i:0;s:6:"plugin";i:1;a:4:{i:0;s:12:"wrap_divwrap";i:1;a:2:{i:0;i:1;i:1;s:5:"alert";}i:2;i:1;i:3;s:12:"<WRAP alert>";}i:2;i:2550;}i:76;a:3:{i:0;s:6:"p_open";i:1;a:0:{}i:2;i:2550;}i:77;a:3:{i:0;s:5:"cdata";i:1;a:1:{i:0;s:430:"This may be a security risk! If you are the only user of your computer in your
house or studio, then auto login is a nice convenience. However, if there are
other users on site, you should keep the requirement to login. You may trust
someone with your life, but that does not mean that they cannot make mistakes
with your data. An accidental deletion of a file, or a change in configuration,
could mean huge setbacks in your work.";}i:2;i:2563;}i:78;a:3:{i:0;s:9:"linebreak";i:1;a:0:{}i:2;i:2993;}i:79;a:3:{i:0;s:5:"cdata";i:1;a:1:{i:0;s:1:"
";}i:2;i:2995;}i:80;a:3:{i:0;s:9:"linebreak";i:1;a:0:{}i:2;i:2996;}i:81;a:3:{i:0;s:5:"cdata";i:1;a:1:{i:0;s:334:"
Do not put your mates (or your data) in such a position. For your sake and
theirs, make users login to their own accounts. Linux is the original
multi-user operating system, so you can make your co-workers or friends
accounts of their own such that they can use the computer without accidentally
changing your production environment.";}i:2;i:2998;}i:82;a:3:{i:0;s:7:"p_close";i:1;a:0:{}i:2;i:3333;}i:83;a:3:{i:0;s:6:"plugin";i:1;a:4:{i:0;s:12:"wrap_divwrap";i:1;a:2:{i:0;i:4;i:1;s:0:"";}i:2;i:4;i:3;s:7:"</WRAP>";}i:2;i:3333;}i:84;a:3:{i:0;s:6:"p_open";i:1;a:0:{}i:2;i:3333;}i:85;a:3:{i:0;s:5:"cdata";i:1;a:1:{i:0;s:27:"To enable auto login, open ";}i:2;i:3342;}i:86;a:3:{i:0;s:14:"monospace_open";i:1;a:0:{}i:2;i:3369;}i:87;a:3:{i:0;s:5:"cdata";i:1;a:1:{i:0;s:15:"System Settings";}i:2;i:3371;}i:88;a:3:{i:0;s:15:"monospace_close";i:1;a:0:{}i:2;i:3386;}i:89;a:3:{i:0;s:5:"cdata";i:1;a:1:{i:0;s:21:" and
navigate to the ";}i:2;i:3388;}i:90;a:3:{i:0;s:6:"plugin";i:1;a:4:{i:0;s:22:"markdowku_boldasterisk";i:1;a:2:{i:0;i:1;i:1;s:2:"**";}i:2;i:1;i:3;s:2:"**";}i:2;i:3409;}i:91;a:3:{i:0;s:6:"plugin";i:1;a:4:{i:0;s:22:"markdowku_boldasterisk";i:1;a:2:{i:0;i:3;i:1;s:12:"Login Screen";}i:2;i:3;i:3;s:12:"Login Screen";}i:2;i:3411;}i:92;a:3:{i:0;s:6:"plugin";i:1;a:4:{i:0;s:22:"markdowku_boldasterisk";i:1;a:2:{i:0;i:4;i:1;s:2:"**";}i:2;i:4;i:3;s:2:"**";}i:2;i:3423;}i:93;a:3:{i:0;s:5:"cdata";i:1;a:1:{i:0;s:7:" panel.";}i:2;i:3425;}i:94;a:3:{i:0;s:7:"p_close";i:1;a:0:{}i:2;i:3432;}i:95;a:3:{i:0;s:6:"p_open";i:1;a:0:{}i:2;i:3432;}i:96;a:3:{i:0;s:5:"cdata";i:1;a:1:{i:0;s:7:"In the ";}i:2;i:3434;}i:97;a:3:{i:0;s:6:"plugin";i:1;a:4:{i:0;s:22:"markdowku_boldasterisk";i:1;a:2:{i:0;i:1;i:1;s:2:"**";}i:2;i:1;i:3;s:2:"**";}i:2;i:3441;}i:98;a:3:{i:0;s:6:"plugin";i:1;a:4:{i:0;s:22:"markdowku_boldasterisk";i:1;a:2:{i:0;i:3;i:1;s:12:"Login Screen";}i:2;i:3;i:3;s:12:"Login Screen";}i:2;i:3443;}i:99;a:3:{i:0;s:6:"plugin";i:1;a:4:{i:0;s:22:"markdowku_boldasterisk";i:1;a:2:{i:0;i:4;i:1;s:2:"**";}i:2;i:4;i:3;s:2:"**";}i:2;i:3455;}i:100;a:3:{i:0;s:5:"cdata";i:1;a:1:{i:0;s:18:" panel, click the ";}i:2;i:3457;}i:101;a:3:{i:0;s:6:"plugin";i:1;a:4:{i:0;s:22:"markdowku_boldasterisk";i:1;a:2:{i:0;i:1;i:1;s:2:"**";}i:2;i:1;i:3;s:2:"**";}i:2;i:3475;}i:102;a:3:{i:0;s:6:"plugin";i:1;a:4:{i:0;s:22:"markdowku_boldasterisk";i:1;a:2:{i:0;i:3;i:1;s:11:"Convenience";}i:2;i:3;i:3;s:11:"Convenience";}i:2;i:3477;}i:103;a:3:{i:0;s:6:"plugin";i:1;a:4:{i:0;s:22:"markdowku_boldasterisk";i:1;a:2:{i:0;i:4;i:1;s:2:"**";}i:2;i:4;i:3;s:2:"**";}i:2;i:3488;}i:104;a:3:{i:0;s:5:"cdata";i:1;a:1:{i:0;s:35:" tab and place a check mark in
the ";}i:2;i:3490;}i:105;a:3:{i:0;s:6:"plugin";i:1;a:4:{i:0;s:22:"markdowku_boldasterisk";i:1;a:2:{i:0;i:1;i:1;s:2:"**";}i:2;i:1;i:3;s:2:"**";}i:2;i:3525;}i:106;a:3:{i:0;s:6:"plugin";i:1;a:4:{i:0;s:22:"markdowku_boldasterisk";i:1;a:2:{i:0;i:3;i:1;s:17:"Enable Auto-Login";}i:2;i:3;i:3;s:17:"Enable Auto-Login";}i:2;i:3527;}i:107;a:3:{i:0;s:6:"plugin";i:1;a:4:{i:0;s:22:"markdowku_boldasterisk";i:1;a:2:{i:0;i:4;i:1;s:2:"**";}i:2;i:4;i:3;s:2:"**";}i:2;i:3544;}i:108;a:3:{i:0;s:5:"cdata";i:1;a:1:{i:0;s:68:" option. Select your username from the dropdown menu, and
click the ";}i:2;i:3546;}i:109;a:3:{i:0;s:6:"plugin";i:1;a:4:{i:0;s:22:"markdowku_boldasterisk";i:1;a:2:{i:0;i:1;i:1;s:2:"**";}i:2;i:1;i:3;s:2:"**";}i:2;i:3614;}i:110;a:3:{i:0;s:6:"plugin";i:1;a:4:{i:0;s:22:"markdowku_boldasterisk";i:1;a:2:{i:0;i:3;i:1;s:5:"Apply";}i:2;i:3;i:3;s:5:"Apply";}i:2;i:3616;}i:111;a:3:{i:0;s:6:"plugin";i:1;a:4:{i:0;s:22:"markdowku_boldasterisk";i:1;a:2:{i:0;i:4;i:1;s:2:"**";}i:2;i:4;i:3;s:2:"**";}i:2;i:3621;}i:112;a:3:{i:0;s:5:"cdata";i:1;a:1:{i:0;s:48:" button in the lower right corner of the window.";}i:2;i:3623;}i:113;a:3:{i:0;s:7:"p_close";i:1;a:0:{}i:2;i:3671;}i:114;a:3:{i:0;s:13:"section_close";i:1;a:0:{}i:2;i:3674;}i:115;a:3:{i:0;s:6:"header";i:1;a:3:{i:0;s:25:"KDE Desktop Configuration";i:1;i:2;i:2;i:3674;}i:2;i:3674;}i:116;a:3:{i:0;s:12:"section_open";i:1;a:1:{i:0;i:2;}i:2;i:3674;}i:117;a:3:{i:0;s:6:"p_open";i:1;a:0:{}i:2;i:3674;}i:118;a:3:{i:0;s:5:"cdata";i:1;a:1:{i:0;s:270:"The KDE desktop has a long history on Linux, and is venerated by many as the
most configurable, most functional, and most integrated desktop available. The
configuration options are staggering, so if anything does not work the way you expect, it can probably be changed.";}i:2;i:3713;}i:119;a:3:{i:0;s:7:"p_close";i:1;a:0:{}i:2;i:3983;}i:120;a:3:{i:0;s:6:"p_open";i:1;a:0:{}i:2;i:3983;}i:121;a:3:{i:0;s:5:"cdata";i:1;a:1:{i:0;s:291:"Mostly, there is little or no danger in customising your desktop. Adding in heaps of additional plugins and add-ons from the internet should be done
cautiously (simply for the sake of stability) but otherwise, if you see an option for something within KDE, then it's probably safe to try it.";}i:2;i:3985;}i:122;a:3:{i:0;s:7:"p_close";i:1;a:0:{}i:2;i:4276;}i:123;a:3:{i:0;s:6:"p_open";i:1;a:0:{}i:2;i:4276;}i:124;a:3:{i:0;s:5:"cdata";i:1;a:1:{i:0;s:311:"Experienced KDE users will certainly already have their own config files that they port from one computer to another. KDE is so customisable, in fact, that it can sometimes be overwhelming, so if you are a new user, slowly build up a set of configurations as you use it. Here are some common points of interest:";}i:2;i:4278;}i:125;a:3:{i:0;s:7:"p_close";i:1;a:0:{}i:2;i:4589;}i:126;a:3:{i:0;s:13:"section_close";i:1;a:0:{}i:2;i:4591;}i:127;a:3:{i:0;s:6:"header";i:1;a:3:{i:0;s:24:"Single and Double Clicks";i:1;i:3;i:2;i:4591;}i:2;i:4591;}i:128;a:3:{i:0;s:12:"section_open";i:1;a:1:{i:0;i:3;}i:2;i:4591;}i:129;a:3:{i:0;s:6:"p_open";i:1;a:0:{}i:2;i:4591;}i:130;a:3:{i:0;s:5:"cdata";i:1;a:1:{i:0;s:352:"By default, a single-click opens up files or folders on the KDE desktop. For many KDE users, this is a small yet powerful method of speeding up the user's interactions with the desktop (after all, the most common interaction you have with a file or folder is to open it, so why not make that the default action?) but for new users, it can be confusing.";}i:2;i:4627;}i:131;a:3:{i:0;s:7:"p_close";i:1;a:0:{}i:2;i:4979;}i:132;a:3:{i:0;s:6:"p_open";i:1;a:0:{}i:2;i:4979;}i:133;a:3:{i:0;s:13:"internalmedia";i:1;a:7:{i:0;s:17:"dolphinClicks.jpg";i:1;N;i:2;s:6:"center";i:3;N;i:4;N;i:5;s:5:"cache";i:6;s:7:"details";}i:2;i:4981;}i:134;a:3:{i:0;s:7:"p_close";i:1;a:0:{}i:2;i:5004;}i:135;a:3:{i:0;s:6:"p_open";i:1;a:0:{}i:2;i:5004;}i:136;a:3:{i:0;s:5:"cdata";i:1;a:1:{i:0;s:39:"Change this behaviour by launching the ";}i:2;i:5006;}i:137;a:3:{i:0;s:12:"externallink";i:1;a:2:{i:0;s:22:"http://dolphin.kde.org";i:1;s:7:"Dolphin";}i:2;i:5045;}i:138;a:3:{i:0;s:5:"cdata";i:1;a:1:{i:0;s:141:" file manager and opening the Configure Dolphin menu item. In the Navigation panel, select the Double-click to open files and folders option.";}i:2;i:5079;}i:139;a:3:{i:0;s:7:"p_close";i:1;a:0:{}i:2;i:5220;}i:140;a:3:{i:0;s:13:"section_close";i:1;a:0:{}i:2;i:5222;}i:141;a:3:{i:0;s:6:"header";i:1;a:3:{i:0;s:13:"Icon Previews";i:1;i:3;i:2;i:5222;}i:2;i:5222;}i:142;a:3:{i:0;s:12:"section_open";i:1;a:1:{i:0;i:3;}i:2;i:5222;}i:143;a:3:{i:0;s:6:"p_open";i:1;a:0:{}i:2;i:5222;}i:144;a:3:{i:0;s:5:"cdata";i:1;a:1:{i:0;s:49:"Also in the Dolphin configuration window, in the ";}i:2;i:5247;}i:145;a:3:{i:0;s:6:"plugin";i:1;a:4:{i:0;s:22:"markdowku_boldasterisk";i:1;a:2:{i:0;i:1;i:1;s:2:"**";}i:2;i:1;i:3;s:2:"**";}i:2;i:5296;}i:146;a:3:{i:0;s:6:"plugin";i:1;a:4:{i:0;s:22:"markdowku_boldasterisk";i:1;a:2:{i:0;i:3;i:1;s:7:"General";}i:2;i:3;i:3;s:7:"General";}i:2;i:5298;}i:147;a:3:{i:0;s:6:"plugin";i:1;a:4:{i:0;s:22:"markdowku_boldasterisk";i:1;a:2:{i:0;i:4;i:1;s:2:"**";}i:2;i:4;i:3;s:2:"**";}i:2;i:5305;}i:148;a:3:{i:0;s:5:"cdata";i:1;a:1:{i:0;s:315:" panel, are configuration options for whether or not you want Dolphin to remember the view settings on a per-folder basis (this is common on other desktops, but having it enabled does increase the amount of metadata being written about each location you visit), when you want to be asked for confirmation, and more.";}i:2;i:5307;}i:149;a:3:{i:0;s:7:"p_close";i:1;a:0:{}i:2;i:5622;}i:150;a:3:{i:0;s:6:"p_open";i:1;a:0:{}i:2;i:5622;}i:151;a:3:{i:0;s:13:"internalmedia";i:1;a:7:{i:0;s:17:"dolphinClicks.jpg";i:1;N;i:2;s:6:"center";i:3;N;i:4;N;i:5;s:5:"cache";i:6;s:7:"details";}i:2;i:5624;}i:152;a:3:{i:0;s:7:"p_close";i:1;a:0:{}i:2;i:5647;}i:153;a:3:{i:0;s:6:"p_open";i:1;a:0:{}i:2;i:5647;}i:154;a:3:{i:0;s:5:"cdata";i:1;a:1:{i:0;s:7:"In the ";}i:2;i:5649;}i:155;a:3:{i:0;s:6:"plugin";i:1;a:4:{i:0;s:22:"markdowku_boldasterisk";i:1;a:2:{i:0;i:1;i:1;s:2:"**";}i:2;i:1;i:3;s:2:"**";}i:2;i:5656;}i:156;a:3:{i:0;s:6:"plugin";i:1;a:4:{i:0;s:22:"markdowku_boldasterisk";i:1;a:2:{i:0;i:3;i:1;s:8:"Previews";}i:2;i:3;i:3;s:8:"Previews";}i:2;i:5658;}i:157;a:3:{i:0;s:6:"plugin";i:1;a:4:{i:0;s:22:"markdowku_boldasterisk";i:1;a:2:{i:0;i:4;i:1;s:2:"**";}i:2;i:4;i:3;s:2:"**";}i:2;i:5666;}i:158;a:3:{i:0;s:5:"cdata";i:1;a:1:{i:0;s:216:" tab, choose what kind of files you want to have dynamically updated thumbnails or previews. Video files, photos, and images can get thumbnailed, websites can be rendered in miniature, fonts displayed, and much more.";}i:2;i:5668;}i:159;a:3:{i:0;s:7:"p_close";i:1;a:0:{}i:2;i:5884;}i:160;a:3:{i:0;s:13:"section_close";i:1;a:0:{}i:2;i:5887;}i:161;a:3:{i:0;s:6:"header";i:1;a:3:{i:0;s:16:"Tooltip Overkill";i:1;i:3;i:2;i:5887;}i:2;i:5887;}i:162;a:3:{i:0;s:12:"section_open";i:1;a:1:{i:0;i:3;}i:2;i:5887;}i:163;a:3:{i:0;s:6:"p_open";i:1;a:0:{}i:2;i:5887;}i:164;a:3:{i:0;s:5:"cdata";i:1;a:1:{i:0;s:216:"KDE tends to be very verbose in its tooltips, which might be useful for new users, but after some time in KDE they become a lot less useful. If at any point you need to turn tooltips off, you can do so in two places.";}i:2;i:5915;}i:165;a:3:{i:0;s:7:"p_close";i:1;a:0:{}i:2;i:6131;}i:166;a:3:{i:0;s:6:"p_open";i:1;a:0:{}i:2;i:6131;}i:167;a:3:{i:0;s:5:"cdata";i:1;a:1:{i:0;s:62:"In the Dolphin configuration window, in the lower half of the ";}i:2;i:6133;}i:168;a:3:{i:0;s:6:"plugin";i:1;a:4:{i:0;s:22:"markdowku_boldasterisk";i:1;a:2:{i:0;i:1;i:1;s:2:"**";}i:2;i:1;i:3;s:2:"**";}i:2;i:6195;}i:169;a:3:{i:0;s:6:"plugin";i:1;a:4:{i:0;s:22:"markdowku_boldasterisk";i:1;a:2:{i:0;i:3;i:1;s:7:"General";}i:2;i:3;i:3;s:7:"General";}i:2;i:6197;}i:170;a:3:{i:0;s:6:"plugin";i:1;a:4:{i:0;s:22:"markdowku_boldasterisk";i:1;a:2:{i:0;i:4;i:1;s:2:"**";}i:2;i:4;i:3;s:2:"**";}i:2;i:6204;}i:171;a:3:{i:0;s:5:"cdata";i:1;a:1:{i:0;s:33:" panel. Deactivate the option to ";}i:2;i:6206;}i:172;a:3:{i:0;s:6:"plugin";i:1;a:4:{i:0;s:22:"markdowku_boldasterisk";i:1;a:2:{i:0;i:1;i:1;s:2:"**";}i:2;i:1;i:3;s:2:"**";}i:2;i:6239;}i:173;a:3:{i:0;s:6:"plugin";i:1;a:4:{i:0;s:22:"markdowku_boldasterisk";i:1;a:2:{i:0;i:3;i:1;s:13:"Show Tooltips";}i:2;i:3;i:3;s:13:"Show Tooltips";}i:2;i:6241;}i:174;a:3:{i:0;s:6:"plugin";i:1;a:4:{i:0;s:22:"markdowku_boldasterisk";i:1;a:2:{i:0;i:4;i:1;s:2:"**";}i:2;i:4;i:3;s:2:"**";}i:2;i:6254;}i:175;a:3:{i:0;s:5:"cdata";i:1;a:1:{i:0;s:136:" to disable tooltips within the file management workflow (which tends to be at least half of what anyone does in a traditional desktop).";}i:2;i:6256;}i:176;a:3:{i:0;s:9:"linebreak";i:1;a:0:{}i:2;i:6392;}i:177;a:3:{i:0;s:7:"p_close";i:1;a:0:{}i:2;i:6394;}i:178;a:3:{i:0;s:6:"p_open";i:1;a:0:{}i:2;i:6394;}i:179;a:3:{i:0;s:5:"cdata";i:1;a:1:{i:0;s:5:"Open ";}i:2;i:6396;}i:180;a:3:{i:0;s:14:"monospace_open";i:1;a:0:{}i:2;i:6401;}i:181;a:3:{i:0;s:5:"cdata";i:1;a:1:{i:0;s:15:"System Settings";}i:2;i:6403;}i:182;a:3:{i:0;s:15:"monospace_close";i:1;a:0:{}i:2;i:6418;}i:183;a:3:{i:0;s:5:"cdata";i:1;a:1:{i:0;s:15:" and click the ";}i:2;i:6420;}i:184;a:3:{i:0;s:6:"plugin";i:1;a:4:{i:0;s:22:"markdowku_boldasterisk";i:1;a:2:{i:0;i:1;i:1;s:2:"**";}i:2;i:1;i:3;s:2:"**";}i:2;i:6435;}i:185;a:3:{i:0;s:6:"plugin";i:1;a:4:{i:0;s:22:"markdowku_boldasterisk";i:1;a:2:{i:0;i:3;i:1;s:19:"Workspace Behaviour";}i:2;i:3;i:3;s:19:"Workspace Behaviour";}i:2;i:6437;}i:186;a:3:{i:0;s:6:"plugin";i:1;a:4:{i:0;s:22:"markdowku_boldasterisk";i:1;a:2:{i:0;i:4;i:1;s:2:"**";}i:2;i:4;i:3;s:2:"**";}i:2;i:6456;}i:187;a:3:{i:0;s:5:"cdata";i:1;a:1:{i:0;s:14:" icon. In the ";}i:2;i:6458;}i:188;a:3:{i:0;s:6:"plugin";i:1;a:4:{i:0;s:22:"markdowku_boldasterisk";i:1;a:2:{i:0;i:1;i:1;s:2:"**";}i:2;i:1;i:3;s:2:"**";}i:2;i:6472;}i:189;a:3:{i:0;s:6:"plugin";i:1;a:4:{i:0;s:22:"markdowku_boldasterisk";i:1;a:2:{i:0;i:3;i:1;s:19:"Workspace Behaviour";}i:2;i:3;i:3;s:19:"Workspace Behaviour";}i:2;i:6474;}i:190;a:3:{i:0;s:6:"plugin";i:1;a:4:{i:0;s:22:"markdowku_boldasterisk";i:1;a:2:{i:0;i:4;i:1;s:2:"**";}i:2;i:4;i:3;s:2:"**";}i:2;i:6493;}i:191;a:3:{i:0;s:5:"cdata";i:1;a:1:{i:0;s:24:" panel, navigate to the ";}i:2;i:6495;}i:192;a:3:{i:0;s:6:"plugin";i:1;a:4:{i:0;s:22:"markdowku_boldasterisk";i:1;a:2:{i:0;i:1;i:1;s:2:"**";}i:2;i:1;i:3;s:2:"**";}i:2;i:6519;}i:193;a:3:{i:0;s:6:"plugin";i:1;a:4:{i:0;s:22:"markdowku_boldasterisk";i:1;a:2:{i:0;i:3;i:1;s:9:"Workspace";}i:2;i:3;i:3;s:9:"Workspace";}i:2;i:6521;}i:194;a:3:{i:0;s:6:"plugin";i:1;a:4:{i:0;s:22:"markdowku_boldasterisk";i:1;a:2:{i:0;i:4;i:1;s:2:"**";}i:2;i:4;i:3;s:2:"**";}i:2;i:6530;}i:195;a:3:{i:0;s:5:"cdata";i:1;a:1:{i:0;s:24:" tab and deactivate the ";}i:2;i:6532;}i:196;a:3:{i:0;s:6:"plugin";i:1;a:4:{i:0;s:22:"markdowku_boldasterisk";i:1;a:2:{i:0;i:1;i:1;s:2:"**";}i:2;i:1;i:3;s:2:"**";}i:2;i:6556;}i:197;a:3:{i:0;s:6:"plugin";i:1;a:4:{i:0;s:22:"markdowku_boldasterisk";i:1;a:2:{i:0;i:3;i:1;s:23:"Show informational Tips";}i:2;i:3;i:3;s:23:"Show informational Tips";}i:2;i:6558;}i:198;a:3:{i:0;s:6:"plugin";i:1;a:4:{i:0;s:22:"markdowku_boldasterisk";i:1;a:2:{i:0;i:4;i:1;s:2:"**";}i:2;i:4;i:3;s:2:"**";}i:2;i:6581;}i:199;a:3:{i:0;s:5:"cdata";i:1;a:1:{i:0;s:1:".";}i:2;i:6583;}i:200;a:3:{i:0;s:7:"p_close";i:1;a:0:{}i:2;i:6584;}i:201;a:3:{i:0;s:6:"p_open";i:1;a:0:{}i:2;i:6584;}i:202;a:3:{i:0;s:5:"cdata";i:1;a:1:{i:0;s:64:"Generally, it can be said of KDE that if you are ever in doubt, ";}i:2;i:6586;}i:203;a:3:{i:0;s:13:"emphasis_open";i:1;a:0:{}i:2;i:6650;}i:204;a:3:{i:0;s:5:"cdata";i:1;a:1:{i:0;s:11:"right-click";}i:2;i:6652;}i:205;a:3:{i:0;s:14:"emphasis_close";i:1;a:0:{}i:2;i:6663;}i:206;a:3:{i:0;s:5:"cdata";i:1;a:1:{i:0;s:127:"; there are a profound number of options and built-in functions. Explore the desktop, explore configuration menus, and explore ";}i:2;i:6665;}i:207;a:3:{i:0;s:6:"plugin";i:1;a:4:{i:0;s:22:"markdowku_boldasterisk";i:1;a:2:{i:0;i:1;i:1;s:2:"**";}i:2;i:1;i:3;s:2:"**";}i:2;i:6792;}i:208;a:3:{i:0;s:6:"plugin";i:1;a:4:{i:0;s:22:"markdowku_boldasterisk";i:1;a:2:{i:0;i:3;i:1;s:15:"System Settings";}i:2;i:3;i:3;s:15:"System Settings";}i:2;i:6794;}i:209;a:3:{i:0;s:6:"plugin";i:1;a:4:{i:0;s:22:"markdowku_boldasterisk";i:1;a:2:{i:0;i:4;i:1;s:2:"**";}i:2;i:4;i:3;s:2:"**";}i:2;i:6809;}i:210;a:3:{i:0;s:5:"cdata";i:1;a:1:{i:0;s:246:" further and try out some of the customisations until you have configured KDE the way you feel most comfortable with it. KDE is designed to be changed, so do what you must so that your desktop stays out of your way, and helps you get things done.";}i:2;i:6811;}i:211;a:3:{i:0;s:7:"p_close";i:1;a:0:{}i:2;i:7057;}i:212;a:3:{i:0;s:13:"section_close";i:1;a:0:{}i:2;i:7059;}i:213;a:3:{i:0;s:6:"header";i:1;a:3:{i:0;s:16:"GUI Root Actions";i:1;i:3;i:2;i:7059;}i:2;i:7059;}i:214;a:3:{i:0;s:12:"section_open";i:1;a:1:{i:0;i:3;}i:2;i:7059;}i:215;a:3:{i:0;s:6:"p_open";i:1;a:0:{}i:2;i:7059;}i:216;a:3:{i:0;s:5:"cdata";i:1;a:1:{i:0;s:64:"Some actions during every day maintenance will require root (or ";}i:2;i:7087;}i:217;a:3:{i:0;s:18:"doublequoteopening";i:1;a:0:{}i:2;i:7151;}i:218;a:3:{i:0;s:5:"cdata";i:1;a:1:{i:0;s:14:"administrative";}i:2;i:7152;}i:219;a:3:{i:0;s:18:"doublequoteclosing";i:1;a:0:{}i:2;i:7166;}i:220;a:3:{i:0;s:5:"cdata";i:1;a:1:{i:0;s:34:") permission. Usually, the way to ";}i:2;i:7167;}i:221;a:3:{i:0;s:18:"doublequoteopening";i:1;a:0:{}i:2;i:7201;}i:222;a:3:{i:0;s:5:"cdata";i:1;a:1:{i:0;s:11:"become root";}i:2;i:7202;}i:223;a:3:{i:0;s:18:"doublequoteclosing";i:1;a:0:{}i:2;i:7213;}i:224;a:3:{i:0;s:5:"cdata";i:1;a:1:{i:0;s:339:" is to either log out of the desktop and log back in as root, or, more commonly, open a terminal and sign in as root and proceed with administrative tasks in a text console. If you are managing multiple Slackermedia machines and your users do not need (or should not have) admin rights on their own boxen, then this model works quite well,";}i:2;i:7214;}i:225;a:3:{i:0;s:7:"p_close";i:1;a:0:{}i:2;i:7553;}i:226;a:3:{i:0;s:6:"p_open";i:1;a:0:{}i:2;i:7553;}i:227;a:3:{i:0;s:5:"cdata";i:1;a:1:{i:0;s:416:"If you are both the admin and the user of your own machine, you might find it inconvenient to have no way of escalating your own privileges when you need to, for instance, edit a system configuration file, or place a file in a system location. The need to do this
is a lot less common than you might imagine; if you are the only user, then
really everything you install or put onto the computer, at least within the ";}i:2;i:7555;}i:228;a:3:{i:0;s:7:"acronym";i:1;a:1:{i:0;s:3:"GUI";}i:2;i:7971;}i:229;a:3:{i:0;s:5:"cdata";i:1;a:1:{i:0;s:126:"
environment, can be placed into your home directory. But it does come up every
now and again, so it's a nice feature to have.";}i:2;i:7974;}i:230;a:3:{i:0;s:7:"p_close";i:1;a:0:{}i:2;i:8100;}i:231;a:3:{i:0;s:6:"p_open";i:1;a:0:{}i:2;i:8100;}i:232;a:3:{i:0;s:5:"cdata";i:1;a:1:{i:0;s:65:"To enable a wide variety of root actions within KDE, install the ";}i:2;i:8102;}i:233;a:3:{i:0;s:12:"externallink";i:1;a:2:{i:0;s:75:"http://kde-apps.org/content/show.php/Root+Actions+Servicemenu?content=48411";i:1;s:12:"Root Actions";}i:2;i:8167;}i:234;a:3:{i:0;s:5:"cdata";i:1;a:1:{i:0;s:1:".";}i:2;i:8259;}i:235;a:3:{i:0;s:7:"p_close";i:1;a:0:{}i:2;i:8260;}i:236;a:3:{i:0;s:6:"p_open";i:1;a:0:{}i:2;i:8260;}i:237;a:3:{i:0;s:5:"cdata";i:1;a:1:{i:0;s:139:"This add-on includes quick access to editing files as root, changing permissions of files as root, opening a folder as root, and much more.";}i:2;i:8262;}i:238;a:3:{i:0;s:7:"p_close";i:1;a:0:{}i:2;i:8401;}i:239;a:3:{i:0;s:13:"section_close";i:1;a:0:{}i:2;i:8405;}i:240;a:3:{i:0;s:6:"header";i:1;a:3:{i:0;s:18:"Manual Alternative";i:1;i:4;i:2;i:8405;}i:2;i:8405;}i:241;a:3:{i:0;s:12:"section_open";i:1;a:1:{i:0;i:4;}i:2;i:8405;}i:242;a:3:{i:0;s:6:"p_open";i:1;a:0:{}i:2;i:8405;}i:243;a:3:{i:0;s:5:"cdata";i:1;a:1:{i:0;s:141:"If you do not want to install the Root Actions add-on for whatever reason, you can build your own simple version of many of the actions with ";}i:2;i:8433;}i:244;a:3:{i:0;s:14:"monospace_open";i:1;a:0:{}i:2;i:8574;}i:245;a:3:{i:0;s:5:"cdata";i:1;a:1:{i:0;s:5:"kdesu";}i:2;i:8576;}i:246;a:3:{i:0;s:15:"monospace_close";i:1;a:0:{}i:2;i:8581;}i:247;a:3:{i:0;s:5:"cdata";i:1;a:1:{i:0;s:1:":";}i:2;i:8583;}i:248;a:3:{i:0;s:7:"p_close";i:1;a:0:{}i:2;i:8585;}i:249;a:3:{i:0;s:10:"listo_open";i:1;a:0:{}i:2;i:8585;}i:250;a:3:{i:0;s:13:"listitem_open";i:1;a:1:{i:0;i:1;}i:2;i:8585;}i:251;a:3:{i:0;s:16:"listcontent_open";i:1;a:0:{}i:2;i:8585;}i:252;a:3:{i:0;s:5:"cdata";i:1;a:1:{i:0;s:19:"Right-click on the ";}i:2;i:8589;}i:253;a:3:{i:0;s:6:"plugin";i:1;a:4:{i:0;s:22:"markdowku_boldasterisk";i:1;a:2:{i:0;i:1;i:1;s:2:"**";}i:2;i:1;i:3;s:2:"**";}i:2;i:8608;}i:254;a:3:{i:0;s:6:"plugin";i:1;a:4:{i:0;s:22:"markdowku_boldasterisk";i:1;a:2:{i:0;i:3;i:1;s:6:"K Menu";}i:2;i:3;i:3;s:6:"K Menu";}i:2;i:8610;}i:255;a:3:{i:0;s:6:"plugin";i:1;a:4:{i:0;s:22:"markdowku_boldasterisk";i:1;a:2:{i:0;i:4;i:1;s:2:"**";}i:2;i:4;i:3;s:2:"**";}i:2;i:8616;}i:256;a:3:{i:0;s:5:"cdata";i:1;a:1:{i:0;s:12:" and select ";}i:2;i:8618;}i:257;a:3:{i:0;s:6:"plugin";i:1;a:4:{i:0;s:22:"markdowku_boldasterisk";i:1;a:2:{i:0;i:1;i:1;s:2:"**";}i:2;i:1;i:3;s:2:"**";}i:2;i:8630;}i:258;a:3:{i:0;s:6:"plugin";i:1;a:4:{i:0;s:22:"markdowku_boldasterisk";i:1;a:2:{i:0;i:3;i:1;s:9:"Edit Menu";}i:2;i:3;i:3;s:9:"Edit Menu";}i:2;i:8632;}i:259;a:3:{i:0;s:6:"plugin";i:1;a:4:{i:0;s:22:"markdowku_boldasterisk";i:1;a:2:{i:0;i:4;i:1;s:2:"**";}i:2;i:4;i:3;s:2:"**";}i:2;i:8641;}i:260;a:3:{i:0;s:5:"cdata";i:1;a:1:{i:0;s:1:".";}i:2;i:8643;}i:261;a:3:{i:0;s:17:"listcontent_close";i:1;a:0:{}i:2;i:8644;}i:262;a:3:{i:0;s:14:"listitem_close";i:1;a:0:{}i:2;i:8644;}i:263;a:3:{i:0;s:13:"listitem_open";i:1;a:1:{i:0;i:1;}i:2;i:8644;}i:264;a:3:{i:0;s:16:"listcontent_open";i:1;a:0:{}i:2;i:8644;}i:265;a:3:{i:0;s:5:"cdata";i:1;a:1:{i:0;s:66:"In the list on the left of the window, select the System category.";}i:2;i:8648;}i:266;a:3:{i:0;s:17:"listcontent_close";i:1;a:0:{}i:2;i:8714;}i:267;a:3:{i:0;s:14:"listitem_close";i:1;a:0:{}i:2;i:8714;}i:268;a:3:{i:0;s:13:"listitem_open";i:1;a:1:{i:0;i:1;}i:2;i:8714;}i:269;a:3:{i:0;s:16:"listcontent_open";i:1;a:0:{}i:2;i:8714;}i:270;a:3:{i:0;s:5:"cdata";i:1;a:1:{i:0;s:54:"Locate the Dolphin entry and click on it to select it.";}i:2;i:8718;}i:271;a:3:{i:0;s:17:"listcontent_close";i:1;a:0:{}i:2;i:8772;}i:272;a:3:{i:0;s:14:"listitem_close";i:1;a:0:{}i:2;i:8772;}i:273;a:3:{i:0;s:13:"listitem_open";i:1;a:1:{i:0;i:1;}i:2;i:8772;}i:274;a:3:{i:0;s:16:"listcontent_open";i:1;a:0:{}i:2;i:8772;}i:275;a:3:{i:0;s:5:"cdata";i:1;a:1:{i:0;s:10:"Click the ";}i:2;i:8776;}i:276;a:3:{i:0;s:6:"plugin";i:1;a:4:{i:0;s:22:"markdowku_boldasterisk";i:1;a:2:{i:0;i:1;i:1;s:2:"**";}i:2;i:1;i:3;s:2:"**";}i:2;i:8786;}i:277;a:3:{i:0;s:6:"plugin";i:1;a:4:{i:0;s:22:"markdowku_boldasterisk";i:1;a:2:{i:0;i:3;i:1;s:4:"Copy";}i:2;i:3;i:3;s:4:"Copy";}i:2;i:8788;}i:278;a:3:{i:0;s:6:"plugin";i:1;a:4:{i:0;s:22:"markdowku_boldasterisk";i:1;a:2:{i:0;i:4;i:1;s:2:"**";}i:2;i:4;i:3;s:2:"**";}i:2;i:8792;}i:279;a:3:{i:0;s:5:"cdata";i:1;a:1:{i:0;s:41:" button in the top toolbar, and then the ";}i:2;i:8794;}i:280;a:3:{i:0;s:6:"plugin";i:1;a:4:{i:0;s:22:"markdowku_boldasterisk";i:1;a:2:{i:0;i:1;i:1;s:2:"**";}i:2;i:1;i:3;s:2:"**";}i:2;i:8835;}i:281;a:3:{i:0;s:6:"plugin";i:1;a:4:{i:0;s:22:"markdowku_boldasterisk";i:1;a:2:{i:0;i:3;i:1;s:5:"Paste";}i:2;i:3;i:3;s:5:"Paste";}i:2;i:8837;}i:282;a:3:{i:0;s:6:"plugin";i:1;a:4:{i:0;s:22:"markdowku_boldasterisk";i:1;a:2:{i:0;i:4;i:1;s:2:"**";}i:2;i:4;i:3;s:2:"**";}i:2;i:8842;}i:283;a:3:{i:0;s:5:"cdata";i:1;a:1:{i:0;s:47:" button. You have now duplicated the entry for ";}i:2;i:8844;}i:284;a:3:{i:0;s:6:"plugin";i:1;a:4:{i:0;s:22:"markdowku_boldasterisk";i:1;a:2:{i:0;i:1;i:1;s:2:"**";}i:2;i:1;i:3;s:2:"**";}i:2;i:8891;}i:285;a:3:{i:0;s:6:"plugin";i:1;a:4:{i:0;s:22:"markdowku_boldasterisk";i:1;a:2:{i:0;i:3;i:1;s:7:"Dolphin";}i:2;i:3;i:3;s:7:"Dolphin";}i:2;i:8893;}i:286;a:3:{i:0;s:6:"plugin";i:1;a:4:{i:0;s:22:"markdowku_boldasterisk";i:1;a:2:{i:0;i:4;i:1;s:2:"**";}i:2;i:4;i:3;s:2:"**";}i:2;i:8900;}i:287;a:3:{i:0;s:5:"cdata";i:1;a:1:{i:0;s:1:".";}i:2;i:8902;}i:288;a:3:{i:0;s:17:"listcontent_close";i:1;a:0:{}i:2;i:8903;}i:289;a:3:{i:0;s:14:"listitem_close";i:1;a:0:{}i:2;i:8903;}i:290;a:3:{i:0;s:13:"listitem_open";i:1;a:1:{i:0;i:1;}i:2;i:8903;}i:291;a:3:{i:0;s:16:"listcontent_open";i:1;a:0:{}i:2;i:8903;}i:292;a:3:{i:0;s:5:"cdata";i:1;a:1:{i:0;s:31:"Select the duplicate entry for ";}i:2;i:8907;}i:293;a:3:{i:0;s:6:"plugin";i:1;a:4:{i:0;s:22:"markdowku_boldasterisk";i:1;a:2:{i:0;i:1;i:1;s:2:"**";}i:2;i:1;i:3;s:2:"**";}i:2;i:8938;}i:294;a:3:{i:0;s:6:"plugin";i:1;a:4:{i:0;s:22:"markdowku_boldasterisk";i:1;a:2:{i:0;i:3;i:1;s:7:"Dolphin";}i:2;i:3;i:3;s:7:"Dolphin";}i:2;i:8940;}i:295;a:3:{i:0;s:6:"plugin";i:1;a:4:{i:0;s:22:"markdowku_boldasterisk";i:1;a:2:{i:0;i:4;i:1;s:2:"**";}i:2;i:4;i:3;s:2:"**";}i:2;i:8947;}i:296;a:3:{i:0;s:5:"cdata";i:1;a:1:{i:0;s:66:". In the text fields on the right, provide a unique name, such as ";}i:2;i:8949;}i:297;a:3:{i:0;s:14:"monospace_open";i:1;a:0:{}i:2;i:9015;}i:298;a:3:{i:0;s:5:"cdata";i:1;a:1:{i:0;s:11:"DolphinRoot";}i:2;i:9017;}i:299;a:3:{i:0;s:15:"monospace_close";i:1;a:0:{}i:2;i:9028;}i:300;a:3:{i:0;s:5:"cdata";i:1;a:1:{i:0;s:22:" (or similar). In the ";}i:2;i:9030;}i:301;a:3:{i:0;s:6:"plugin";i:1;a:4:{i:0;s:22:"markdowku_boldasterisk";i:1;a:2:{i:0;i:1;i:1;s:2:"**";}i:2;i:1;i:3;s:2:"**";}i:2;i:9052;}i:302;a:3:{i:0;s:6:"plugin";i:1;a:4:{i:0;s:22:"markdowku_boldasterisk";i:1;a:2:{i:0;i:3;i:1;s:7:"Command";}i:2;i:3;i:3;s:7:"Command";}i:2;i:9054;}i:303;a:3:{i:0;s:6:"plugin";i:1;a:4:{i:0;s:22:"markdowku_boldasterisk";i:1;a:2:{i:0;i:4;i:1;s:2:"**";}i:2;i:4;i:3;s:2:"**";}i:2;i:9061;}i:304;a:3:{i:0;s:5:"cdata";i:1;a:1:{i:0;s:23:" field, enter the text ";}i:2;i:9063;}i:305;a:3:{i:0;s:14:"monospace_open";i:1;a:0:{}i:2;i:9086;}i:306;a:3:{i:0;s:5:"cdata";i:1;a:1:{i:0;s:14:"kdesu dolphin ";}i:2;i:9088;}i:307;a:3:{i:0;s:6:"entity";i:1;a:1:{i:0;s:2:"--";}i:2;i:9102;}i:308;a:3:{i:0;s:5:"cdata";i:1;a:1:{i:0;s:14:"bg #A86766 %i ";}i:2;i:9104;}i:309;a:3:{i:0;s:6:"entity";i:1;a:1:{i:0;s:2:"--";}i:2;i:9118;}i:310;a:3:{i:0;s:5:"cdata";i:1;a:1:{i:0;s:24:"caption 'Root Window' %u";}i:2;i:9120;}i:311;a:3:{i:0;s:15:"monospace_close";i:1;a:0:{}i:2;i:9144;}i:312;a:3:{i:0;s:17:"listcontent_close";i:1;a:0:{}i:2;i:9146;}i:313;a:3:{i:0;s:14:"listitem_close";i:1;a:0:{}i:2;i:9146;}i:314;a:3:{i:0;s:13:"listitem_open";i:1;a:1:{i:0;i:1;}i:2;i:9146;}i:315;a:3:{i:0;s:16:"listcontent_open";i:1;a:0:{}i:2;i:9146;}i:316;a:3:{i:0;s:5:"cdata";i:1;a:1:{i:0;s:18:"Save your changes.";}i:2;i:9150;}i:317;a:3:{i:0;s:17:"listcontent_close";i:1;a:0:{}i:2;i:9168;}i:318;a:3:{i:0;s:14:"listitem_close";i:1;a:0:{}i:2;i:9168;}i:319;a:3:{i:0;s:11:"listo_close";i:1;a:0:{}i:2;i:9168;}i:320;a:3:{i:0;s:6:"p_open";i:1;a:0:{}i:2;i:9168;}i:321;a:3:{i:0;s:5:"cdata";i:1;a:1:{i:0;s:8:"In your ";}i:2;i:9170;}i:322;a:3:{i:0;s:6:"plugin";i:1;a:4:{i:0;s:22:"markdowku_boldasterisk";i:1;a:2:{i:0;i:1;i:1;s:2:"**";}i:2;i:1;i:3;s:2:"**";}i:2;i:9178;}i:323;a:3:{i:0;s:6:"plugin";i:1;a:4:{i:0;s:22:"markdowku_boldasterisk";i:1;a:2:{i:0;i:3;i:1;s:6:"K Menu";}i:2;i:3;i:3;s:6:"K Menu";}i:2;i:9180;}i:324;a:3:{i:0;s:6:"plugin";i:1;a:4:{i:0;s:22:"markdowku_boldasterisk";i:1;a:2:{i:0;i:4;i:1;s:2:"**";}i:2;i:4;i:3;s:2:"**";}i:2;i:9186;}i:325;a:3:{i:0;s:5:"cdata";i:1;a:1:{i:0;s:36:", there will now be a new entry for ";}i:2;i:9188;}i:326;a:3:{i:0;s:6:"plugin";i:1;a:4:{i:0;s:22:"markdowku_boldasterisk";i:1;a:2:{i:0;i:1;i:1;s:2:"**";}i:2;i:1;i:3;s:2:"**";}i:2;i:9224;}i:327;a:3:{i:0;s:6:"plugin";i:1;a:4:{i:0;s:22:"markdowku_boldasterisk";i:1;a:2:{i:0;i:3;i:1;s:11:"DolphinRoot";}i:2;i:3;i:3;s:11:"DolphinRoot";}i:2;i:9226;}i:328;a:3:{i:0;s:6:"plugin";i:1;a:4:{i:0;s:22:"markdowku_boldasterisk";i:1;a:2:{i:0;i:4;i:1;s:2:"**";}i:2;i:4;i:3;s:2:"**";}i:2;i:9237;}i:329;a:3:{i:0;s:5:"cdata";i:1;a:1:{i:0;s:379:", which will open a DolphinRoot window as the root user. It will also paint the background of the window red, so that you are reminded that the window is dangerous and has absolutely no safety mechanism between you and a mistakenly deleted file or folder. You may adjust the colour in the menu editor, but do make it unique so that you do not mistakenly leave a root window open.";}i:2;i:9239;}i:330;a:3:{i:0;s:7:"p_close";i:1;a:0:{}i:2;i:9618;}i:331;a:3:{i:0;s:6:"p_open";i:1;a:0:{}i:2;i:9618;}i:332;a:3:{i:0;s:5:"cdata";i:1;a:1:{i:0;s:135:"Build similar actions for other common root tasks (such as opening a terminal as root and editing a text file as root) in the same way.";}i:2;i:9620;}i:333;a:3:{i:0;s:7:"p_close";i:1;a:0:{}i:2;i:9755;}i:334;a:3:{i:0;s:13:"section_close";i:1;a:0:{}i:2;i:9758;}i:335;a:3:{i:0;s:6:"header";i:1;a:3:{i:0;s:22:"Titlebar-Only Dragging";i:1;i:2;i:2;i:9758;}i:2;i:9758;}i:336;a:3:{i:0;s:12:"section_open";i:1;a:1:{i:0;i:2;}i:2;i:9758;}i:337;a:3:{i:0;s:6:"p_open";i:1;a:0:{}i:2;i:9758;}i:338;a:3:{i:0;s:5:"cdata";i:1;a:1:{i:0;s:378:"By default, KDE windows allow you to grab onto them from any number of points within the window. This can be marvelously efficient with many, if not most, applications but with multimedia applications that require nothing but random clicks and drags, it can be maddening to accidentally move your entire application window when all you meant to do is move a playhead or a brush.";}i:2;i:9794;}i:339;a:3:{i:0;s:7:"p_close";i:1;a:0:{}i:2;i:10172;}i:340;a:3:{i:0;s:6:"p_open";i:1;a:0:{}i:2;i:10172;}i:341;a:3:{i:0;s:5:"cdata";i:1;a:1:{i:0;s:27:"Turn this behaviour off in ";}i:2;i:10174;}i:342;a:3:{i:0;s:14:"monospace_open";i:1;a:0:{}i:2;i:10201;}i:343;a:3:{i:0;s:5:"cdata";i:1;a:1:{i:0;s:15:"System Settings";}i:2;i:10203;}i:344;a:3:{i:0;s:15:"monospace_close";i:1;a:0:{}i:2;i:10218;}i:345;a:3:{i:0;s:5:"cdata";i:1;a:1:{i:0;s:1:" ";}i:2;i:10220;}i:346;a:3:{i:0;s:6:"plugin";i:1;a:4:{i:0;s:28:"markdowku_escapespecialchars";i:1;a:2:{i:0;i:5;i:1;s:2:"\>";}i:2;i:5;i:3;s:2:"\>";}i:2;i:10221;}i:347;a:3:{i:0;s:5:"cdata";i:1;a:1:{i:0;s:1:" ";}i:2;i:10223;}i:348;a:3:{i:0;s:6:"plugin";i:1;a:4:{i:0;s:22:"markdowku_boldasterisk";i:1;a:2:{i:0;i:1;i:1;s:2:"**";}i:2;i:1;i:3;s:2:"**";}i:2;i:10224;}i:349;a:3:{i:0;s:6:"plugin";i:1;a:4:{i:0;s:22:"markdowku_boldasterisk";i:1;a:2:{i:0;i:3;i:1;s:22:"Application Appearance";}i:2;i:3;i:3;s:22:"Application Appearance";}i:2;i:10226;}i:350;a:3:{i:0;s:6:"plugin";i:1;a:4:{i:0;s:22:"markdowku_boldasterisk";i:1;a:2:{i:0;i:4;i:1;s:2:"**";}i:2;i:4;i:3;s:2:"**";}i:2;i:10248;}i:351;a:3:{i:0;s:5:"cdata";i:1;a:1:{i:0;s:9:". In the ";}i:2;i:10250;}i:352;a:3:{i:0;s:6:"plugin";i:1;a:4:{i:0;s:22:"markdowku_boldasterisk";i:1;a:2:{i:0;i:1;i:1;s:2:"**";}i:2;i:1;i:3;s:2:"**";}i:2;i:10259;}i:353;a:3:{i:0;s:6:"plugin";i:1;a:4:{i:0;s:22:"markdowku_boldasterisk";i:1;a:2:{i:0;i:3;i:1;s:5:"Style";}i:2;i:3;i:3;s:5:"Style";}i:2;i:10261;}i:354;a:3:{i:0;s:6:"plugin";i:1;a:4:{i:0;s:22:"markdowku_boldasterisk";i:1;a:2:{i:0;i:4;i:1;s:2:"**";}i:2;i:4;i:3;s:2:"**";}i:2;i:10266;}i:355;a:3:{i:0;s:5:"cdata";i:1;a:1:{i:0;s:40:" category on the left, and activate the ";}i:2;i:10268;}i:356;a:3:{i:0;s:6:"plugin";i:1;a:4:{i:0;s:22:"markdowku_boldasterisk";i:1;a:2:{i:0;i:1;i:1;s:2:"**";}i:2;i:1;i:3;s:2:"**";}i:2;i:10308;}i:357;a:3:{i:0;s:6:"plugin";i:1;a:4:{i:0;s:22:"markdowku_boldasterisk";i:1;a:2:{i:0;i:3;i:1;s:12:"Applications";}i:2;i:3;i:3;s:12:"Applications";}i:2;i:10310;}i:358;a:3:{i:0;s:6:"plugin";i:1;a:4:{i:0;s:22:"markdowku_boldasterisk";i:1;a:2:{i:0;i:4;i:1;s:2:"**";}i:2;i:4;i:3;s:2:"**";}i:2;i:10322;}i:359;a:3:{i:0;s:5:"cdata";i:1;a:1:{i:0;s:16:" tab. Click the ";}i:2;i:10324;}i:360;a:3:{i:0;s:6:"plugin";i:1;a:4:{i:0;s:22:"markdowku_boldasterisk";i:1;a:2:{i:0;i:1;i:1;s:2:"**";}i:2;i:1;i:3;s:2:"**";}i:2;i:10340;}i:361;a:3:{i:0;s:6:"plugin";i:1;a:4:{i:0;s:22:"markdowku_boldasterisk";i:1;a:2:{i:0;i:3;i:1;s:9:"Configure";}i:2;i:3;i:3;s:9:"Configure";}i:2;i:10342;}i:362;a:3:{i:0;s:6:"plugin";i:1;a:4:{i:0;s:22:"markdowku_boldasterisk";i:1;a:2:{i:0;i:4;i:1;s:2:"**";}i:2;i:4;i:3;s:2:"**";}i:2;i:10351;}i:363;a:3:{i:0;s:5:"cdata";i:1;a:1:{i:0;s:8:" button.";}i:2;i:10353;}i:364;a:3:{i:0;s:7:"p_close";i:1;a:0:{}i:2;i:10361;}i:365;a:3:{i:0;s:6:"p_open";i:1;a:0:{}i:2;i:10361;}i:366;a:3:{i:0;s:13:"internalmedia";i:1;a:7:{i:0;s:18:"styleconfigure.png";i:1;N;i:2;s:6:"center";i:3;N;i:4;N;i:5;s:5:"cache";i:6;s:7:"details";}i:2;i:10363;}i:367;a:3:{i:0;s:7:"p_close";i:1;a:0:{}i:2;i:10387;}i:368;a:3:{i:0;s:6:"p_open";i:1;a:0:{}i:2;i:10387;}i:369;a:3:{i:0;s:5:"cdata";i:1;a:1:{i:0;s:7:"In the ";}i:2;i:10389;}i:370;a:3:{i:0;s:6:"plugin";i:1;a:4:{i:0;s:22:"markdowku_boldasterisk";i:1;a:2:{i:0;i:1;i:1;s:2:"**";}i:2;i:1;i:3;s:2:"**";}i:2;i:10396;}i:371;a:3:{i:0;s:6:"plugin";i:1;a:4:{i:0;s:22:"markdowku_boldasterisk";i:1;a:2:{i:0;i:3;i:1;s:9:"Configure";}i:2;i:3;i:3;s:9:"Configure";}i:2;i:10398;}i:372;a:3:{i:0;s:6:"plugin";i:1;a:4:{i:0;s:22:"markdowku_boldasterisk";i:1;a:2:{i:0;i:4;i:1;s:2:"**";}i:2;i:4;i:3;s:2:"**";}i:2;i:10407;}i:373;a:3:{i:0;s:5:"cdata";i:1;a:1:{i:0;s:22:" window, activate the ";}i:2;i:10409;}i:374;a:3:{i:0;s:6:"plugin";i:1;a:4:{i:0;s:22:"markdowku_boldasterisk";i:1;a:2:{i:0;i:1;i:1;s:2:"**";}i:2;i:1;i:3;s:2:"**";}i:2;i:10431;}i:375;a:3:{i:0;s:6:"plugin";i:1;a:4:{i:0;s:22:"markdowku_boldasterisk";i:1;a:2:{i:0;i:3;i:1;s:7:"General";}i:2;i:3;i:3;s:7:"General";}i:2;i:10433;}i:376;a:3:{i:0;s:6:"plugin";i:1;a:4:{i:0;s:22:"markdowku_boldasterisk";i:1;a:2:{i:0;i:4;i:1;s:2:"**";}i:2;i:4;i:3;s:2:"**";}i:2;i:10440;}i:377;a:3:{i:0;s:5:"cdata";i:1;a:1:{i:0;s:19:" tab and click the ";}i:2;i:10442;}i:378;a:3:{i:0;s:6:"plugin";i:1;a:4:{i:0;s:22:"markdowku_boldasterisk";i:1;a:2:{i:0;i:1;i:1;s:2:"**";}i:2;i:1;i:3;s:2:"**";}i:2;i:10461;}i:379;a:3:{i:0;s:6:"plugin";i:1;a:4:{i:0;s:22:"markdowku_boldasterisk";i:1;a:2:{i:0;i:3;i:1;s:35:"Show Advanced Configuration Options";}i:2;i:3;i:3;s:35:"Show Advanced Configuration Options";}i:2;i:10463;}i:380;a:3:{i:0;s:6:"plugin";i:1;a:4:{i:0;s:22:"markdowku_boldasterisk";i:1;a:2:{i:0;i:4;i:1;s:2:"**";}i:2;i:4;i:3;s:2:"**";}i:2;i:10498;}i:381;a:3:{i:0;s:5:"cdata";i:1;a:1:{i:0;s:8:" button.";}i:2;i:10500;}i:382;a:3:{i:0;s:7:"p_close";i:1;a:0:{}i:2;i:10508;}i:383;a:3:{i:0;s:6:"p_open";i:1;a:0:{}i:2;i:10508;}i:384;a:3:{i:0;s:5:"cdata";i:1;a:1:{i:0;s:4:"Set ";}i:2;i:10510;}i:385;a:3:{i:0;s:6:"plugin";i:1;a:4:{i:0;s:22:"markdowku_boldasterisk";i:1;a:2:{i:0;i:1;i:1;s:2:"**";}i:2;i:1;i:3;s:2:"**";}i:2;i:10514;}i:386;a:3:{i:0;s:6:"plugin";i:1;a:4:{i:0;s:22:"markdowku_boldasterisk";i:1;a:2:{i:0;i:3;i:1;s:17:"Windows drag mode";}i:2;i:3;i:3;s:17:"Windows drag mode";}i:2;i:10516;}i:387;a:3:{i:0;s:6:"plugin";i:1;a:4:{i:0;s:22:"markdowku_boldasterisk";i:1;a:2:{i:0;i:4;i:1;s:2:"**";}i:2;i:4;i:3;s:2:"**";}i:2;i:10533;}i:388;a:3:{i:0;s:5:"cdata";i:1;a:1:{i:0;s:4:" to ";}i:2;i:10535;}i:389;a:3:{i:0;s:6:"plugin";i:1;a:4:{i:0;s:22:"markdowku_boldasterisk";i:1;a:2:{i:0;i:1;i:1;s:2:"**";}i:2;i:1;i:3;s:2:"**";}i:2;i:10539;}i:390;a:3:{i:0;s:6:"plugin";i:1;a:4:{i:0;s:22:"markdowku_boldasterisk";i:1;a:2:{i:0;i:3;i:1;s:31:"Drag windows from titlebar only";}i:2;i:3;i:3;s:31:"Drag windows from titlebar only";}i:2;i:10541;}i:391;a:3:{i:0;s:6:"plugin";i:1;a:4:{i:0;s:22:"markdowku_boldasterisk";i:1;a:2:{i:0;i:4;i:1;s:2:"**";}i:2;i:4;i:3;s:2:"**";}i:2;i:10572;}i:392;a:3:{i:0;s:5:"cdata";i:1;a:1:{i:0;s:15:" and click the ";}i:2;i:10574;}i:393;a:3:{i:0;s:6:"plugin";i:1;a:4:{i:0;s:22:"markdowku_boldasterisk";i:1;a:2:{i:0;i:1;i:1;s:2:"**";}i:2;i:1;i:3;s:2:"**";}i:2;i:10589;}i:394;a:3:{i:0;s:6:"plugin";i:1;a:4:{i:0;s:22:"markdowku_boldasterisk";i:1;a:2:{i:0;i:3;i:1;s:2:"OK";}i:2;i:3;i:3;s:2:"OK";}i:2;i:10591;}i:395;a:3:{i:0;s:6:"plugin";i:1;a:4:{i:0;s:22:"markdowku_boldasterisk";i:1;a:2:{i:0;i:4;i:1;s:2:"**";}i:2;i:4;i:3;s:2:"**";}i:2;i:10593;}i:396;a:3:{i:0;s:5:"cdata";i:1;a:1:{i:0;s:17:" button to apply.";}i:2;i:10595;}i:397;a:3:{i:0;s:7:"p_close";i:1;a:0:{}i:2;i:10612;}i:398;a:3:{i:0;s:13:"section_close";i:1;a:0:{}i:2;i:10614;}i:399;a:3:{i:0;s:6:"header";i:1;a:3:{i:0;s:18:"GTK and Qt Theming";i:1;i:2;i:2;i:10614;}i:2;i:10614;}i:400;a:3:{i:0;s:12:"section_open";i:1;a:1:{i:0;i:2;}i:2;i:10614;}i:401;a:3:{i:0;s:6:"p_open";i:1;a:0:{}i:2;i:10614;}i:402;a:3:{i:0;s:5:"cdata";i:1;a:1:{i:0;s:424:"Since the applications used on a diverse Linux system come from many different programmers and programming toolkits, an application's basic look sometimes varies quite a lot from the rest of the user's environment. While this is unavoidable and actually desirable in some cases (Blender's interface, for instance, one would not try to mask), sometimes a more unified look and feel helps make the system feel more integrated.";}i:2;i:10646;}i:403;a:3:{i:0;s:7:"p_close";i:1;a:0:{}i:2;i:11070;}i:404;a:3:{i:0;s:6:"p_open";i:1;a:0:{}i:2;i:11070;}i:405;a:3:{i:0;s:5:"cdata";i:1;a:1:{i:0;s:428:"The reason this happens is not arbitrary; programming is a lot of work, so people develop toolkits and frameworks that consist of a set of widgets (window panels, buttons, menus, dialogue boxes, and so on) for other programmers to use in their applications. Otherwise, every time any programmer wanted to make an application, everything would have to start from scratch, and probably most every application would look different.";}i:2;i:11072;}i:406;a:3:{i:0;s:7:"p_close";i:1;a:0:{}i:2;i:11500;}i:407;a:3:{i:0;s:6:"p_open";i:1;a:0:{}i:2;i:11500;}i:408;a:3:{i:0;s:5:"cdata";i:1;a:1:{i:0;s:109:"Broadly speaking, the two most popular toolkits for graphical applications on Linux are GTK (used by Mozilla ";}i:2;i:11502;}i:409;a:3:{i:0;s:14:"monospace_open";i:1;a:0:{}i:2;i:11611;}i:410;a:3:{i:0;s:5:"cdata";i:1;a:1:{i:0;s:7:"Firefox";}i:2;i:11613;}i:411;a:3:{i:0;s:15:"monospace_close";i:1;a:0:{}i:2;i:11620;}i:412;a:3:{i:0;s:5:"cdata";i:1;a:1:{i:0;s:2:", ";}i:2;i:11622;}i:413;a:3:{i:0;s:14:"monospace_open";i:1;a:0:{}i:2;i:11624;}i:414;a:3:{i:0;s:5:"cdata";i:1;a:1:{i:0;s:11:"Thunderbird";}i:2;i:11626;}i:415;a:3:{i:0;s:15:"monospace_close";i:1;a:0:{}i:2;i:11637;}i:416;a:3:{i:0;s:5:"cdata";i:1;a:1:{i:0;s:2:", ";}i:2;i:11639;}i:417;a:3:{i:0;s:14:"monospace_open";i:1;a:0:{}i:2;i:11641;}i:418;a:3:{i:0;s:5:"cdata";i:1;a:1:{i:0;s:6:"Ardour";}i:2;i:11643;}i:419;a:3:{i:0;s:15:"monospace_close";i:1;a:0:{}i:2;i:11649;}i:420;a:3:{i:0;s:5:"cdata";i:1;a:1:{i:0;s:86:", a number of soft synths, and many
more) and Qt (used by the entirety of KDE itself, ";}i:2;i:11651;}i:421;a:3:{i:0;s:14:"monospace_open";i:1;a:0:{}i:2;i:11737;}i:422;a:3:{i:0;s:5:"cdata";i:1;a:1:{i:0;s:3:"VLC";}i:2;i:11739;}i:423;a:3:{i:0;s:15:"monospace_close";i:1;a:0:{}i:2;i:11742;}i:424;a:3:{i:0;s:5:"cdata";i:1;a:1:{i:0;s:2:", ";}i:2;i:11744;}i:425;a:3:{i:0;s:14:"monospace_open";i:1;a:0:{}i:2;i:11746;}i:426;a:3:{i:0;s:5:"cdata";i:1;a:1:{i:0;s:8:"Qtractor";}i:2;i:11748;}i:427;a:3:{i:0;s:15:"monospace_close";i:1;a:0:{}i:2;i:11756;}i:428;a:3:{i:0;s:5:"cdata";i:1;a:1:{i:0;s:83:", as well as by closed source applications like Maya, Nuke, Mari, and many others).";}i:2;i:11758;}i:429;a:3:{i:0;s:7:"p_close";i:1;a:0:{}i:2;i:11841;}i:430;a:3:{i:0;s:6:"p_open";i:1;a:0:{}i:2;i:11841;}i:431;a:3:{i:0;s:5:"cdata";i:1;a:1:{i:0;s:107:"To tie together two of the most common user interface toolkits, GTK and Qt, there is a theme engine called ";}i:2;i:11843;}i:432;a:3:{i:0;s:14:"monospace_open";i:1;a:0:{}i:2;i:11950;}i:433;a:3:{i:0;s:5:"cdata";i:1;a:1:{i:0;s:13:"gtk-qt-engine";}i:2;i:11952;}i:434;a:3:{i:0;s:15:"monospace_close";i:1;a:0:{}i:2;i:11965;}i:435;a:3:{i:0;s:5:"cdata";i:1;a:1:{i:0;s:25:", which feeds into KDE's ";}i:2;i:11967;}i:436;a:3:{i:0;s:14:"monospace_open";i:1;a:0:{}i:2;i:11992;}i:437;a:3:{i:0;s:5:"cdata";i:1;a:1:{i:0;s:15:"System Settings";}i:2;i:11994;}i:438;a:3:{i:0;s:15:"monospace_close";i:1;a:0:{}i:2;i:12009;}i:439;a:3:{i:0;s:5:"cdata";i:1;a:1:{i:0;s:46:", as well as a separate front-end application ";}i:2;i:12011;}i:440;a:3:{i:0;s:14:"monospace_open";i:1;a:0:{}i:2;i:12057;}i:441;a:3:{i:0;s:5:"cdata";i:1;a:1:{i:0;s:11:"gtk-chtheme";}i:2;i:12059;}i:442;a:3:{i:0;s:15:"monospace_close";i:1;a:0:{}i:2;i:12070;}i:443;a:3:{i:0;s:5:"cdata";i:1;a:1:{i:0;s:24:" (use one or the other: ";}i:2;i:12072;}i:444;a:3:{i:0;s:14:"monospace_open";i:1;a:0:{}i:2;i:12096;}i:445;a:3:{i:0;s:5:"cdata";i:1;a:1:{i:0;s:15:"System Settings";}i:2;i:12098;}i:446;a:3:{i:0;s:15:"monospace_close";i:1;a:0:{}i:2;i:12113;}i:447;a:3:{i:0;s:5:"cdata";i:1;a:1:{i:0;s:4:" or ";}i:2;i:12115;}i:448;a:3:{i:0;s:14:"monospace_open";i:1;a:0:{}i:2;i:12119;}i:449;a:3:{i:0;s:5:"cdata";i:1;a:1:{i:0;s:11:"gtk-chtheme";}i:2;i:12121;}i:450;a:3:{i:0;s:15:"monospace_close";i:1;a:0:{}i:2;i:12132;}i:451;a:3:{i:0;s:5:"cdata";i:1;a:1:{i:0;s:199:"; there is no need to use both since they each accomplish the same thing). These tools allow the user to change the GTK theme to something more attractive than the basic box forms of raw GTK widgets.";}i:2;i:12134;}i:452;a:3:{i:0;s:7:"p_close";i:1;a:0:{}i:2;i:12333;}i:453;a:3:{i:0;s:6:"p_open";i:1;a:0:{}i:2;i:12333;}i:454;a:3:{i:0;s:5:"cdata";i:1;a:1:{i:0;s:72:"KDE's set of Qt widgets and styles can be configured by launching KDE's ";}i:2;i:12335;}i:455;a:3:{i:0;s:14:"monospace_open";i:1;a:0:{}i:2;i:12407;}i:456;a:3:{i:0;s:5:"cdata";i:1;a:1:{i:0;s:15:"System Settings";}i:2;i:12409;}i:457;a:3:{i:0;s:15:"monospace_close";i:1;a:0:{}i:2;i:12424;}i:458;a:3:{i:0;s:5:"cdata";i:1;a:1:{i:0;s:9:", in the ";}i:2;i:12426;}i:459;a:3:{i:0;s:6:"plugin";i:1;a:4:{i:0;s:22:"markdowku_boldasterisk";i:1;a:2:{i:0;i:1;i:1;s:2:"**";}i:2;i:1;i:3;s:2:"**";}i:2;i:12435;}i:460;a:3:{i:0;s:6:"plugin";i:1;a:4:{i:0;s:22:"markdowku_boldasterisk";i:1;a:2:{i:0;i:3;i:1;s:20:"Workspace Appearance";}i:2;i:3;i:3;s:20:"Workspace Appearance";}i:2;i:12437;}i:461;a:3:{i:0;s:6:"plugin";i:1;a:4:{i:0;s:22:"markdowku_boldasterisk";i:1;a:2:{i:0;i:4;i:1;s:2:"**";}i:2;i:4;i:3;s:2:"**";}i:2;i:12457;}i:462;a:3:{i:0;s:5:"cdata";i:1;a:1:{i:0;s:5:" and ";}i:2;i:12459;}i:463;a:3:{i:0;s:6:"plugin";i:1;a:4:{i:0;s:22:"markdowku_boldasterisk";i:1;a:2:{i:0;i:1;i:1;s:2:"**";}i:2;i:1;i:3;s:2:"**";}i:2;i:12464;}i:464;a:3:{i:0;s:6:"plugin";i:1;a:4:{i:0;s:22:"markdowku_boldasterisk";i:1;a:2:{i:0;i:3;i:1;s:22:"Application Appearance";}i:2;i:3;i:3;s:22:"Application Appearance";}i:2;i:12466;}i:465;a:3:{i:0;s:6:"plugin";i:1;a:4:{i:0;s:22:"markdowku_boldasterisk";i:1;a:2:{i:0;i:4;i:1;s:2:"**";}i:2;i:4;i:3;s:2:"**";}i:2;i:12488;}i:466;a:3:{i:0;s:5:"cdata";i:1;a:1:{i:0;s:8:" panels.";}i:2;i:12490;}i:467;a:3:{i:0;s:7:"p_close";i:1;a:0:{}i:2;i:12499;}i:468;a:3:{i:0;s:10:"listu_open";i:1;a:0:{}i:2;i:12499;}i:469;a:3:{i:0;s:13:"listitem_open";i:1;a:1:{i:0;i:1;}i:2;i:12499;}i:470;a:3:{i:0;s:16:"listcontent_open";i:1;a:0:{}i:2;i:12499;}i:471;a:3:{i:0;s:5:"cdata";i:1;a:1:{i:0;s:7:"In the ";}i:2;i:12503;}i:472;a:3:{i:0;s:6:"plugin";i:1;a:4:{i:0;s:22:"markdowku_boldasterisk";i:1;a:2:{i:0;i:1;i:1;s:2:"**";}i:2;i:1;i:3;s:2:"**";}i:2;i:12510;}i:473;a:3:{i:0;s:6:"plugin";i:1;a:4:{i:0;s:22:"markdowku_boldasterisk";i:1;a:2:{i:0;i:3;i:1;s:20:"Workspace Appearance";}i:2;i:3;i:3;s:20:"Workspace Appearance";}i:2;i:12512;}i:474;a:3:{i:0;s:6:"plugin";i:1;a:4:{i:0;s:22:"markdowku_boldasterisk";i:1;a:2:{i:0;i:4;i:1;s:2:"**";}i:2;i:4;i:3;s:2:"**";}i:2;i:12532;}i:475;a:3:{i:0;s:5:"cdata";i:1;a:1:{i:0;s:59:" panel, configure and even download new window title bars (";}i:2;i:12534;}i:476;a:3:{i:0;s:18:"doublequoteopening";i:1;a:0:{}i:2;i:12593;}i:477;a:3:{i:0;s:5:"cdata";i:1;a:1:{i:0;s:17:"window decoration";}i:2;i:12594;}i:478;a:3:{i:0;s:18:"doublequoteclosing";i:1;a:0:{}i:2;i:12611;}i:479;a:3:{i:0;s:5:"cdata";i:1;a:1:{i:0;s:70:"), the position of buttons on the title, mouse cursor theme, and more.";}i:2;i:12612;}i:480;a:3:{i:0;s:17:"listcontent_close";i:1;a:0:{}i:2;i:12682;}i:481;a:3:{i:0;s:14:"listitem_close";i:1;a:0:{}i:2;i:12682;}i:482;a:3:{i:0;s:13:"listitem_open";i:1;a:1:{i:0;i:1;}i:2;i:12682;}i:483;a:3:{i:0;s:16:"listcontent_open";i:1;a:0:{}i:2;i:12682;}i:484;a:3:{i:0;s:5:"cdata";i:1;a:1:{i:0;s:7:"In the ";}i:2;i:12686;}i:485;a:3:{i:0;s:6:"plugin";i:1;a:4:{i:0;s:22:"markdowku_boldasterisk";i:1;a:2:{i:0;i:1;i:1;s:2:"**";}i:2;i:1;i:3;s:2:"**";}i:2;i:12693;}i:486;a:3:{i:0;s:6:"plugin";i:1;a:4:{i:0;s:22:"markdowku_boldasterisk";i:1;a:2:{i:0;i:3;i:1;s:22:"Application Appearance";}i:2;i:3;i:3;s:22:"Application Appearance";}i:2;i:12695;}i:487;a:3:{i:0;s:6:"plugin";i:1;a:4:{i:0;s:22:"markdowku_boldasterisk";i:1;a:2:{i:0;i:4;i:1;s:2:"**";}i:2;i:4;i:3;s:2:"**";}i:2;i:12717;}i:488;a:3:{i:0;s:5:"cdata";i:1;a:1:{i:0;s:21:" panel, click on the ";}i:2;i:12719;}i:489;a:3:{i:0;s:6:"plugin";i:1;a:4:{i:0;s:22:"markdowku_boldasterisk";i:1;a:2:{i:0;i:1;i:1;s:2:"**";}i:2;i:1;i:3;s:2:"**";}i:2;i:12740;}i:490;a:3:{i:0;s:6:"plugin";i:1;a:4:{i:0;s:22:"markdowku_boldasterisk";i:1;a:2:{i:0;i:3;i:1;s:5:"Style";}i:2;i:3;i:3;s:5:"Style";}i:2;i:12742;}i:491;a:3:{i:0;s:6:"plugin";i:1;a:4:{i:0;s:22:"markdowku_boldasterisk";i:1;a:2:{i:0;i:4;i:1;s:2:"**";}i:2;i:4;i:3;s:2:"**";}i:2;i:12747;}i:492;a:3:{i:0;s:5:"cdata";i:1;a:1:{i:0;s:71:" category on the left and try the different widget styles on the right.";}i:2;i:12749;}i:493;a:3:{i:0;s:17:"listcontent_close";i:1;a:0:{}i:2;i:12820;}i:494;a:3:{i:0;s:14:"listitem_close";i:1;a:0:{}i:2;i:12820;}i:495;a:3:{i:0;s:11:"listu_close";i:1;a:0:{}i:2;i:12820;}i:496;a:3:{i:0;s:6:"p_open";i:1;a:0:{}i:2;i:12820;}i:497;a:3:{i:0;s:5:"cdata";i:1;a:1:{i:0;s:228:"These control the native KDE look and feel, created with the Qt toolset. If you open a non-Qt application, however, you would notice that some of your style choices will not apply to them. These, typically, are GTK applications.";}i:2;i:12822;}i:498;a:3:{i:0;s:7:"p_close";i:1;a:0:{}i:2;i:13050;}i:499;a:3:{i:0;s:6:"p_open";i:1;a:0:{}i:2;i:13050;}i:500;a:3:{i:0;s:5:"cdata";i:1;a:1:{i:0;s:141:"Some themes exist both for Qt and GTK, while others were only developed for one or the other. One of the most common cross-toolkit themes is ";}i:2;i:13052;}i:501;a:3:{i:0;s:14:"monospace_open";i:1;a:0:{}i:2;i:13193;}i:502;a:3:{i:0;s:5:"cdata";i:1;a:1:{i:0;s:10:"Cleanlooks";}i:2;i:13195;}i:503;a:3:{i:0;s:15:"monospace_close";i:1;a:0:{}i:2;i:13205;}i:504;a:3:{i:0;s:5:"cdata";i:1;a:1:{i:0;s:97:", so if you want applications to be similar in appearance, a unified theme, that's a good choice.";}i:2;i:13207;}i:505;a:3:{i:0;s:7:"p_close";i:1;a:0:{}i:2;i:13304;}i:506;a:3:{i:0;s:6:"p_open";i:1;a:0:{}i:2;i:13304;}i:507;a:3:{i:0;s:5:"cdata";i:1;a:1:{i:0;s:37:"Additional themes are available from ";}i:2;i:13306;}i:508;a:3:{i:0;s:12:"externallink";i:1;a:2:{i:0;s:22:"http://slackbuilds.org";i:1;N;}i:2;i:13343;}i:509;a:3:{i:0;s:5:"cdata";i:1;a:1:{i:0;s:6:" (use ";}i:2;i:13369;}i:510;a:3:{i:0;s:18:"doublequoteopening";i:1;a:0:{}i:2;i:13375;}i:511;a:3:{i:0;s:5:"cdata";i:1;a:1:{i:0;s:5:"theme";}i:2;i:13376;}i:512;a:3:{i:0;s:18:"doublequoteclosing";i:1;a:0:{}i:2;i:13381;}i:513;a:3:{i:0;s:5:"cdata";i:1;a:1:{i:0;s:177:" as a search term). Whether you are looking for new and modern themes or that classic UNIX desktop look from the early days of Pixar and ILM, you are sure to find plenty to try.";}i:2;i:13382;}i:514;a:3:{i:0;s:7:"p_close";i:1;a:0:{}i:2;i:13559;}i:515;a:3:{i:0;s:6:"p_open";i:1;a:0:{}i:2;i:13559;}i:516;a:3:{i:0;s:5:"cdata";i:1;a:1:{i:0;s:43:"To set the GTK theme, you must install the ";}i:2;i:13561;}i:517;a:3:{i:0;s:14:"monospace_open";i:1;a:0:{}i:2;i:13604;}i:518;a:3:{i:0;s:5:"cdata";i:1;a:1:{i:0;s:13:"gtk-qt-engine";}i:2;i:13606;}i:519;a:3:{i:0;s:15:"monospace_close";i:1;a:0:{}i:2;i:13619;}i:520;a:3:{i:0;s:5:"cdata";i:1;a:1:{i:0;s:157:". You can do this manually, or just wait until you do all of your Slackermedia installs, since it is an included dependency in the Slackermedia install list.";}i:2;i:13621;}i:521;a:3:{i:0;s:7:"p_close";i:1;a:0:{}i:2;i:13778;}i:522;a:3:{i:0;s:6:"p_open";i:1;a:0:{}i:2;i:13778;}i:523;a:3:{i:0;s:5:"cdata";i:1;a:1:{i:0;s:37:"After you do install it, just launch ";}i:2;i:13780;}i:524;a:3:{i:0;s:14:"monospace_open";i:1;a:0:{}i:2;i:13817;}i:525;a:3:{i:0;s:5:"cdata";i:1;a:1:{i:0;s:15:"System Settings";}i:2;i:13819;}i:526;a:3:{i:0;s:15:"monospace_close";i:1;a:0:{}i:2;i:13834;}i:527;a:3:{i:0;s:5:"cdata";i:1;a:1:{i:0;s:15:" and click the ";}i:2;i:13836;}i:528;a:3:{i:0;s:6:"plugin";i:1;a:4:{i:0;s:22:"markdowku_boldasterisk";i:1;a:2:{i:0;i:1;i:1;s:2:"**";}i:2;i:1;i:3;s:2:"**";}i:2;i:13851;}i:529;a:3:{i:0;s:6:"plugin";i:1;a:4:{i:0;s:22:"markdowku_boldasterisk";i:1;a:2:{i:0;i:3;i:1;s:15:"GTK+ Appearance";}i:2;i:3;i:3;s:15:"GTK+ Appearance";}i:2;i:13853;}i:530;a:3:{i:0;s:6:"plugin";i:1;a:4:{i:0;s:22:"markdowku_boldasterisk";i:1;a:2:{i:0;i:4;i:1;s:2:"**";}i:2;i:4;i:3;s:2:"**";}i:2;i:13868;}i:531;a:3:{i:0;s:5:"cdata";i:1;a:1:{i:0;s:43:" icon. Set the theme and also activate the ";}i:2;i:13870;}i:532;a:3:{i:0;s:6:"plugin";i:1;a:4:{i:0;s:22:"markdowku_boldasterisk";i:1;a:2:{i:0;i:1;i:1;s:2:"**";}i:2;i:1;i:3;s:2:"**";}i:2;i:13913;}i:533;a:3:{i:0;s:6:"plugin";i:1;a:4:{i:0;s:22:"markdowku_boldasterisk";i:1;a:2:{i:0;i:3;i:1;s:21:"Firefox Scrollbar Fix";}i:2;i:3;i:3;s:21:"Firefox Scrollbar Fix";}i:2;i:13915;}i:534;a:3:{i:0;s:6:"plugin";i:1;a:4:{i:0;s:22:"markdowku_boldasterisk";i:1;a:2:{i:0;i:4;i:1;s:2:"**";}i:2;i:4;i:3;s:2:"**";}i:2;i:13936;}i:535;a:3:{i:0;s:5:"cdata";i:1;a:1:{i:0;s:1:".";}i:2;i:13938;}i:536;a:3:{i:0;s:7:"p_close";i:1;a:0:{}i:2;i:13939;}i:537;a:3:{i:0;s:6:"p_open";i:1;a:0:{}i:2;i:13939;}i:538;a:3:{i:0;s:5:"cdata";i:1;a:1:{i:0;s:380:"Theming the Linux desktop is both easy and, as with everything in Linux, entirely open. If your art leans toward graphic design or UX, then the Linux desktop is the canvas of your dreams; there is nothing you cannot theme. The thing to remember is that the GTK and Qt toolkits each require their own themes, so anything you do, you must do twice in order to gain full integration.";}i:2;i:13941;}i:539;a:3:{i:0;s:7:"p_close";i:1;a:0:{}i:2;i:14321;}i:540;a:3:{i:0;s:6:"p_open";i:1;a:0:{}i:2;i:14321;}i:541;a:3:{i:0;s:5:"cdata";i:1;a:1:{i:0;s:230:"Of course there are more toolkits than just GTK and Qt, but this is true of any operating system. As long as you theme for GTK and Qt, you'll get 90% of your environment, and the applications that remain are what they are: unique.";}i:2;i:14323;}i:542;a:3:{i:0;s:7:"p_close";i:1;a:0:{}i:2;i:14553;}i:543;a:3:{i:0;s:6:"p_open";i:1;a:0:{}i:2;i:14553;}i:544;a:3:{i:0;s:5:"cdata";i:1;a:1:{i:0;s:293:"An entire book could be written on how malleable the Linux environment is in the hands of each user. The subject is worth pursuing, both on a purely aesthetic level as well as the rich set of scripting languages and every-day hacks that even non-programmers can make to improve their workflow.";}i:2;i:14555;}i:545;a:3:{i:0;s:7:"p_close";i:1;a:0:{}i:2;i:14848;}i:546;a:3:{i:0;s:6:"p_open";i:1;a:0:{}i:2;i:14848;}i:547;a:3:{i:0;s:5:"cdata";i:1;a:1:{i:0;s:314:"The whole point of GNU Linux is to take back control of the computer, so don't be shy. Take control, ask hard questions about why an activity takes an hour when it could be done in five minutes, and develop your own shortcuts, cheats, and hacks. And if you come up with anything especially useful, share it online!";}i:2;i:14850;}i:548;a:3:{i:0;s:7:"p_close";i:1;a:0:{}i:2;i:15164;}i:549;a:3:{i:0;s:6:"p_open";i:1;a:0:{}i:2;i:15164;}i:550;a:3:{i:0;s:6:"plugin";i:1;a:4:{i:0;s:6:"button";i:1;a:2:{i:0;i:1;i:1;a:10:{i:0;s:92:"[[{arrown.png|border:0;background:none;width:0;display:inline-block;float:right;}linuxaudio|";s:5:"image";s:10:"arrown.png";i:1;s:10:"arrown.png";s:3:"css";s:66:"border:0;background:none;width:0;display:inline-block;float:right;";i:2;s:66:"border:0;background:none;width:0;display:inline-block;float:right;";s:4:"link";s:10:"linuxaudio";i:3;s:10:"linuxaudio";s:5:"title";s:0:"";i:4;s:0:"";s:6:"target";s:0:"";}}i:2;i:1;i:3;s:92:"[[{arrown.png|border:0;background:none;width:0;display:inline-block;float:right;}linuxaudio|";}i:2;i:15167;}i:551;a:3:{i:0;s:6:"plugin";i:1;a:4:{i:0;s:6:"button";i:1;a:2:{i:0;i:4;i:1;s:0:"";}i:2;i:4;i:3;s:2:"]]";}i:2;i:15259;}i:552;a:3:{i:0;s:6:"plugin";i:1;a:4:{i:0;s:6:"button";i:1;a:2:{i:0;i:1;i:1;a:10:{i:0;s:68:"[[{arrowp.png|border:0;background:none;width:0;float:right;}install|";s:5:"image";s:10:"arrowp.png";i:1;s:10:"arrowp.png";s:3:"css";s:45:"border:0;background:none;width:0;float:right;";i:2;s:45:"border:0;background:none;width:0;float:right;";s:4:"link";s:7:"install";i:3;s:7:"install";s:5:"title";s:0:"";i:4;s:0:"";s:6:"target";s:0:"";}}i:2;i:1;i:3;s:68:"[[{arrowp.png|border:0;background:none;width:0;float:right;}install|";}i:2;i:15261;}i:553;a:3:{i:0;s:6:"plugin";i:1;a:4:{i:0;s:6:"button";i:1;a:2:{i:0;i:4;i:1;s:0:"";}i:2;i:4;i:3;s:2:"]]";}i:2;i:15329;}i:554;a:3:{i:0;s:5:"cdata";i:1;a:1:{i:0;s:0:"";}i:2;i:15331;}i:555;a:3:{i:0;s:7:"p_close";i:1;a:0:{}i:2;i:15331;}i:556;a:3:{i:0;s:13:"section_close";i:1;a:0:{}i:2;i:15331;}i:557;a:3:{i:0;s:12:"document_end";i:1;a:0:{}i:2;i:15331;}}