a:150:{i:0;a:3:{i:0;s:14:"document_start";i:1;a:0:{}i:2;i:0;}i:1;a:3:{i:0;s:6:"p_open";i:1;a:0:{}i:2;i:0;}i:2;a:3:{i:0;s:6:"plugin";i:1;a:4:{i:0;s:6:"button";i:1;a:2:{i:0;i:1;i:1;a:10:{i:0;s:106:"[[{arrowp.png|border:0;background:none;width:0;display:inline-block;position:absolute;top:0;left:0;}start|";s:5:"image";s:10:"arrowp.png";i:1;s:10:"arrowp.png";s:3:"css";s:85:"border:0;background:none;width:0;display:inline-block;position:absolute;top:0;left:0;";i:2;s:85:"border:0;background:none;width:0;display:inline-block;position:absolute;top:0;left:0;";s:4:"link";s:5:"start";i:3;s:5:"start";s:5:"title";s:0:"";i:4;s:0:"";s:6:"target";s:0:"";}}i:2;i:1;i:3;s:106:"[[{arrowp.png|border:0;background:none;width:0;display:inline-block;position:absolute;top:0;left:0;}start|";}i:2;i:1;}i:3;a:3:{i:0;s:6:"plugin";i:1;a:4:{i:0;s:6:"button";i:1;a:2:{i:0;i:4;i:1;s:0:"";}i:2;i:4;i:3;s:2:"]]";}i:2;i:107;}i:4;a:3:{i:0;s:7:"p_close";i:1;a:0:{}i:2;i:109;}i:5;a:3:{i:0;s:6:"p_open";i:1;a:0:{}i:2;i:109;}i:6;a:3:{i:0;s:6:"plugin";i:1;a:4:{i:0;s:6:"button";i:1;a:2:{i:0;i:1;i:1;a:10:{i:0;s:117:"[[{arrown.png|border:0;background:none;width:0;display:inline-block;position:absolute;top:0;margin-left:2.5em;}intro|";s:5:"image";s:10:"arrown.png";i:1;s:10:"arrown.png";s:3:"css";s:96:"border:0;background:none;width:0;display:inline-block;position:absolute;top:0;margin-left:2.5em;";i:2;s:96:"border:0;background:none;width:0;display:inline-block;position:absolute;top:0;margin-left:2.5em;";s:4:"link";s:5:"intro";i:3;s:5:"intro";s:5:"title";s:0:"";i:4;s:0:"";s:6:"target";s:0:"";}}i:2;i:1;i:3;s:117:"[[{arrown.png|border:0;background:none;width:0;display:inline-block;position:absolute;top:0;margin-left:2.5em;}intro|";}i:2;i:111;}i:7;a:3:{i:0;s:6:"plugin";i:1;a:4:{i:0;s:6:"button";i:1;a:2:{i:0;i:4;i:1;s:0:"";}i:2;i:4;i:3;s:2:"]]";}i:2;i:228;}i:8;a:3:{i:0;s:5:"cdata";i:1;a:1:{i:0;s:0:"";}i:2;i:230;}i:9;a:3:{i:0;s:7:"p_close";i:1;a:0:{}i:2;i:231;}i:10;a:3:{i:0;s:6:"header";i:1;a:3:{i:0;s:21:"Slackermedia Handbook";i:1;i:1;i:2;i:231;}i:2;i:231;}i:11;a:3:{i:0;s:12:"section_open";i:1;a:1:{i:0;i:1;}i:2;i:231;}i:12;a:3:{i:0;s:6:"plugin";i:1;a:4:{i:0;s:22:"markdowku_headersetext";i:1;b:1;i:2;i:5;i:3;s:45:"
Slackermedia Handbook
======================";}i:2;i:231;}i:13;a:3:{i:0;s:6:"p_open";i:1;a:0:{}i:2;i:231;}i:14;a:3:{i:0;s:5:"cdata";i:1;a:1:{i:0;s:434:"Slackermedia is documentation providing the information you need to create a full multimedia studio running on Slackware Linux. Its philosophy is to use only the best and most stable multimedia content creation tools that Linux has to offer. This not a beta testing exercise or a development platform; unproven technology need not apply. This is building a studio so you can forget about the tools and get down to creating cool stuff.";}i:2;i:278;}i:15;a:3:{i:0;s:7:"p_close";i:1;a:0:{}i:2;i:712;}i:16;a:3:{i:0;s:13:"section_close";i:1;a:0:{}i:2;i:714;}i:17;a:3:{i:0;s:6:"header";i:1;a:3:{i:0;s:18:"The Online Edition";i:1;i:2;i:2;i:714;}i:2;i:714;}i:18;a:3:{i:0;s:12:"section_open";i:1;a:1:{i:0;i:2;}i:2;i:714;}i:19;a:3:{i:0;s:6:"plugin";i:1;a:4:{i:0;s:22:"markdowku_headersetext";i:1;b:1;i:2;i:5;i:3;s:42:"
The Online Edition
----------------------";}i:2;i:714;}i:20;a:3:{i:0;s:6:"p_open";i:1;a:0:{}i:2;i:714;}i:21;a:3:{i:0;s:5:"cdata";i:1;a:1:{i:0;s:222:"Previous versions of Slackermedia were published as books or ebooks; this all-new handbook is intended to be an ongoing up-to-date look at the process of building and using Slackware as a multimedia production environment.";}i:2;i:758;}i:22;a:3:{i:0;s:7:"p_close";i:1;a:0:{}i:2;i:980;}i:23;a:3:{i:0;s:13:"section_close";i:1;a:0:{}i:2;i:982;}i:24;a:3:{i:0;s:6:"header";i:1;a:3:{i:0;s:25:"Typographical Conventions";i:1;i:2;i:2;i:982;}i:2;i:982;}i:25;a:3:{i:0;s:12:"section_open";i:1;a:1:{i:0;i:2;}i:2;i:982;}i:26;a:3:{i:0;s:6:"plugin";i:1;a:4:{i:0;s:22:"markdowku_headersetext";i:1;b:1;i:2;i:5;i:3;s:55:"
Typographical Conventions
----------------------------";}i:2;i:982;}i:27;a:3:{i:0;s:6:"p_open";i:1;a:0:{}i:2;i:982;}i:28;a:3:{i:0;s:5:"cdata";i:1;a:1:{i:0;s:122:"This text attempts to follow common conventions in technical documentation. Most of it will be intuitive, but to be clear:";}i:2;i:1039;}i:29;a:3:{i:0;s:7:"p_close";i:1;a:0:{}i:2;i:1161;}i:30;a:3:{i:0;s:6:"p_open";i:1;a:0:{}i:2;i:1161;}i:31;a:3:{i:0;s:14:"monospace_open";i:1;a:0:{}i:2;i:1164;}i:32;a:3:{i:0;s:5:"cdata";i:1;a:1:{i:0;s:8:"Monotype";}i:2;i:1166;}i:33;a:3:{i:0;s:15:"monospace_close";i:1;a:0:{}i:2;i:1174;}i:34;a:3:{i:0;s:7:"p_close";i:1;a:0:{}i:2;i:1176;}i:35;a:3:{i:0;s:10:"listu_open";i:1;a:0:{}i:2;i:1176;}i:36;a:3:{i:0;s:13:"listitem_open";i:1;a:1:{i:0;i:1;}i:2;i:1176;}i:37;a:3:{i:0;s:16:"listcontent_open";i:1;a:0:{}i:2;i:1176;}i:38;a:3:{i:0;s:5:"cdata";i:1;a:1:{i:0;s:17:"application names";}i:2;i:1180;}i:39;a:3:{i:0;s:17:"listcontent_close";i:1;a:0:{}i:2;i:1197;}i:40;a:3:{i:0;s:14:"listitem_close";i:1;a:0:{}i:2;i:1197;}i:41;a:3:{i:0;s:13:"listitem_open";i:1;a:1:{i:0;i:1;}i:2;i:1197;}i:42;a:3:{i:0;s:16:"listcontent_open";i:1;a:0:{}i:2;i:1197;}i:43;a:3:{i:0;s:5:"cdata";i:1;a:1:{i:0;s:8:"commands";}i:2;i:1201;}i:44;a:3:{i:0;s:17:"listcontent_close";i:1;a:0:{}i:2;i:1209;}i:45;a:3:{i:0;s:14:"listitem_close";i:1;a:0:{}i:2;i:1209;}i:46;a:3:{i:0;s:13:"listitem_open";i:1;a:1:{i:0;i:1;}i:2;i:1209;}i:47;a:3:{i:0;s:16:"listcontent_open";i:1;a:0:{}i:2;i:1209;}i:48;a:3:{i:0;s:5:"cdata";i:1;a:1:{i:0;s:8:"filename";}i:2;i:1213;}i:49;a:3:{i:0;s:17:"listcontent_close";i:1;a:0:{}i:2;i:1221;}i:50;a:3:{i:0;s:14:"listitem_close";i:1;a:0:{}i:2;i:1221;}i:51;a:3:{i:0;s:11:"listu_close";i:1;a:0:{}i:2;i:1221;}i:52;a:3:{i:0;s:6:"p_open";i:1;a:0:{}i:2;i:1221;}i:53;a:3:{i:0;s:6:"plugin";i:1;a:4:{i:0;s:22:"markdowku_boldasterisk";i:1;a:2:{i:0;i:1;i:1;s:2:"**";}i:2;i:1;i:3;s:2:"**";}i:2;i:1223;}i:54;a:3:{i:0;s:6:"plugin";i:1;a:4:{i:0;s:22:"markdowku_boldasterisk";i:1;a:2:{i:0;i:3;i:1;s:8:"Boldface";}i:2;i:3;i:3;s:8:"Boldface";}i:2;i:1225;}i:55;a:3:{i:0;s:6:"plugin";i:1;a:4:{i:0;s:22:"markdowku_boldasterisk";i:1;a:2:{i:0;i:4;i:1;s:2:"**";}i:2;i:4;i:3;s:2:"**";}i:2;i:1233;}i:56;a:3:{i:0;s:7:"p_close";i:1;a:0:{}i:2;i:1235;}i:57;a:3:{i:0;s:10:"listu_open";i:1;a:0:{}i:2;i:1235;}i:58;a:3:{i:0;s:13:"listitem_open";i:1;a:1:{i:0;i:1;}i:2;i:1235;}i:59;a:3:{i:0;s:16:"listcontent_open";i:1;a:0:{}i:2;i:1235;}i:60;a:3:{i:0;s:5:"cdata";i:1;a:1:{i:0;s:50:"gui elements: labels, tabs, buttons, window_titles";}i:2;i:1239;}i:61;a:3:{i:0;s:17:"listcontent_close";i:1;a:0:{}i:2;i:1289;}i:62;a:3:{i:0;s:14:"listitem_close";i:1;a:0:{}i:2;i:1289;}i:63;a:3:{i:0;s:13:"listitem_open";i:1;a:1:{i:0;i:1;}i:2;i:1289;}i:64;a:3:{i:0;s:16:"listcontent_open";i:1;a:0:{}i:2;i:1289;}i:65;a:3:{i:0;s:5:"cdata";i:1;a:1:{i:0;s:38:"Keywords, jargon, or important phrases";}i:2;i:1293;}i:66;a:3:{i:0;s:17:"listcontent_close";i:1;a:0:{}i:2;i:1331;}i:67;a:3:{i:0;s:14:"listitem_close";i:1;a:0:{}i:2;i:1331;}i:68;a:3:{i:0;s:11:"listu_close";i:1;a:0:{}i:2;i:1331;}i:69;a:3:{i:0;s:6:"p_open";i:1;a:0:{}i:2;i:1331;}i:70;a:3:{i:0;s:13:"emphasis_open";i:1;a:0:{}i:2;i:1333;}i:71;a:3:{i:0;s:5:"cdata";i:1;a:1:{i:0;s:7:"Italics";}i:2;i:1335;}i:72;a:3:{i:0;s:14:"emphasis_close";i:1;a:0:{}i:2;i:1342;}i:73;a:3:{i:0;s:7:"p_close";i:1;a:0:{}i:2;i:1344;}i:74;a:3:{i:0;s:10:"listu_open";i:1;a:0:{}i:2;i:1344;}i:75;a:3:{i:0;s:13:"listitem_open";i:1;a:1:{i:0;i:1;}i:2;i:1344;}i:76;a:3:{i:0;s:16:"listcontent_open";i:1;a:0:{}i:2;i:1344;}i:77;a:3:{i:0;s:5:"cdata";i:1;a:1:{i:0;s:8:"Emphasis";}i:2;i:1348;}i:78;a:3:{i:0;s:17:"listcontent_close";i:1;a:0:{}i:2;i:1356;}i:79;a:3:{i:0;s:14:"listitem_close";i:1;a:0:{}i:2;i:1356;}i:80;a:3:{i:0;s:11:"listu_close";i:1;a:0:{}i:2;i:1356;}i:81;a:3:{i:0;s:6:"p_open";i:1;a:0:{}i:2;i:1356;}i:82;a:3:{i:0;s:6:"plugin";i:1;a:4:{i:0;s:22:"markdowku_boldasterisk";i:1;a:2:{i:0;i:1;i:1;s:2:"**";}i:2;i:1;i:3;s:2:"**";}i:2;i:1358;}i:83;a:3:{i:0;s:6:"plugin";i:1;a:4:{i:0;s:22:"markdowku_boldasterisk";i:1;a:2:{i:0;i:3;i:1;s:6:"Alerts";}i:2;i:3;i:3;s:6:"Alerts";}i:2;i:1360;}i:84;a:3:{i:0;s:6:"plugin";i:1;a:4:{i:0;s:22:"markdowku_boldasterisk";i:1;a:2:{i:0;i:4;i:1;s:2:"**";}i:2;i:4;i:3;s:2:"**";}i:2;i:1366;}i:85;a:3:{i:0;s:5:"cdata";i:1;a:1:{i:0;s:0:"";}i:2;i:1368;}i:86;a:3:{i:0;s:7:"p_close";i:1;a:0:{}i:2;i:1369;}i:87;a:3:{i:0;s:6:"plugin";i:1;a:4:{i:0;s:12:"wrap_divwrap";i:1;a:2:{i:0;i:1;i:1;s:5:"alert";}i:2;i:1;i:3;s:12:"<WRAP alert>";}i:2;i:1369;}i:88;a:3:{i:0;s:6:"p_open";i:1;a:0:{}i:2;i:1369;}i:89;a:3:{i:0;s:5:"cdata";i:1;a:1:{i:0;s:9:"Alert box";}i:2;i:1382;}i:90;a:3:{i:0;s:7:"p_close";i:1;a:0:{}i:2;i:1392;}i:91;a:3:{i:0;s:6:"plugin";i:1;a:4:{i:0;s:12:"wrap_divwrap";i:1;a:2:{i:0;i:4;i:1;s:0:"";}i:2;i:4;i:3;s:7:"</WRAP>";}i:2;i:1392;}i:92;a:3:{i:0;s:6:"p_open";i:1;a:0:{}i:2;i:1392;}i:93;a:3:{i:0;s:5:"cdata";i:1;a:1:{i:0;s:70:"Important information that, if ignored, will cause something to fail. ";}i:2;i:1400;}i:94;a:3:{i:0;s:7:"p_close";i:1;a:0:{}i:2;i:1470;}i:95;a:3:{i:0;s:6:"p_open";i:1;a:0:{}i:2;i:1470;}i:96;a:3:{i:0;s:6:"plugin";i:1;a:4:{i:0;s:22:"markdowku_boldasterisk";i:1;a:2:{i:0;i:1;i:1;s:2:"**";}i:2;i:1;i:3;s:2:"**";}i:2;i:1472;}i:97;a:3:{i:0;s:6:"plugin";i:1;a:4:{i:0;s:22:"markdowku_boldasterisk";i:1;a:2:{i:0;i:3;i:1;s:9:"Important";}i:2;i:3;i:3;s:9:"Important";}i:2;i:1474;}i:98;a:3:{i:0;s:6:"plugin";i:1;a:4:{i:0;s:22:"markdowku_boldasterisk";i:1;a:2:{i:0;i:4;i:1;s:2:"**";}i:2;i:4;i:3;s:2:"**";}i:2;i:1483;}i:99;a:3:{i:0;s:5:"cdata";i:1;a:1:{i:0;s:0:"";}i:2;i:1485;}i:100;a:3:{i:0;s:7:"p_close";i:1;a:0:{}i:2;i:1486;}i:101;a:3:{i:0;s:6:"plugin";i:1;a:4:{i:0;s:12:"wrap_divwrap";i:1;a:2:{i:0;i:1;i:1;s:9:"important";}i:2;i:1;i:3;s:16:"<WRAP important>";}i:2;i:1486;}i:102;a:3:{i:0;s:6:"p_open";i:1;a:0:{}i:2;i:1486;}i:103;a:3:{i:0;s:5:"cdata";i:1;a:1:{i:0;s:13:"Important box";}i:2;i:1503;}i:104;a:3:{i:0;s:7:"p_close";i:1;a:0:{}i:2;i:1517;}i:105;a:3:{i:0;s:6:"plugin";i:1;a:4:{i:0;s:12:"wrap_divwrap";i:1;a:2:{i:0;i:4;i:1;s:0:"";}i:2;i:4;i:3;s:7:"</WRAP>";}i:2;i:1517;}i:106;a:3:{i:0;s:6:"p_open";i:1;a:0:{}i:2;i:1517;}i:107;a:3:{i:0;s:5:"cdata";i:1;a:1:{i:0;s:148:"Information that could confuse new users, but that will probably be common knowledge to experts. Pay special attention to these notices to level up.";}i:2;i:1526;}i:108;a:3:{i:0;s:7:"p_close";i:1;a:0:{}i:2;i:1674;}i:109;a:3:{i:0;s:6:"p_open";i:1;a:0:{}i:2;i:1674;}i:110;a:3:{i:0;s:6:"plugin";i:1;a:4:{i:0;s:22:"markdowku_boldasterisk";i:1;a:2:{i:0;i:1;i:1;s:2:"**";}i:2;i:1;i:3;s:2:"**";}i:2;i:1676;}i:111;a:3:{i:0;s:6:"plugin";i:1;a:4:{i:0;s:22:"markdowku_boldasterisk";i:1;a:2:{i:0;i:3;i:1;s:3:"Tip";}i:2;i:3;i:3;s:3:"Tip";}i:2;i:1678;}i:112;a:3:{i:0;s:6:"plugin";i:1;a:4:{i:0;s:22:"markdowku_boldasterisk";i:1;a:2:{i:0;i:4;i:1;s:2:"**";}i:2;i:4;i:3;s:2:"**";}i:2;i:1681;}i:113;a:3:{i:0;s:5:"cdata";i:1;a:1:{i:0;s:0:"";}i:2;i:1683;}i:114;a:3:{i:0;s:7:"p_close";i:1;a:0:{}i:2;i:1684;}i:115;a:3:{i:0;s:6:"plugin";i:1;a:4:{i:0;s:12:"wrap_divwrap";i:1;a:2:{i:0;i:1;i:1;s:3:"tip";}i:2;i:1;i:3;s:10:"<WRAP tip>";}i:2;i:1684;}i:116;a:3:{i:0;s:6:"p_open";i:1;a:0:{}i:2;i:1684;}i:117;a:3:{i:0;s:5:"cdata";i:1;a:1:{i:0;s:7:"Tip box";}i:2;i:1695;}i:118;a:3:{i:0;s:7:"p_close";i:1;a:0:{}i:2;i:1703;}i:119;a:3:{i:0;s:6:"plugin";i:1;a:4:{i:0;s:12:"wrap_divwrap";i:1;a:2:{i:0;i:4;i:1;s:0:"";}i:2;i:4;i:3;s:7:"</WRAP>";}i:2;i:1703;}i:120;a:3:{i:0;s:6:"p_open";i:1;a:0:{}i:2;i:1703;}i:121;a:3:{i:0;s:5:"cdata";i:1;a:1:{i:0;s:166:"Optional information that often represents what the authors and other users of Slackermedia do, but may or may not be useful to you, depending on your personal style.";}i:2;i:1712;}i:122;a:3:{i:0;s:7:"p_close";i:1;a:0:{}i:2;i:1878;}i:123;a:3:{i:0;s:6:"p_open";i:1;a:0:{}i:2;i:1878;}i:124;a:3:{i:0;s:6:"plugin";i:1;a:4:{i:0;s:22:"markdowku_boldasterisk";i:1;a:2:{i:0;i:1;i:1;s:2:"**";}i:2;i:1;i:3;s:2:"**";}i:2;i:1880;}i:125;a:3:{i:0;s:7:"acronym";i:1;a:1:{i:0;s:5:"TL;DR";}i:2;i:1882;}i:126;a:3:{i:0;s:6:"plugin";i:1;a:4:{i:0;s:22:"markdowku_boldasterisk";i:1;a:2:{i:0;i:4;i:1;s:2:"**";}i:2;i:4;i:3;s:2:"**";}i:2;i:1887;}i:127;a:3:{i:0;s:5:"cdata";i:1;a:1:{i:0;s:0:"";}i:2;i:1889;}i:128;a:3:{i:0;s:7:"p_close";i:1;a:0:{}i:2;i:1890;}i:129;a:3:{i:0;s:6:"plugin";i:1;a:4:{i:0;s:12:"wrap_divwrap";i:1;a:2:{i:0;i:1;i:1;s:4:"info";}i:2;i:1;i:3;s:11:"<WRAP info>";}i:2;i:1890;}i:130;a:3:{i:0;s:6:"p_open";i:1;a:0:{}i:2;i:1890;}i:131;a:3:{i:0;s:5:"cdata";i:1;a:1:{i:0;s:21:"Too Long; Didn't Read";}i:2;i:1902;}i:132;a:3:{i:0;s:7:"p_close";i:1;a:0:{}i:2;i:1924;}i:133;a:3:{i:0;s:6:"plugin";i:1;a:4:{i:0;s:12:"wrap_divwrap";i:1;a:2:{i:0;i:4;i:1;s:0:"";}i:2;i:4;i:3;s:7:"</WRAP>";}i:2;i:1924;}i:134;a:3:{i:0;s:6:"p_open";i:1;a:0:{}i:2;i:1924;}i:135;a:3:{i:0;s:5:"cdata";i:1;a:1:{i:0;s:227:"For the impatient. These boxes sum up the contents of a chapter or section. If you only need a reminder of what to do, go straight to these boxes. If you are a new user, these can be useful summaries, but you should still read ";}i:2;i:1933;}i:136;a:3:{i:0;s:13:"emphasis_open";i:1;a:0:{}i:2;i:2160;}i:137;a:3:{i:0;s:5:"cdata";i:1;a:1:{i:0;s:10:"everything";}i:2;i:2162;}i:138;a:3:{i:0;s:14:"emphasis_close";i:1;a:0:{}i:2;i:2172;}i:139;a:3:{i:0;s:5:"cdata";i:1;a:1:{i:0;s:1:".";}i:2;i:2174;}i:140;a:3:{i:0;s:7:"p_close";i:1;a:0:{}i:2;i:2175;}i:141;a:3:{i:0;s:6:"p_open";i:1;a:0:{}i:2;i:2175;}i:142;a:3:{i:0;s:6:"plugin";i:1;a:4:{i:0;s:6:"button";i:1;a:2:{i:0;i:1;i:1;a:10:{i:0;s:87:"[[{arrown.png|border:0;background:none;width:0;display:inline-block;float:right;}intro|";s:5:"image";s:10:"arrown.png";i:1;s:10:"arrown.png";s:3:"css";s:66:"border:0;background:none;width:0;display:inline-block;float:right;";i:2;s:66:"border:0;background:none;width:0;display:inline-block;float:right;";s:4:"link";s:5:"intro";i:3;s:5:"intro";s:5:"title";s:0:"";i:4;s:0:"";s:6:"target";s:0:"";}}i:2;i:1;i:3;s:87:"[[{arrown.png|border:0;background:none;width:0;display:inline-block;float:right;}intro|";}i:2;i:2178;}i:143;a:3:{i:0;s:6:"plugin";i:1;a:4:{i:0;s:6:"button";i:1;a:2:{i:0;i:4;i:1;s:0:"";}i:2;i:4;i:3;s:2:"]]";}i:2;i:2265;}i:144;a:3:{i:0;s:6:"plugin";i:1;a:4:{i:0;s:6:"button";i:1;a:2:{i:0;i:1;i:1;a:10:{i:0;s:66:"[[{arrowp.png|border:0;background:none;width:0;float:right;}start|";s:5:"image";s:10:"arrowp.png";i:1;s:10:"arrowp.png";s:3:"css";s:45:"border:0;background:none;width:0;float:right;";i:2;s:45:"border:0;background:none;width:0;float:right;";s:4:"link";s:5:"start";i:3;s:5:"start";s:5:"title";s:0:"";i:4;s:0:"";s:6:"target";s:0:"";}}i:2;i:1;i:3;s:66:"[[{arrowp.png|border:0;background:none;width:0;float:right;}start|";}i:2;i:2267;}i:145;a:3:{i:0;s:6:"plugin";i:1;a:4:{i:0;s:6:"button";i:1;a:2:{i:0;i:4;i:1;s:0:"";}i:2;i:4;i:3;s:2:"]]";}i:2;i:2333;}i:146;a:3:{i:0;s:5:"cdata";i:1;a:1:{i:0;s:0:"";}i:2;i:2335;}i:147;a:3:{i:0;s:7:"p_close";i:1;a:0:{}i:2;i:2335;}i:148;a:3:{i:0;s:13:"section_close";i:1;a:0:{}i:2;i:2335;}i:149;a:3:{i:0;s:12:"document_end";i:1;a:0:{}i:2;i:2335;}}