a:47:{i:0;a:3:{i:0;s:14:"document_start";i:1;a:0:{}i:2;i:0;}i:1;a:3:{i:0;s:6:"header";i:1;a:3:{i:0;s:20:"The Slackermedia Way";i:1;i:1;i:2;i:1;}i:2;i:1;}i:2;a:3:{i:0;s:12:"section_open";i:1;a:1:{i:0;i:1;}i:2;i:1;}i:3;a:3:{i:0;s:6:"p_open";i:1;a:0:{}i:2;i:1;}i:4;a:3:{i:0;s:5:"cdata";i:1;a:1:{i:0;s:11:"Also called";}i:2;i:37;}i:5;a:3:{i:0;s:7:"p_close";i:1;a:0:{}i:2;i:48;}i:6;a:3:{i:0;s:10:"listu_open";i:1;a:0:{}i:2;i:48;}i:7;a:3:{i:0;s:13:"listitem_open";i:1;a:1:{i:0;i:1;}i:2;i:48;}i:8;a:3:{i:0;s:16:"listcontent_open";i:1;a:0:{}i:2;i:48;}i:9;a:3:{i:0;s:6:"plugin";i:1;a:4:{i:0;s:16:"markdowku_ulists";i:1;b:1;i:2;i:1;i:3;s:6:"

  * ";}i:2;i:48;}i:10;a:3:{i:0;s:5:"cdata";i:1;a:1:{i:0;s:29:"The Subgenius of Slackermedia";}i:2;i:54;}i:11;a:3:{i:0;s:6:"plugin";i:1;a:4:{i:0;s:16:"markdowku_ulists";i:1;b:1;i:2;i:3;i:3;s:29:"The Subgenius of Slackermedia";}i:2;i:54;}i:12;a:3:{i:0;s:17:"listcontent_close";i:1;a:0:{}i:2;i:83;}i:13;a:3:{i:0;s:14:"listitem_close";i:1;a:0:{}i:2;i:83;}i:14;a:3:{i:0;s:13:"listitem_open";i:1;a:1:{i:0;i:1;}i:2;i:83;}i:15;a:3:{i:0;s:16:"listcontent_open";i:1;a:0:{}i:2;i:83;}i:16;a:3:{i:0;s:6:"plugin";i:1;a:4:{i:0;s:16:"markdowku_ulists";i:1;b:1;i:2;i:2;i:3;s:5:"
  * ";}i:2;i:83;}i:17;a:3:{i:0;s:5:"cdata";i:1;a:1:{i:0;s:21:"The Slackmedia Mantra";}i:2;i:88;}i:18;a:3:{i:0;s:6:"plugin";i:1;a:4:{i:0;s:16:"markdowku_ulists";i:1;b:1;i:2;i:3;i:3;s:21:"The Slackmedia Mantra";}i:2;i:88;}i:19;a:3:{i:0;s:17:"listcontent_close";i:1;a:0:{}i:2;i:109;}i:20;a:3:{i:0;s:14:"listitem_close";i:1;a:0:{}i:2;i:109;}i:21;a:3:{i:0;s:13:"listitem_open";i:1;a:1:{i:0;i:1;}i:2;i:109;}i:22;a:3:{i:0;s:16:"listcontent_open";i:1;a:0:{}i:2;i:109;}i:23;a:3:{i:0;s:6:"plugin";i:1;a:4:{i:0;s:16:"markdowku_ulists";i:1;b:1;i:2;i:2;i:3;s:5:"
  * ";}i:2;i:109;}i:24;a:3:{i:0;s:5:"cdata";i:1;a:1:{i:0;s:39:"Liturgy of the Slacker Multimediatician";}i:2;i:114;}i:25;a:3:{i:0;s:6:"plugin";i:1;a:4:{i:0;s:16:"markdowku_ulists";i:1;b:1;i:2;i:3;i:3;s:39:"Liturgy of the Slacker Multimediatician";}i:2;i:114;}i:26;a:3:{i:0;s:17:"listcontent_close";i:1;a:0:{}i:2;i:153;}i:27;a:3:{i:0;s:14:"listitem_close";i:1;a:0:{}i:2;i:153;}i:28;a:3:{i:0;s:11:"listu_close";i:1;a:0:{}i:2;i:153;}i:29;a:3:{i:0;s:6:"plugin";i:1;a:4:{i:0;s:16:"markdowku_ulists";i:1;b:1;i:2;i:4;i:3;s:1:"
";}i:2;i:153;}i:30;a:3:{i:0;s:6:"p_open";i:1;a:0:{}i:2;i:153;}i:31;a:3:{i:0;s:18:"doublequoteopening";i:1;a:0:{}i:2;i:155;}i:32;a:3:{i:0;s:5:"cdata";i:1;a:1:{i:0;s:112:"Understand your system, how your tools work, and how your tools work together, and then build your own solution.";}i:2;i:156;}i:33;a:3:{i:0;s:18:"doublequoteclosing";i:1;a:0:{}i:2;i:268;}i:34;a:3:{i:0;s:7:"p_close";i:1;a:0:{}i:2;i:269;}i:35;a:3:{i:0;s:6:"p_open";i:1;a:0:{}i:2;i:269;}i:36;a:3:{i:0;s:5:"cdata";i:1;a:1:{i:0;s:24:"Or, more succinctly put:";}i:2;i:272;}i:37;a:3:{i:0;s:7:"p_close";i:1;a:0:{}i:2;i:296;}i:38;a:3:{i:0;s:6:"p_open";i:1;a:0:{}i:2;i:296;}i:39;a:3:{i:0;s:18:"doublequoteopening";i:1;a:0:{}i:2;i:298;}i:40;a:3:{i:0;s:5:"cdata";i:1;a:1:{i:0;s:54:"Don't just eat that hamburger, eat the HELL out of it!";}i:2;i:299;}i:41;a:3:{i:0;s:18:"doublequoteclosing";i:1;a:0:{}i:2;i:353;}i:42;a:3:{i:0;s:4:"nest";i:1;a:1:{i:0;a:7:{i:0;a:3:{i:0;s:13:"footnote_open";i:1;a:0:{}i:2;i:354;}i:1;a:3:{i:0;s:5:"cdata";i:1;a:1:{i:0;s:5:"J.R. ";}i:2;i:356;}i:2;a:3:{i:0;s:18:"doublequoteopening";i:1;a:0:{}i:2;i:361;}i:3;a:3:{i:0;s:5:"cdata";i:1;a:1:{i:0;s:3:"Bob";}i:2;i:362;}i:4;a:3:{i:0;s:18:"doublequoteclosing";i:1;a:0:{}i:2;i:365;}i:5;a:3:{i:0;s:5:"cdata";i:1;a:1:{i:0;s:6:" Dobbs";}i:2;i:366;}i:6;a:3:{i:0;s:14:"footnote_close";i:1;a:0:{}i:2;i:372;}}}i:2;i:354;}i:43;a:3:{i:0;s:5:"cdata";i:1;a:1:{i:0;s:0:"";}i:2;i:374;}i:44;a:3:{i:0;s:7:"p_close";i:1;a:0:{}i:2;i:374;}i:45;a:3:{i:0;s:13:"section_close";i:1;a:0:{}i:2;i:374;}i:46;a:3:{i:0;s:12:"document_end";i:1;a:0:{}i:2;i:374;}}